<?xml version="1.0" encoding="UTF-8" standalone="no"?>
<!-- Created with Inkscape (http://www.inkscape.org/) -->

<svg
   xmlns:dc="http://purl.org/dc/elements/1.1/"
   xmlns:cc="http://creativecommons.org/ns#"
   xmlns:rdf="http://www.w3.org/1999/02/22-rdf-syntax-ns#"
   xmlns:svg="http://www.w3.org/2000/svg"
   xmlns="http://www.w3.org/2000/svg"
   xmlns:sodipodi="http://sodipodi.sourceforge.net/DTD/sodipodi-0.dtd"
   xmlns:inkscape="http://www.inkscape.org/namespaces/inkscape"
   inkscape:version="0.48.5 r10040"
   version="1.1"
   id="svg2"
   height="1052.3622047"
   width="744.09448819"
   sodipodi:docname="New document 1">
  <sodipodi:namedview
     id="base"
     pagecolor="#ffffff"
     bordercolor="#666666"
     borderopacity="1.0"
     inkscape:pageopacity="0.0"
     inkscape:pageshadow="2"
     inkscape:zoom="0.99036984"
     inkscape:cx="258.62511"
     inkscape:cy="748.55017"
     inkscape:document-units="px"
     inkscape:current-layer="svg2"
     showgrid="false"
     inkscape:window-width="1920"
     inkscape:window-height="1018"
     inkscape:window-x="-8"
     inkscape:window-y="-8"
     inkscape:window-maximized="1"
     showguides="true"
     inkscape:guide-bbox="true">
    <sodipodi:guide
       id="guide3057"
       orientation="1.0,-6.12323399574e-17"
       position="790.157480736,0" />
  </sodipodi:namedview>
  <defs
     id="defs4" />
  <metadata
     id="metadata7">
    <rdf:RDF>
      <cc:Work
         rdf:about="">
        <dc:format>image/svg+xml</dc:format>
        <dc:type
           rdf:resource="http://purl.org/dc/dcmitype/StillImage" />
        <dc:title></dc:title>
      </cc:Work>
    </rdf:RDF>
  </metadata>
  <g
     id="layer1"
     inkscape:groupmode="layer"
     inkscape:label="Layer 1" />
  <path
     inkscape:connector-curvature="0"
     style="fill:none;stroke:#ff0000;stroke-width:0.35433071;stroke-miterlimit:4;stroke-dasharray:none"
     id="box-inner-close-tab"
     d="m 241.23005,424.91196 -10.62992,0 0,-28.34645 28.34645,0 0,10.62992 0,0 17.71654,0 0,-10.62992 17.71654,0 0,10.62992 17.71653,0 0,-10.62992 17.71654,0 0,10.62992 17.71653,0 0,-10.62992 17.71654,0 0,10.62992 17.71653,0 0,-10.62992 17.71654,0 0,10.62992 17.71653,0 0,-10.62992 17.71654,0 35.43307,0 17.71653,0 0,10.62992 17.71654,0 0,-10.62992 17.71654,0 0,10.62992 17.71653,0 0,-10.62992 17.71654,0 0,10.62992 17.71653,0 0,-10.62992 17.71654,0 0,10.62992 17.71653,0 0,-10.62992 17.71654,0 0,10.62992 17.71653,0 0,0 0,-10.62992 28.34646,0 0,28.34645 -10.62992,0 0,0 0,17.71654 10.62992,0 0,17.71653 -10.62992,0 0,17.71654 10.62992,0 0,17.71654 -10.62992,0 0,17.71653 10.62992,0 0,49.6063 -10.62992,0 0,17.71654 10.62992,0 0,17.71653 -10.62992,0 0,17.71654 10.62992,0 0,17.71654 -10.62992,0 0,17.71653 0,0 10.62992,0 0,28.34646 -28.34646,0 0,-10.62992 0,0 -17.71653,0 0,10.62992 -17.71654,0 0,-10.62992 -17.71653,0 0,10.62992 -17.71654,0 0,-10.62992 -17.71653,0 0,10.62992 -17.71654,0 0,-10.62992 -17.71653,0 0,10.62992 -17.71654,0 0,-10.62992 -17.71654,0 0,10.62992 -17.71653,0 -35.43307,0 -17.71654,0 0,-10.62992 -17.71653,0 0,10.62992 -17.71654,0 0,-10.62992 -17.71653,0 0,10.62992 -17.71654,0 0,-10.62992 -17.71653,0 0,10.62992 -17.71654,0 0,-10.62992 -17.71653,0 0,10.62992 -17.71654,0 0,-10.62992 -17.71654,0 0,0 0,10.62992 -28.34645,0 0,-28.34646 10.62992,0 0,0 0,-17.71653 -10.62992,0 0,-17.71654 10.62992,0 0,-17.71654 -10.62992,0 0,-17.71653 10.62992,0 0,-17.71654 -10.62992,0 0,-49.6063 10.62992,0 0,-17.71653 -10.62992,0 0,-17.71654 10.62992,0 0,-17.71654 -10.62992,0 0,-17.71653 10.62992,0 0,-17.71654 z" />
  <path
     style="fill:none;stroke:#ff0000;stroke-width:0.35433072;stroke-miterlimit:4;stroke-dasharray:none"
     d="m 37.401918,105.1305 17.71875,0 0,-10.625004 17.71875,0 0,10.625004 17.718751,0 0,-10.625004 17.718751,0 0,10.625004 17.71875,0 0,-10.625004 17.71875,0 0,10.625004 17.71875,0 0,-10.625004 17.71875,0 17.71875,0 0,10.625004 0,17.71875 10.625,0 0,17.71875 -10.625,0 0,17.71875 10.625,0 0,17.71875 -10.625,0 0,17.71875 10.625,0 0,17.71875 -10.625,0 0,49.59375 10.625,0 0,17.71875 -10.625,0 0,17.71875 10.625,0 0,17.71875 -10.625,0 0,17.71875 10.625,0 0,17.71875 -10.625,0 0,17.71875 0,10.625 -17.71875,0 -17.71875,0 0,-10.625 -17.71875,0 0,10.625 -17.71875,0 0,-10.625 -17.71875,0 0,10.625 -17.718751,0 0,-10.625 -17.718751,0 0,10.625 -17.71875,0 0,-10.625 -17.71875,0 0,-262.21875 z m 19.5,119.4375 0,22.1875 103.875002,41.59375 0,-22.8125 -23.59375,-9.0625 0,-37.625 -17.5,6.375 0,24.5 -38.562501,-14.3125 c 25.286121,-9.15992 49.211521,-18.05587 77.187501,-28.1875 l 0,0.0312 2.46875,-0.90625 0,-22.25 -103.875002,40.46875 z"
     id="path3079"
     inkscape:connector-curvature="0" />
  <path
     style="fill:none;stroke:#ff0000;stroke-width:0.35433071;stroke-miterlimit:4;stroke-dasharray:none"
     d="m 230.60013,201.67919 0,17.71875 10.625,0 0,17.71875 -10.625,0 0,17.71875 10.625,0 0,17.71875 -10.625,0 0,17.71875 10.625,0 0,17.71875 -10.625,0 0,17.71875 10.625,0 0,17.71875 0,17.71875 17.71875,0 0,10.625 17.71875,0 0,-10.625 17.71875,0 0,10.625 17.71875,0 0,-10.625 17.71875,0 0,10.625 17.71875,0 0,-10.625 17.71875,0 0,10.625 17.71875,0 0,-10.625 17.71875,0 0,10.625 17.71875,0 0,-10.625 17.71875,0 35.40625,0 17.71875,0 0,10.625 17.71875,0 0,-10.625 17.71875,0 0,10.625 17.71875,0 0,-10.625 17.71875,0 0,10.625 17.71875,0 0,-10.625 17.71875,0 0,10.625 17.71875,0 0,-10.625 17.71875,0 0,10.625 17.71875,0 0,-10.625 17.71875,0 0,-17.71875 0,-17.71875 10.625,0 0,-17.71875 -10.625,0 0,-17.71875 10.625,0 0,-17.71875 -10.625,0 0,-17.71875 10.625,0 0,-17.71875 -10.625,0 0,-17.71875 10.625,0 0,-17.71875 -10.625,0 -425.21875,0 -10.625,0 z m 211.59375,19.5 22.1875,0 41.59375,103.875 -22.8125,0 -9.0625,-23.59375 -37.625,0 6.375,-17.5 24.5,0 -14.3125,-38.5625 c -9.15992,25.28612 -18.05587,49.21152 -28.1875,77.1875 l 0.0312,0 -0.90625,2.46875 -22.25,0 40.46875,-103.875 z"
     id="path3085"
     inkscape:connector-curvature="0" />
  <path
     id="path3135"
     d="m 37.401922,672.28584 17.71875,0 0,10.625 17.71875,0 0,-10.625 17.71875,0 0,10.625 17.718748,0 0,-10.625 17.71875,0 0,10.625 17.71875,0 0,-10.625 17.71875,0 0,10.625 17.71875,0 17.71875,0 0,-10.625 0,-17.71875 10.625,0 0,-17.71875 -10.625,0 0,-17.71875 10.625,0 0,-17.71875 -10.625,0 0,-17.71875 10.625,0 0,-17.71875 -10.625,0 0,-49.59375 10.625,0 0,-17.71875 -10.625,0 0,-17.71875 10.625,0 0,-17.71875 -10.625,0 0,-17.71875 10.625,0 0,-17.71875 -10.625,0 0,-17.71875 0,-10.625 -17.71875,0 -17.71875,0 0,10.625 -17.71875,0 0,-10.625 -17.71875,0 0,10.625 -17.71875,0 0,-10.625 -17.718748,0 0,10.625 -17.71875,0 0,-10.625 -17.71875,0 0,10.625 -17.71875,0 0,262.21875 z m 19.5,-119.4375 0,-22.1875 103.874998,-41.59375 0,22.8125 -23.59375,9.0625 0,37.625 -17.5,-6.375 0,-24.5 -38.562498,14.3125 c 25.286118,9.15992 49.211518,18.05587 77.187498,28.1875 l 0,-0.0312 2.46875,0.90625 0,22.25 -103.874998,-40.46875 z"
     style="fill:none;stroke:#ff0000;stroke-width:0.35433071;stroke-miterlimit:4;stroke-dasharray:none"
     inkscape:connector-curvature="0" />
  <path
     id="path3137"
     d="m 677.06888,17.909454 0,17.71875 -10.625,0 0,17.71875 10.625,0 0,17.71875 -10.625,0 0,17.71875 10.625,0 0,17.718746 -10.625,0 0,17.71876 10.625,0 0,17.71875 -10.625,0 0,17.71875 0,17.71875 -17.71875,0 0,10.625 -17.71875,0 0,-10.625 -17.71875,0 0,10.625 -17.71875,0 0,-10.625 -17.71875,0 0,10.625 -17.71875,0 0,-10.625 -17.71875,0 0,10.625 -17.71875,0 0,-10.625 -17.71875,0 0,10.625 -17.71875,0 0,-10.625 -17.71875,0 -35.40625,0 -17.71875,0 0,10.625 -17.71875,0 0,-10.625 -17.71875,0 0,10.625 -17.71875,0 0,-10.625 -17.71875,0 0,10.625 -17.71875,0 0,-10.625 -17.71875,0 0,10.625 -17.71875,0 0,-10.625 -17.71875,0 0,10.625 -17.71875,0 0,-10.625 -17.71875,0 0,-17.71875 0,-17.71875 -10.625,0 0,-17.71875 10.625,0 0,-17.71876 -10.625,0 0,-17.718746 10.625,0 0,-17.71875 -10.625,0 0,-17.71875 10.625,0 0,-17.71875 -10.625,0 0,-17.71875 10.625,0 425.21875,0 10.625,0 z m -211.59375,19.5 -22.1875,0 -41.59375,103.875006 22.8125,0 9.0625,-23.59375 37.625,0 -6.375,-17.50001 -24.5,0 14.3125,-38.562496 c 9.15992,25.28612 18.05587,49.211516 28.1875,77.187506 l -0.0312,0 0.90625,2.46875 22.25,0 -40.46875,-103.875006 z"
     style="fill:none;stroke:#ff0000;stroke-width:0.35433072;stroke-miterlimit:4;stroke-dasharray:none"
     inkscape:connector-curvature="0" />
</svg>
