<?xml version="1.0" encoding="UTF-8" standalone="no"?>
<!-- Created with Inkscape (http://www.inkscape.org/) -->

<svg
   xmlns:dc="http://purl.org/dc/elements/1.1/"
   xmlns:cc="http://creativecommons.org/ns#"
   xmlns:rdf="http://www.w3.org/1999/02/22-rdf-syntax-ns#"
   xmlns:svg="http://www.w3.org/2000/svg"
   xmlns="http://www.w3.org/2000/svg"
   xmlns:sodipodi="http://sodipodi.sourceforge.net/DTD/sodipodi-0.dtd"
   xmlns:inkscape="http://www.inkscape.org/namespaces/inkscape"
   width="1488.189"
   height="1052.3622"
   id="svg2"
   version="1.1"
   inkscape:version="0.48.3.1 r9886"
   sodipodi:docname="cube.svg">
  <defs
     id="defs4" />
  <sodipodi:namedview
     id="base"
     pagecolor="#ffffff"
     bordercolor="#666666"
     borderopacity="1.0"
     inkscape:pageopacity="0.0"
     inkscape:pageshadow="2"
     inkscape:zoom="0.7"
     inkscape:cx="462.228"
     inkscape:cy="449.03807"
     inkscape:document-units="cm"
     inkscape:current-layer="layer1"
     showgrid="false"
     showguides="true"
     inkscape:guide-bbox="true"
     inkscape:window-width="1855"
     inkscape:window-height="1176"
     inkscape:window-x="65"
     inkscape:window-y="24"
     inkscape:window-maximized="1"
     units="cm">
    <sodipodi:guide
       orientation="0,1"
       position="0,106.29921"
       id="guide2985" />
    <sodipodi:guide
       orientation="0,1"
       position="0,389.76378"
       id="guide2987" />
    <sodipodi:guide
       orientation="0,1"
       position="0,673.22835"
       id="guide2989" />
    <sodipodi:guide
       orientation="0,1"
       position="0,956.69291"
       id="guide2991" />
    <sodipodi:guide
       orientation="1,0"
       position="106.29921,0"
       id="guide2993" />
    <sodipodi:guide
       orientation="1,0"
       position="389.76378,0"
       id="guide2995" />
    <sodipodi:guide
       orientation="1,0"
       position="673.22835,0"
       id="guide2997" />
    <sodipodi:guide
       orientation="1,0"
       position="956.69291,0"
       id="guide2999" />
    <sodipodi:guide
       orientation="1,0"
       position="1240.1575,0"
       id="guide3001" />
    <sodipodi:guide
       orientation="0,1"
       position="0,531.49606"
       id="guide3097" />
    <sodipodi:guide
       orientation="1,0"
       position="531.49606,0"
       id="guide3099" />
    <sodipodi:guide
       orientation="1,0"
       position="248.0315,0"
       id="guide3101" />
    <sodipodi:guide
       orientation="1,0"
       position="814.96063,0"
       id="guide3103" />
    <sodipodi:guide
       orientation="1,0"
       position="1098.4252,0"
       id="guide3105" />
    <sodipodi:guide
       orientation="0,1"
       position="0,814.96063"
       id="guide3107" />
    <sodipodi:guide
       orientation="0,1"
       position="0,248.0315"
       id="guide3109" />
  </sodipodi:namedview>
  <metadata
     id="metadata7">
    <rdf:RDF>
      <cc:Work
         rdf:about="">
        <dc:format>image/svg+xml</dc:format>
        <dc:type
           rdf:resource="http://purl.org/dc/dcmitype/StillImage" />
        <dc:title></dc:title>
      </cc:Work>
    </rdf:RDF>
  </metadata>
  <g
     inkscape:label="Layer 1"
     inkscape:groupmode="layer"
     id="layer1"
     transform="translate(0,0.00130762)">
    <rect
       style="fill:none;stroke:#00ff00"
       id="rect3043"
       width="1133.8583"
       height="283.46457"
       x="106.29921"
       y="379.13382"
       transform="translate(0,-0.00130762)" />
    <path
       style="fill:none;fill-rule:evenodd;stroke:#ff0000;stroke-width:1px;stroke-linecap:butt;stroke-linejoin:miter;stroke-opacity:1"
       d="M 956.6875 95.65625 L 956.6875 379.125 L 908.34375 336.65625 L 739.78125 336.65625 L 673.21875 379.125 L 624.90625 336.65625 L 456.3125 336.65625 L 389.75 379.125 L 341.4375 336.65625 L 172.84375 336.65625 L 106.3125 379.125 L 106.3125 662.59375 L 154.625 705.09375 L 323.21875 705.09375 L 389.75 662.59375 L 438.09375 705.09375 L 606.65625 705.09375 L 673.21875 662.59375 L 721.5625 705.09375 L 890.125 705.09375 L 956.6875 662.59375 L 956.6875 946.0625 L 1240.1562 946.0625 L 1240.1562 662.59375 L 1282.6562 614.25 L 1282.6562 445.6875 L 1240.1562 379.125 L 1240.1562 95.65625 L 956.6875 95.65625 z "
       transform="translate(0,-0.00130762)"
       id="rect3022" />
    <path
       style="fill:none;stroke:#00ff00;stroke-width:1px;stroke-linecap:butt;stroke-linejoin:miter;stroke-opacity:1"
       d="m 956.69291,379.13383 0,283.46457"
       id="path3045"
       inkscape:connector-curvature="0"
       transform="translate(0,-0.00130762)" />
    <path
       style="fill:none;stroke:#0000ff;stroke-width:1px;stroke-linecap:butt;stroke-linejoin:miter;stroke-opacity:1"
       d="m 106.29921,95.669273 0,26.342417"
       id="path3066"
       inkscape:connector-curvature="0"
       transform="translate(0,-0.00130762)" />
    <path
       style="fill:none;stroke:#0000ff;stroke-width:1px;stroke-linecap:butt;stroke-linejoin:miter;stroke-opacity:1"
       d="m 128.28937,95.669273 -21.99016,0"
       id="path3068"
       inkscape:connector-curvature="0"
       transform="translate(0,-0.00130762)" />
    <path
       style="fill:none;stroke:#0000ff;stroke-width:1px;stroke-linecap:butt;stroke-linejoin:miter;stroke-opacity:1"
       d="m 106.29921,920.0322 0,26.03077"
       id="path3070"
       inkscape:connector-curvature="0"
       transform="translate(0,-0.00130762)" />
    <path
       style="fill:none;stroke:#0000ff;stroke-width:1px;stroke-linecap:butt;stroke-linejoin:miter;stroke-opacity:1"
       d="m 137.38075,946.06297 -31.08154,0"
       id="path3072"
       inkscape:connector-curvature="0"
       transform="translate(0,-0.00130762)" />
    <rect
       style="fill:none;stroke:#00ff00"
       id="rect3006"
       width="283.46457"
       height="283.46457"
       x="389.76379"
       y="379.13382"
       transform="translate(0,-0.00130762)" />
    <path
       sodipodi:type="arc"
       style="fill:none;stroke:#ff0000"
       id="path3115"
       sodipodi:cx="248.03149"
       sodipodi:cy="520.86615"
       sodipodi:rx="100.53993"
       sodipodi:ry="107.21034"
       d="m 348.57143,520.86615 a 100.53993,107.21034 0 1 1 -201.07987,0 100.53993,107.21034 0 1 1 201.07987,0 z"
       transform="translate(0,-0.00130762)" />
    <path
       sodipodi:type="arc"
       style="fill:none;stroke:#ff0000"
       id="path3135"
       sodipodi:cx="248.03149"
       sodipodi:cy="520.86615"
       sodipodi:rx="100.53993"
       sodipodi:ry="107.21034"
       d="m 348.57143,520.86615 a 100.53993,107.21034 0 1 1 -201.07987,0 100.53993,107.21034 0 1 1 201.07987,0 z"
       transform="translate(850.39368,-283.46587)" />
    <path
       transform="translate(850.39368,283.46325)"
       d="m 348.57143,520.86615 a 100.53993,107.21034 0 1 1 -201.07987,0 100.53993,107.21034 0 1 1 201.07987,0 z"
       sodipodi:ry="107.21034"
       sodipodi:rx="100.53993"
       sodipodi:cy="520.86615"
       sodipodi:cx="248.03149"
       id="path3137"
       style="fill:none;stroke:#ff0000"
       sodipodi:type="arc" />
    <path
       sodipodi:type="arc"
       style="fill:none;stroke:#ff0000"
       id="path3139"
       sodipodi:cx="248.03149"
       sodipodi:cy="520.86615"
       sodipodi:rx="100.53993"
       sodipodi:ry="107.21034"
       d="m 348.57143,520.86615 a 100.53993,107.21034 0 1 1 -201.07987,0 100.53993,107.21034 0 1 1 201.07987,0 z"
       transform="translate(850.39368,-0.00130762)" />
    <path
       transform="translate(566.92912,-0.00130762)"
       d="m 348.57143,520.86615 a 100.53993,107.21034 0 1 1 -201.07987,0 100.53993,107.21034 0 1 1 201.07987,0 z"
       sodipodi:ry="107.21034"
       sodipodi:rx="100.53993"
       sodipodi:cy="520.86615"
       sodipodi:cx="248.03149"
       id="path3141"
       style="fill:none;stroke:#ff0000"
       sodipodi:type="arc" />
    <path
       sodipodi:type="arc"
       style="fill:none;stroke:#ff0000"
       id="path3143"
       sodipodi:cx="248.03149"
       sodipodi:cy="520.86615"
       sodipodi:rx="100.53993"
       sodipodi:ry="107.21034"
       d="m 348.57143,520.86615 a 100.53993,107.21034 0 1 1 -201.07987,0 100.53993,107.21034 0 1 1 201.07987,0 z"
       transform="translate(283.46456,-0.00130762)" />
  </g>
</svg>
