<?xml version="1.0" encoding="UTF-8" standalone="no"?>
<!-- Created with Inkscape (http://www.inkscape.org/) -->

<svg
   xmlns:dc="http://purl.org/dc/elements/1.1/"
   xmlns:cc="http://creativecommons.org/ns#"
   xmlns:rdf="http://www.w3.org/1999/02/22-rdf-syntax-ns#"
   xmlns:svg="http://www.w3.org/2000/svg"
   xmlns="http://www.w3.org/2000/svg"
   xmlns:sodipodi="http://sodipodi.sourceforge.net/DTD/sodipodi-0.dtd"
   xmlns:inkscape="http://www.inkscape.org/namespaces/inkscape"
   width="744.09448"
   height="1052.3622"
   id="svg2"
   version="1.1"
   inkscape:version="0.91 r13725"
   sodipodi:docname="gabarit percage2.svg">
  <defs
     id="defs4" />
  <sodipodi:namedview
     id="base"
     pagecolor="#ffffff"
     bordercolor="#666666"
     borderopacity="1.0"
     inkscape:pageopacity="0.0"
     inkscape:pageshadow="2"
     inkscape:zoom="0.98994949"
     inkscape:cx="-110.90927"
     inkscape:cy="475.52405"
     inkscape:document-units="mm"
     inkscape:current-layer="layer1"
     showgrid="false"
     showguides="true"
     inkscape:guide-bbox="true"
     units="mm"
     inkscape:window-width="1920"
     inkscape:window-height="1018"
     inkscape:window-x="-8"
     inkscape:window-y="-8"
     inkscape:window-maximized="1">
    <sodipodi:guide
       orientation="1,0"
       position="177.16535,0"
       id="guide2985" />
    <sodipodi:guide
       orientation="1,0"
       position="345.82677,537.14286"
       id="guide2987" />
    <sodipodi:guide
       orientation="0,1"
       position="0,177.16535"
       id="guide2989" />
    <sodipodi:guide
       orientation="0,1"
       position="0,698.0315"
       id="guide2991" />
    <sodipodi:guide
       orientation="1,0"
       position="223.22835,0"
       id="guide2993" />
    <sodipodi:guide
       orientation="1,0"
       position="296.22047,319.2082"
       id="guide2995" />
  </sodipodi:namedview>
  <metadata
     id="metadata7">
    <rdf:RDF>
      <cc:Work
         rdf:about="">
        <dc:format>image/svg+xml</dc:format>
        <dc:type
           rdf:resource="http://purl.org/dc/dcmitype/StillImage" />
        <dc:title></dc:title>
      </cc:Work>
    </rdf:RDF>
  </metadata>
  <g
     inkscape:label="Layer 1"
     inkscape:groupmode="layer"
     id="layer1"
     transform="translate(0,-2.5390623e-6)">
    <rect
       style="fill:none;stroke:#000000;stroke-width:0.70866144;stroke-miterlimit:4;stroke-dasharray:none"
       id="rect3854"
       width="168.66142"
       height="520.86615"
       x="177.16534"
       y="354.33069"
       transform="translate(0,2.5390623e-6)" />
    <g
       id="g4636"
       transform="translate(0,-18.182746)">
      <circle
         style="fill:none;stroke:#000000;stroke-width:0.70866144;stroke-miterlimit:4;stroke-dasharray:none"
         id="circle4204"
         cx="225"
         cy="489.75735"
         r="16.162441" />
      <path
         style="fill:none;stroke:#000000;stroke-width:0.70866144;stroke-linecap:butt;stroke-linejoin:miter;stroke-miterlimit:4;stroke-dasharray:none;stroke-opacity:1"
         d="m 197.2208,489.75737 55.55839,0"
         id="path4206"
         inkscape:connector-curvature="0" />
      <path
         inkscape:connector-curvature="0"
         id="path4208"
         d="m 225,461.97818 0,55.55839"
         style="fill:none;stroke:#000000;stroke-width:0.70866144;stroke-linecap:butt;stroke-linejoin:miter;stroke-miterlimit:4;stroke-dasharray:none;stroke-opacity:1" />
      <circle
         id="circle4210"
         style="fill:none;stroke:#000000;stroke-width:0.70866144;stroke-miterlimit:4;stroke-dasharray:none"
         cx="297.99213"
         cy="489.75735"
         r="16.162441" />
      <path
         inkscape:connector-curvature="0"
         id="path4212"
         d="m 270.21292,489.75737 55.55839,0"
         style="fill:none;stroke:#000000;stroke-width:0.70866144;stroke-linecap:butt;stroke-linejoin:miter;stroke-miterlimit:4;stroke-dasharray:none;stroke-opacity:1" />
      <path
         style="fill:none;stroke:#000000;stroke-width:0.70866144;stroke-linecap:butt;stroke-linejoin:miter;stroke-miterlimit:4;stroke-dasharray:none;stroke-opacity:1"
         d="m 297.99212,461.97818 0,55.55839"
         id="path4214"
         inkscape:connector-curvature="0" />
      <circle
         style="fill:none;stroke:#000000;stroke-width:0.70866144;stroke-miterlimit:4;stroke-dasharray:none"
         id="circle4218"
         cx="225"
         cy="406.41977"
         r="16.162441" />
      <path
         style="fill:none;stroke:#000000;stroke-width:0.70866144;stroke-linecap:butt;stroke-linejoin:miter;stroke-miterlimit:4;stroke-dasharray:none;stroke-opacity:1"
         d="m 197.2208,406.41978 55.55839,0"
         id="path4220"
         inkscape:connector-curvature="0" />
      <path
         inkscape:connector-curvature="0"
         id="path4222"
         d="m 225,378.64059 0,55.55839"
         style="fill:none;stroke:#000000;stroke-width:0.70866144;stroke-linecap:butt;stroke-linejoin:miter;stroke-miterlimit:4;stroke-dasharray:none;stroke-opacity:1" />
      <circle
         id="circle4224"
         style="fill:none;stroke:#000000;stroke-width:0.70866144;stroke-miterlimit:4;stroke-dasharray:none"
         cx="297.99213"
         cy="406.41977"
         r="16.162441" />
      <path
         inkscape:connector-curvature="0"
         id="path4226"
         d="m 270.21292,406.41978 55.55839,0"
         style="fill:none;stroke:#000000;stroke-width:0.70866144;stroke-linecap:butt;stroke-linejoin:miter;stroke-miterlimit:4;stroke-dasharray:none;stroke-opacity:1" />
      <path
         style="fill:none;stroke:#000000;stroke-width:0.70866144;stroke-linecap:butt;stroke-linejoin:miter;stroke-miterlimit:4;stroke-dasharray:none;stroke-opacity:1"
         d="m 297.99212,378.64059 0,55.55839"
         id="path4228"
         inkscape:connector-curvature="0" />
      <circle
         r="16.162441"
         cy="447.23767"
         cx="261.49606"
         style="fill:none;stroke:#000000;stroke-width:0.70866144;stroke-miterlimit:4;stroke-dasharray:none"
         id="circle4290" />
      <path
         style="fill:none;stroke:#000000;stroke-width:0.70866144;stroke-linecap:butt;stroke-linejoin:miter;stroke-miterlimit:4;stroke-dasharray:none;stroke-opacity:1"
         d="m 233.71686,447.23768 55.55839,0"
         id="path4292"
         inkscape:connector-curvature="0" />
      <path
         inkscape:connector-curvature="0"
         id="path4294"
         d="m 261.49606,419.45849 0,55.55839"
         style="fill:none;stroke:#000000;stroke-width:0.70866144;stroke-linecap:butt;stroke-linejoin:miter;stroke-miterlimit:4;stroke-dasharray:none;stroke-opacity:1" />
    </g>
    <g
       transform="translate(797.01036,121.21831)"
       id="g4312" />
    <g
       id="g4419"
       transform="translate(0.3745256,83.842656)">
      <g
         id="g4347">
        <g
           id="g4307"
           transform="translate(690.94434,100.00511)">
          <circle
             r="16.162441"
             cy="611.98584"
             cx="-485.88626"
             style="fill:none;stroke:#000000;stroke-width:0.70866144;stroke-miterlimit:4;stroke-dasharray:none"
             id="path3005" />
          <path
             style="fill:none;stroke:#000000;stroke-width:0.70866144;stroke-linecap:butt;stroke-linejoin:miter;stroke-miterlimit:4;stroke-dasharray:none;stroke-opacity:1"
             d="m -513.66546,611.98585 55.55839,0"
             id="path3007"
             inkscape:connector-curvature="0" />
          <path
             inkscape:connector-curvature="0"
             id="path3009"
             d="m -485.88626,584.20666 0,55.55839"
             style="fill:none;stroke:#000000;stroke-width:0.70866144;stroke-linecap:butt;stroke-linejoin:miter;stroke-miterlimit:4;stroke-dasharray:none;stroke-opacity:1" />
        </g>
        <g
           transform="translate(803.07125,100.00511)"
           id="g4331">
          <circle
             id="circle4333"
             style="fill:none;stroke:#000000;stroke-width:0.70866144;stroke-miterlimit:4;stroke-dasharray:none"
             cx="-485.88626"
             cy="611.98584"
             r="16.162441" />
          <path
             inkscape:connector-curvature="0"
             id="path4335"
             d="m -513.66546,611.98585 55.55839,0"
             style="fill:none;stroke:#000000;stroke-width:0.70866144;stroke-linecap:butt;stroke-linejoin:miter;stroke-miterlimit:4;stroke-dasharray:none;stroke-opacity:1" />
          <path
             style="fill:none;stroke:#000000;stroke-width:0.70866144;stroke-linecap:butt;stroke-linejoin:miter;stroke-miterlimit:4;stroke-dasharray:none;stroke-opacity:1"
             d="m -485.88626,584.20666 0,55.55839"
             id="path4337"
             inkscape:connector-curvature="0" />
        </g>
      </g>
      <g
         transform="translate(747.00781,100.00511)"
         id="g4339">
        <circle
           id="circle4341"
           style="fill:none;stroke:#000000;stroke-width:0.70866144;stroke-miterlimit:4;stroke-dasharray:none"
           cx="-485.88626"
           cy="611.98584"
           r="16.162441" />
        <path
           inkscape:connector-curvature="0"
           id="path4343"
           d="m -513.66546,611.98585 55.55839,0"
           style="fill:none;stroke:#000000;stroke-width:0.70866144;stroke-linecap:butt;stroke-linejoin:miter;stroke-miterlimit:4;stroke-dasharray:none;stroke-opacity:1" />
        <path
           style="fill:none;stroke:#000000;stroke-width:0.70866144;stroke-linecap:butt;stroke-linejoin:miter;stroke-miterlimit:4;stroke-dasharray:none;stroke-opacity:1"
           d="m -485.88626,584.20666 0,55.55839"
           id="path4345"
           inkscape:connector-curvature="0" />
      </g>
      <g
         transform="matrix(-0.5,-0.8660254,0.8660254,-0.5,-224.91997,1294.1243)"
         id="g4357">
        <g
           transform="translate(690.94434,100.00511)"
           id="g4359">
          <circle
             id="circle4361"
             style="fill:none;stroke:#000000;stroke-width:0.70866144;stroke-miterlimit:4;stroke-dasharray:none"
             cx="-485.88626"
             cy="611.98584"
             r="16.162441" />
          <path
             inkscape:connector-curvature="0"
             id="path4363"
             d="m -513.66546,611.98585 55.55839,0"
             style="fill:none;stroke:#000000;stroke-width:0.70866144;stroke-linecap:butt;stroke-linejoin:miter;stroke-miterlimit:4;stroke-dasharray:none;stroke-opacity:1" />
          <path
             style="fill:none;stroke:#000000;stroke-width:0.70866144;stroke-linecap:butt;stroke-linejoin:miter;stroke-miterlimit:4;stroke-dasharray:none;stroke-opacity:1"
             d="m -485.88626,584.20666 0,55.55839"
             id="path4365"
             inkscape:connector-curvature="0" />
        </g>
        <g
           id="g4367"
           transform="translate(803.07125,100.00511)">
          <circle
             r="16.162441"
             cy="611.98584"
             cx="-485.88626"
             style="fill:none;stroke:#000000;stroke-width:0.70866144;stroke-miterlimit:4;stroke-dasharray:none"
             id="circle4369" />
          <path
             style="fill:none;stroke:#000000;stroke-width:0.70866144;stroke-linecap:butt;stroke-linejoin:miter;stroke-miterlimit:4;stroke-dasharray:none;stroke-opacity:1"
             d="m -513.66546,611.98585 55.55839,0"
             id="path4371"
             inkscape:connector-curvature="0" />
          <path
             inkscape:connector-curvature="0"
             id="path4373"
             d="m -485.88626,584.20666 0,55.55839"
             style="fill:none;stroke:#000000;stroke-width:0.70866144;stroke-linecap:butt;stroke-linejoin:miter;stroke-miterlimit:4;stroke-dasharray:none;stroke-opacity:1" />
        </g>
      </g>
      <g
         transform="matrix(-0.5,0.8660254,-0.8660254,-0.5,1008.2846,841.84857)"
         id="g4375">
        <g
           transform="translate(690.94434,100.00511)"
           id="g4377">
          <circle
             id="circle4379"
             style="fill:none;stroke:#000000;stroke-width:0.70866144;stroke-miterlimit:4;stroke-dasharray:none"
             cx="-485.88626"
             cy="611.98584"
             r="16.162441" />
          <path
             inkscape:connector-curvature="0"
             id="path4381"
             d="m -513.66546,611.98585 55.55839,0"
             style="fill:none;stroke:#000000;stroke-width:0.70866144;stroke-linecap:butt;stroke-linejoin:miter;stroke-miterlimit:4;stroke-dasharray:none;stroke-opacity:1" />
          <path
             style="fill:none;stroke:#000000;stroke-width:0.70866144;stroke-linecap:butt;stroke-linejoin:miter;stroke-miterlimit:4;stroke-dasharray:none;stroke-opacity:1"
             d="m -485.88626,584.20666 0,55.55839"
             id="path4383"
             inkscape:connector-curvature="0" />
        </g>
        <g
           id="g4385"
           transform="translate(803.07125,100.00511)">
          <circle
             r="16.162441"
             cy="611.98584"
             cx="-485.88626"
             style="fill:none;stroke:#000000;stroke-width:0.70866144;stroke-miterlimit:4;stroke-dasharray:none"
             id="circle4387" />
          <path
             style="fill:none;stroke:#000000;stroke-width:0.70866144;stroke-linecap:butt;stroke-linejoin:miter;stroke-miterlimit:4;stroke-dasharray:none;stroke-opacity:1"
             d="m -513.66546,611.98585 55.55839,0"
             id="path4389"
             inkscape:connector-curvature="0" />
          <path
             inkscape:connector-curvature="0"
             id="path4391"
             d="m -485.88626,584.20666 0,55.55839"
             style="fill:none;stroke:#000000;stroke-width:0.70866144;stroke-linecap:butt;stroke-linejoin:miter;stroke-miterlimit:4;stroke-dasharray:none;stroke-opacity:1" />
        </g>
      </g>
    </g>
    <g
       id="g4478"
       transform="translate(0,40.406064)">
      <g
         transform="translate(0.3745256,-64.649763)"
         id="g4393">
        <g
           transform="translate(690.94434,100.00511)"
           id="g4395">
          <circle
             id="circle4397"
             style="fill:none;stroke:#000000;stroke-width:0.70866144;stroke-miterlimit:4;stroke-dasharray:none"
             cx="-485.88626"
             cy="611.98584"
             r="16.162441" />
          <path
             inkscape:connector-curvature="0"
             id="path4399"
             d="m -513.66546,611.98585 55.55839,0"
             style="fill:none;stroke:#000000;stroke-width:0.70866144;stroke-linecap:butt;stroke-linejoin:miter;stroke-miterlimit:4;stroke-dasharray:none;stroke-opacity:1" />
          <path
             style="fill:none;stroke:#000000;stroke-width:0.70866144;stroke-linecap:butt;stroke-linejoin:miter;stroke-miterlimit:4;stroke-dasharray:none;stroke-opacity:1"
             d="m -485.88626,584.20666 0,55.55839"
             id="path4401"
             inkscape:connector-curvature="0" />
        </g>
        <g
           id="g4403"
           transform="translate(803.07125,100.00511)">
          <circle
             r="16.162441"
             cy="611.98584"
             cx="-485.88626"
             style="fill:none;stroke:#000000;stroke-width:0.70866144;stroke-miterlimit:4;stroke-dasharray:none"
             id="circle4405" />
          <path
             style="fill:none;stroke:#000000;stroke-width:0.70866144;stroke-linecap:butt;stroke-linejoin:miter;stroke-miterlimit:4;stroke-dasharray:none;stroke-opacity:1"
             d="m -513.66546,611.98585 55.55839,0"
             id="path4407"
             inkscape:connector-curvature="0" />
          <path
             inkscape:connector-curvature="0"
             id="path4409"
             d="m -485.88626,584.20666 0,55.55839"
             style="fill:none;stroke:#000000;stroke-width:0.70866144;stroke-linecap:butt;stroke-linejoin:miter;stroke-miterlimit:4;stroke-dasharray:none;stroke-opacity:1" />
        </g>
      </g>
      <g
         id="g4411"
         transform="translate(747.38232,35.355347)">
        <circle
           r="16.162441"
           cy="611.98584"
           cx="-485.88626"
           style="fill:none;stroke:#000000;stroke-width:0.70866144;stroke-miterlimit:4;stroke-dasharray:none"
           id="circle4413" />
        <path
           style="fill:none;stroke:#000000;stroke-width:0.70866144;stroke-linecap:butt;stroke-linejoin:miter;stroke-miterlimit:4;stroke-dasharray:none;stroke-opacity:1"
           d="m -513.66546,611.98585 55.55839,0"
           id="path4415"
           inkscape:connector-curvature="0" />
        <path
           inkscape:connector-curvature="0"
           id="path4417"
           d="m -485.88626,584.20666 0,55.55839"
           style="fill:none;stroke:#000000;stroke-width:0.70866144;stroke-linecap:butt;stroke-linejoin:miter;stroke-miterlimit:4;stroke-dasharray:none;stroke-opacity:1" />
      </g>
    </g>
    <g
       id="g4653"
       transform="translate(13.767821,-10.101506)">
      <g
         id="g4521"
         transform="translate(691.31887,-22.22335)">
        <circle
           r="16.162441"
           cy="611.98584"
           cx="-485.88626"
           style="fill:none;stroke:#000000;stroke-width:0.70866144;stroke-miterlimit:4;stroke-dasharray:none"
           id="circle4523" />
        <path
           style="fill:none;stroke:#000000;stroke-width:0.70866144;stroke-linecap:butt;stroke-linejoin:miter;stroke-miterlimit:4;stroke-dasharray:none;stroke-opacity:1"
           d="m -513.66546,611.98585 55.55839,0"
           id="path4525"
           inkscape:connector-curvature="0" />
        <path
           inkscape:connector-curvature="0"
           id="path4527"
           d="m -485.88626,584.20666 0,55.55839"
           style="fill:none;stroke:#000000;stroke-width:0.70866144;stroke-linecap:butt;stroke-linejoin:miter;stroke-miterlimit:4;stroke-dasharray:none;stroke-opacity:1" />
      </g>
      <g
         id="g4537"
         transform="translate(747.38234,-22.22335)">
        <circle
           r="16.162441"
           cy="611.98584"
           cx="-485.88626"
           style="fill:none;stroke:#000000;stroke-width:0.70866144;stroke-miterlimit:4;stroke-dasharray:none"
           id="circle4539" />
        <path
           style="fill:none;stroke:#000000;stroke-width:0.70866144;stroke-linecap:butt;stroke-linejoin:miter;stroke-miterlimit:4;stroke-dasharray:none;stroke-opacity:1"
           d="m -513.66546,611.98585 55.55839,0"
           id="path4541"
           inkscape:connector-curvature="0" />
        <path
           inkscape:connector-curvature="0"
           id="path4543"
           d="m -485.88626,584.20666 0,55.55839"
           style="fill:none;stroke:#000000;stroke-width:0.70866144;stroke-linecap:butt;stroke-linejoin:miter;stroke-miterlimit:4;stroke-dasharray:none;stroke-opacity:1" />
      </g>
      <g
         transform="matrix(-0.5,-0.8660254,0.8660254,-0.5,-483.41064,523.5179)"
         id="g4547">
        <circle
           id="circle4549"
           style="fill:none;stroke:#000000;stroke-width:0.70866144;stroke-miterlimit:4;stroke-dasharray:none"
           cx="-485.88626"
           cy="611.98584"
           r="16.162441" />
        <path
           inkscape:connector-curvature="0"
           id="path4551"
           d="m -513.66546,611.98585 55.55839,0"
           style="fill:none;stroke:#000000;stroke-width:0.70866144;stroke-linecap:butt;stroke-linejoin:miter;stroke-miterlimit:4;stroke-dasharray:none;stroke-opacity:1" />
        <path
           style="fill:none;stroke:#000000;stroke-width:0.70866144;stroke-linecap:butt;stroke-linejoin:miter;stroke-miterlimit:4;stroke-dasharray:none;stroke-opacity:1"
           d="m -485.88626,584.20666 0,55.55839"
           id="path4553"
           inkscape:connector-curvature="0" />
      </g>
      <g
         transform="matrix(-0.5,0.8660254,-0.8660254,-0.5,576.57996,1267.9929)"
         id="g4565">
        <circle
           id="circle4567"
           style="fill:none;stroke:#000000;stroke-width:0.70866144;stroke-miterlimit:4;stroke-dasharray:none"
           cx="-485.88626"
           cy="611.98584"
           r="16.162441" />
        <path
           inkscape:connector-curvature="0"
           id="path4569"
           d="m -513.66546,611.98585 55.55839,0"
           style="fill:none;stroke:#000000;stroke-width:0.70866144;stroke-linecap:butt;stroke-linejoin:miter;stroke-miterlimit:4;stroke-dasharray:none;stroke-opacity:1" />
        <path
           style="fill:none;stroke:#000000;stroke-width:0.70866144;stroke-linecap:butt;stroke-linejoin:miter;stroke-miterlimit:4;stroke-dasharray:none;stroke-opacity:1"
           d="m -485.88626,584.20666 0,55.55839"
           id="path4571"
           inkscape:connector-curvature="0" />
      </g>
    </g>
  </g>
</svg>
