<?xml version="1.0" encoding="UTF-8" standalone="no"?>
<!-- Created with Inkscape (http://www.inkscape.org/) -->

<svg
   xmlns:dc="http://purl.org/dc/elements/1.1/"
   xmlns:cc="http://creativecommons.org/ns#"
   xmlns:rdf="http://www.w3.org/1999/02/22-rdf-syntax-ns#"
   xmlns:svg="http://www.w3.org/2000/svg"
   xmlns="http://www.w3.org/2000/svg"
   xmlns:sodipodi="http://sodipodi.sourceforge.net/DTD/sodipodi-0.dtd"
   xmlns:inkscape="http://www.inkscape.org/namespaces/inkscape"
   width="297mm"
   height="210mm"
   viewBox="0 0 1052.3622 744.09448"
   id="svg2"
   version="1.1"
   inkscape:version="0.91 r13725"
   sodipodi:docname="gears.svg">
  <sodipodi:namedview
     inkscape:bbox-paths="false"
     inkscape:snap-bbox-midpoints="true"
     inkscape:snap-bbox-edge-midpoints="true"
     inkscape:snap-bbox="true"
     inkscape:guide-bbox="true"
     showguides="true"
     id="base"
     pagecolor="#ffffff"
     bordercolor="#666666"
     borderopacity="1.0"
     inkscape:pageopacity="0.0"
     inkscape:pageshadow="2"
     inkscape:zoom="0.98994949"
     inkscape:cx="600.60316"
     inkscape:cy="498.28375"
     inkscape:document-units="mm"
     inkscape:current-layer="layer3"
     showgrid="false"
     inkscape:window-width="1920"
     inkscape:window-height="1018"
     inkscape:window-x="-8"
     inkscape:window-y="-8"
     inkscape:window-maximized="1"
     inkscape:snap-intersection-paths="false"
     inkscape:object-nodes="true"
     inkscape:snap-global="true"
     inkscape:snap-others="true"
     inkscape:snap-nodes="true"
     inkscape:snap-to-guides="true"
     inkscape:snap-grids="false">
    <sodipodi:guide
       position="354.33072,0"
       orientation="1,0"
       id="guide5534"
       inkscape:label="Gear 2"
       inkscape:color="rgb(0,0,255)" />
    <sodipodi:guide
       position="251.57481,0"
       orientation="1,0"
       id="guide5536"
       inkscape:label="Gear 1"
       inkscape:color="rgb(0,0,255)" />
    <sodipodi:guide
       position="474.0945,0"
       orientation="1,0"
       id="guide5538"
       inkscape:label="Gear 3"
       inkscape:color="rgb(0,0,255)" />
    <sodipodi:guide
       position="0,531.49607"
       orientation="0,1"
       id="guide5540"
       inkscape:label=""
       inkscape:color="rgb(0,0,255)" />
    <sodipodi:guide
       position="0,354.33071"
       orientation="0,1"
       id="guide5556"
       inkscape:label=""
       inkscape:color="rgb(0,0,255)" />
    <sodipodi:guide
       position="194.95945,531.49607"
       orientation="1,0"
       id="guide5564" />
    <sodipodi:guide
       position="577.14287,141.42857"
       orientation="1,0"
       id="guide5566" />
    <sodipodi:guide
       position="993.897638214,0"
       orientation="1.0,-6.12323399574e-17"
       id="guide6171" />
    <sodipodi:guide
       position="983.267716532,0"
       orientation="1.0,-6.12323399574e-17"
       id="guide6173" />
    <sodipodi:guide
       position="1038.1889768,0"
       orientation="1.0,-6.12323399574e-17"
       id="guide6175" />
    <sodipodi:guide
       position="1048.81889848,0"
       orientation="1.0,-6.12323399574e-17"
       id="guide6177" />
    <sodipodi:guide
       position="1048.81889848,0"
       orientation="1.0,-6.12323399574e-17"
       id="guide6179" />
    <sodipodi:guide
       position="0,733.464565659"
       orientation="0.0,-1.0"
       id="guide6181" />
    <sodipodi:guide
       position="0,678.543305394"
       orientation="0.0,-1.0"
       id="guide6185" />
    <sodipodi:guide
       position="0,689.173227076"
       orientation="0.0,-1.0"
       id="guide6187" />
    <sodipodi:guide
       position="744.094488186,0"
       orientation="1.0,-6.12323399574e-17"
       id="guide6211" />
    <sodipodi:guide
       position="912.4015748,0"
       orientation="1.0,-6.12323399574e-17"
       id="guide6217" />
    <sodipodi:guide
       position="923.031496482,0"
       orientation="1.0,-6.12323399574e-17"
       id="guide6219" />
    <sodipodi:guide
       position="0,212.59843"
       orientation="0,1"
       id="guide6466"
       inkscape:label=""
       inkscape:color="rgb(0,0,255)" />
    <sodipodi:guide
       position="0,290.55119"
       orientation="0,1"
       id="guide6468"
       inkscape:label=""
       inkscape:color="rgb(0,0,255)" />
    <sodipodi:guide
       position="-354.33072,0"
       orientation="1,0"
       id="guide6470"
       inkscape:label=""
       inkscape:color="rgb(0,0,255)" />
    <sodipodi:guide
       position="-311.81103,0"
       orientation="1,0"
       id="guide6472"
       inkscape:label=""
       inkscape:color="rgb(0,0,255)" />
    <sodipodi:guide
       position="0,311.81103"
       orientation="0,1"
       id="guide6474"
       inkscape:label=""
       inkscape:color="rgb(0,0,255)" />
  </sodipodi:namedview>
  <defs
     id="defs4" />
  <metadata
     id="metadata7">
    <rdf:RDF>
      <cc:Work
         rdf:about="">
        <dc:format>image/svg+xml</dc:format>
        <dc:type
           rdf:resource="http://purl.org/dc/dcmitype/StillImage" />
        <dc:title />
      </cc:Work>
    </rdf:RDF>
  </metadata>
  <g
     transform="translate(0,-308.26772)"
     id="layer1"
     inkscape:groupmode="layer"
     inkscape:label="Gears"
     style="display:none">
    <g
       id="g5360"
       transform="matrix(0.96592583,-0.25881905,0.25881905,0.96592583,251.5748,520.86614)"
       inkscape:label="Gear12"
       style="stroke-width:0.35433072;stroke-miterlimit:4;stroke-dasharray:none">
      <path
         id="path5362"
         d="m 27.89756,-4.09665 3.56059,-0.52286 2.08847,0.20301 5.89,2.66634 0,3.50032 -5.89,2.66634 -2.08847,0.20301 -3.56059,-0.52286 -1.68924,6.30433 3.345,1.32749 1.70715,1.22004 3.76773,5.25412 -1.75016,3.03136 -6.43406,-0.63588 -1.91017,-0.86842 -2.82214,-2.23311 -4.61509,4.61509 2.23311,2.82214 0.86842,1.91017 0.63588,6.43406 -3.03136,1.75016 -5.25412,-3.76773 -1.22004,-1.70715 -1.32749,-3.345 -6.30433,1.68924 0.52286,3.56059 -0.20301,2.08847 -2.66634,5.89 -3.50032,0 -2.66634,-5.89 -0.20301,-2.08847 0.52286,-3.56059 -6.30433,-1.68924 -1.32749,3.345 -1.22004,1.70715 -5.25412,3.76773 -3.03136,-1.75016 0.63588,-6.43406 0.86842,-1.91017 2.23311,-2.82214 -4.61509,-4.61509 -2.82214,2.23311 -1.91017,0.86842 -6.43406,0.63588 -1.75016,-3.03136 3.76773,-5.25412 1.70715,-1.22004 3.345,-1.32749 -1.68924,-6.30433 -3.56059,0.52286 -2.08847,-0.20301 -5.89,-2.66634 0,-3.50032 5.89,-2.66634 2.08847,-0.20301 3.56059,0.52286 1.68924,-6.30433 -3.345,-1.32749 -1.70715,-1.22004 -3.76773,-5.25412 1.75016,-3.03136 6.43406,0.63588 1.91017,0.86842 2.82214,2.23311 4.61509,-4.61509 -2.23311,-2.82214 -0.86842,-1.91017 -0.63588,-6.43406 3.03136,-1.75016 5.25412,3.76773 1.22004,1.70715 1.32749,3.345 6.30433,-1.68924 -0.52286,-3.56059 0.20301,-2.08847 2.66634,-5.89 3.50032,0 2.66634,5.89 0.20301,2.08847 -0.52286,3.56059 6.30433,1.68924 1.32749,-3.345 1.22004,-1.70715 5.25412,-3.76773 3.03136,1.75016 -0.63588,6.43406 -0.86842,1.91017 -2.23311,2.82214 4.61509,4.61509 2.82214,-2.23311 1.91017,-0.86842 6.43406,-0.63588 1.75016,3.03136 -3.76773,5.25412 -1.70715,1.22004 -3.345,1.32749 z"
         style="fill:none;stroke:#000000;stroke-width:0.35433072;stroke-miterlimit:4;stroke-dasharray:none"
         inkscape:connector-curvature="0" />
      <circle
         id="path5364"
         style="fill:none;stroke:#000000;stroke-width:0.35433072;stroke-miterlimit:4;stroke-dasharray:none"
         cx="0"
         cy="0"
         r="14.173228" />
    </g>
    <g
       id="g5406"
       transform="matrix(0.98480775,-0.17364818,0.17364818,0.98480775,474.09449,520.86614)"
       inkscape:label="Gear18"
       style="stroke-width:0.35433072;stroke-miterlimit:4;stroke-dasharray:none">
      <path
         id="path5408"
         d="m 44.87952,-4.6014 2.56505,-0.26299 3.11643,0.44088 5.79973,2.50181 0,3.8434 -5.79973,2.50181 -3.11643,0.44088 -2.56505,-0.26299 -1.1328,6.4244 2.50031,0.63017 2.7777,1.48017 4.59429,4.33456 -1.31452,3.61161 -6.30563,0.36731 -3.07928,-0.65159 -2.32041,-1.12443 -3.26175,5.64952 2.13399,1.44732 2.10393,2.34094 2.83472,5.64449 -2.47049,2.94422 -6.05099,-1.8115 -2.67071,-1.66547 -1.7959,-1.85024 -4.99729,4.19322 1.51028,2.08991 1.17641,2.91934 0.73322,6.27363 -3.32847,1.92169 -5.06651,-3.7718 -1.94002,-2.47847 -1.05477,-2.3529 -6.13009,2.23117 0.70441,2.48042 0.10699,3.14564 -1.4567,6.14606 -3.785,0.66739 L 4.42351,50.561 3.44817,47.56847 3.26175,44.99672 l -6.5235,0 -0.18642,2.57175 -0.97534,2.99253 -3.47093,5.27718 -3.785,-0.66739 -1.4567,-6.14606 0.10699,-3.14564 0.70441,-2.48042 -6.13009,-2.23117 -1.05477,2.3529 -1.94002,2.47847 -5.06651,3.7718 -3.32847,-1.92169 0.73322,-6.27363 1.17641,-2.91934 1.51028,-2.08991 -4.99729,-4.19322 -1.7959,1.85024 -2.67071,1.66547 -6.05099,1.8115 -2.47049,-2.94422 2.83472,-5.64449 2.10393,-2.34094 2.13399,-1.44732 -3.26175,-5.64952 -2.32041,1.12443 -3.07928,0.65159 -6.30563,-0.36731 -1.31452,-3.61161 4.59429,-4.33456 2.7777,-1.48017 2.50031,-0.63017 -1.1328,-6.4244 -2.56505,0.26299 -3.11643,-0.44088 -5.79973,-2.50181 0,-3.8434 5.79973,-2.50181 3.11643,-0.44088 2.56505,0.26299 1.1328,-6.4244 -2.50031,-0.63017 -2.7777,-1.48017 -4.59429,-4.33456 1.31452,-3.61161 6.30563,-0.36731 3.07928,0.65159 2.32041,1.12443 3.26175,-5.64952 -2.13399,-1.44732 -2.10393,-2.34094 -2.83472,-5.64449 2.47049,-2.94422 6.05099,1.8115 2.67071,1.66547 1.7959,1.85024 4.99729,-4.19322 -1.51028,-2.08991 -1.17641,-2.91934 -0.73322,-6.27363 3.32847,-1.92169 5.06651,3.7718 1.94002,2.47847 1.05477,2.3529 6.13009,-2.23117 -0.70441,-2.48042 -0.10699,-3.14564 1.4567,-6.14606 3.785,-0.66739 3.47093,5.27718 0.97534,2.99253 0.18642,2.57175 6.5235,0 0.18642,-2.57175 0.97534,-2.99253 3.47093,-5.27718 3.785,0.66739 1.4567,6.14606 -0.10699,3.14564 -0.70441,2.48042 6.13009,2.23117 1.05477,-2.3529 1.94002,-2.47847 5.06651,-3.7718 3.32847,1.92169 -0.73322,6.27363 -1.17641,2.91934 -1.51028,2.08991 4.99729,4.19322 1.7959,-1.85024 2.67071,-1.66547 6.05099,-1.8115 2.47049,2.94422 -2.83472,5.64449 -2.10393,2.34094 -2.13399,1.44732 3.26175,5.64952 2.32041,-1.12443 3.07928,-0.65159 6.30563,0.36731 1.31452,3.61161 -4.59429,4.33456 -2.7777,1.48017 -2.50031,0.63017 z"
         style="fill:none;stroke:#000000;stroke-width:0.35433072;stroke-miterlimit:4;stroke-dasharray:none"
         inkscape:connector-curvature="0" />
      <circle
         id="path5410"
         style="fill:none;stroke:#000000;stroke-width:0.35433072;stroke-miterlimit:4;stroke-dasharray:none"
         cx="0"
         cy="0"
         r="14.173228" />
    </g>
    <path
       inkscape:connector-curvature="0"
       id="path5382"
       d="m 416.16338,515.8869 1.55319,-0.12507 4.14143,0.67834 5.75648,2.40861 0,4.03472 -5.75648,2.40861 -4.14143,0.67834 -1.55319,-0.12507 -0.81817,6.21466 1.53263,0.28118 3.82475,1.72711 4.93694,3.81642 -1.04427,3.89725 -6.18372,0.83665 -4.17588,-0.41665 -1.4679,-0.52281 -2.39877,5.79114 1.40764,0.66828 3.24741,2.65817 3.78096,4.96415 -2.01737,3.49418 -6.18956,-0.79232 -3.92575,-1.48325 -1.28256,-0.88492 -3.81589,4.97297 1.18671,1.00983 2.44877,3.40809 2.3673,5.77359 -2.85298,2.85298 -5.77359,-2.3673 -3.40809,-2.44877 -1.00983,-1.18671 -4.97297,3.81589 0.88492,1.28256 1.48325,3.92575 0.79232,6.18956 -3.49418,2.01737 -4.96415,-3.78096 -2.65817,-3.24741 -0.66828,-1.40764 -5.79114,2.39877 0.52281,1.4679 0.41665,4.17588 -0.83665,6.18372 -3.89725,1.04427 -3.81642,-4.93694 -1.72711,-3.82475 -0.28118,-1.53263 -6.21466,0.81817 0.12507,1.55319 -0.67834,4.14143 -2.40861,5.75648 -4.03472,0 -2.40861,-5.75648 -0.67834,-4.14143 0.12507,-1.55319 -6.21466,-0.81817 -0.28118,1.53263 -1.72711,3.82475 -3.81642,4.93694 -3.89725,-1.04427 -0.83665,-6.18372 0.41665,-4.17588 0.52281,-1.4679 -5.79114,-2.39877 -0.66828,1.40764 -2.65817,3.24741 -4.96415,3.78096 -3.49418,-2.01737 0.79232,-6.18956 1.48325,-3.92575 0.88492,-1.28256 -4.97297,-3.81589 -1.00983,1.18671 -3.40809,2.44877 -5.77359,2.3673 -2.85298,-2.85298 2.3673,-5.77359 2.44877,-3.40809 1.18671,-1.00983 -3.81589,-4.97297 -1.28256,0.88492 -3.92575,1.48325 -6.18956,0.79232 -2.01737,-3.49418 3.78096,-4.96415 3.24741,-2.65817 1.40764,-0.66828 -2.39877,-5.79114 -1.4679,0.52281 -4.17588,0.41665 -6.18372,-0.83665 -1.04427,-3.89725 4.93694,-3.81642 3.82475,-1.72711 1.53263,-0.28118 -0.81817,-6.21466 -1.55319,0.12507 -4.14143,-0.67834 -5.75648,-2.40861 0,-4.03472 5.75648,-2.40861 4.14143,-0.67834 1.55319,0.12507 0.81817,-6.21466 -1.53263,-0.28118 -3.82475,-1.72711 -4.93694,-3.81642 1.04427,-3.89725 6.18372,-0.83665 4.17588,0.41665 1.4679,0.52281 2.39877,-5.79114 -1.40764,-0.66828 -3.24741,-2.65817 -3.78096,-4.96415 2.01737,-3.49418 6.18956,0.79232 3.92575,1.48325 1.28256,0.88492 3.81589,-4.97297 -1.18671,-1.00983 -2.44877,-3.40809 -2.3673,-5.77359 2.85298,-2.85298 5.77359,2.3673 3.40809,2.44877 1.00983,1.18671 4.97297,-3.81589 -0.88492,-1.28256 -1.48325,-3.92575 -0.79232,-6.18956 3.49418,-2.01737 4.96415,3.78096 2.65817,3.24741 0.66828,1.40764 5.79114,-2.39877 -0.52281,-1.4679 -0.41665,-4.17588 0.83665,-6.18372 3.89725,-1.04427 3.81642,4.93694 1.72711,3.82475 0.28118,1.53263 6.21466,-0.81817 -0.12507,-1.55319 0.67834,-4.14143 2.40861,-5.75648 4.03472,0 2.40861,5.75648 0.67834,4.14143 -0.12507,1.55319 6.21466,0.81817 0.28118,-1.53263 1.72711,-3.82475 3.81642,-4.93694 3.89725,1.04427 0.83665,6.18372 -0.41665,4.17588 -0.52281,1.4679 5.79114,2.39877 0.66828,-1.40764 2.65817,-3.24741 4.96415,-3.78096 3.49418,2.01737 -0.79232,6.18956 -1.48325,3.92575 -0.88492,1.28256 4.97297,3.81589 1.00983,-1.18671 3.40809,-2.44877 5.77359,-2.3673 2.85298,2.85298 -2.3673,5.77359 -2.44877,3.40809 -1.18671,1.00983 3.81589,4.97297 1.28256,-0.88492 3.92575,-1.48325 6.18956,-0.79232 2.01737,3.49418 -3.78096,4.96415 -3.24741,2.65817 -1.40764,0.66828 2.39877,5.79114 1.4679,-0.52281 4.17588,-0.41665 6.18372,0.83665 1.04427,3.89725 -4.93694,3.81642 -3.82475,1.72711 -1.53263,0.28118 z"
       style="fill:none;stroke:#000000;stroke-width:0.35433072;stroke-miterlimit:4;stroke-dasharray:none" />
    <circle
       r="14.173228"
       cy="520.86615"
       cx="354.33072"
       id="path5384"
       style="fill:none;stroke:#000000;stroke-width:0.35433072;stroke-miterlimit:4;stroke-dasharray:none" />
    <g
       id="g5530"
       transform="translate(106.29956,187.98374)"
       style="stroke:#0000ff;stroke-width:0.35433072;stroke-miterlimit:4;stroke-dasharray:none">
      <path
         d="m 301.18111,324.80138 -10e-6,16.16204 m -8.08181,-8.0824 16.16294,1e-5"
         style="fill:none;fill-rule:evenodd;stroke:#0000ff;stroke-width:0.35433072;stroke-linecap:butt;stroke-linejoin:miter;stroke-miterlimit:4;stroke-dasharray:none;stroke-opacity:1"
         id="path5513"
         inkscape:connector-curvature="0" />
      <path
         inkscape:connector-curvature="0"
         id="path5526"
         style="fill:none;fill-rule:evenodd;stroke:#0000ff;stroke-width:0.35433072;stroke-linecap:butt;stroke-linejoin:miter;stroke-miterlimit:4;stroke-dasharray:none;stroke-opacity:1"
         d="m 194.8819,324.80138 -1e-5,16.16204 m -8.08181,-8.0824 16.16294,1e-5" />
    </g>
    <path
       style="fill:#f4d7d7;stroke:#ff0000"
       d="m 192.1582,605.90625 0,10.62891 0,17.71679 10.63086,0 0,26.57422 -10.63086,0 0,17.7168 10.63086,0 0,38.97656 -10.63086,0 0,17.7168 10.63086,0 0,26.57422 -10.63086,0 0,17.71679 0,10.63086 10.63086,0 17.7168,0 0,-10.63086 26.57422,0 0,10.63086 17.7168,0 0,-10.63086 26.57421,0 0,10.63086 17.7168,0 0,-10.63086 26.57422,0 0,10.63086 17.7168,0 0,-10.63086 35.43359,0 0,10.63086 17.7168,0 0,-10.63086 26.57422,0 0,10.63086 17.71679,0 0,-10.63086 26.57422,0 0,10.63086 17.7168,0 0,-10.63086 26.57617,0 0,10.63086 17.71484,0 10.63086,0 0,-10.63086 0,-17.71679 -10.63086,0 0,-26.57422 10.63086,0 0,-17.7168 -10.63086,0 0,-38.97656 10.63086,0 0,-17.7168 -10.63086,0 0,-26.57422 10.63086,0 0,-17.71679 0,-10.62891 -10.63086,0 -17.71484,0 0,10.62891 -26.57617,0 0,-10.62891 -17.7168,0 0,10.62891 -26.57422,0 0,-10.62891 -17.71679,0 0,10.62891 -26.57422,0 0,-10.62891 -17.7168,0 0,10.62891 -35.43359,0 0,-10.62891 -17.7168,0 0,10.62891 -26.57422,0 0,-10.62891 -17.7168,0 0,10.62891 -26.57421,0 0,-10.62891 -17.7168,0 0,10.62891 -26.57422,0 0,-10.62891 -17.7168,0 -10.63086,0 z m 140.91211,70.86133 42.51953,0 0,99.21484 -42.51953,0 0,-99.21484 z m -81.49609,5.31836 a 15.944881,15.944881 0 0 1 15.94531,15.94531 15.944881,15.944881 0 0 1 -15.94531,15.94531 15.944881,15.944881 0 0 1 -15.94336,-15.94531 15.944881,15.944881 0 0 1 15.94336,-15.94531 z m 222.51953,0 a 15.944881,15.944881 0 0 1 15.94531,15.94531 15.944881,15.944881 0 0 1 -15.94531,15.94531 15.944881,15.944881 0 0 1 -15.94336,-15.94531 15.944881,15.944881 0 0 1 15.94336,-15.94531 z"
       transform="translate(0,1.6535434e-6)"
       id="box-inner-close-tab"
       inkscape:connector-curvature="0" />
    <path
       style="fill:#fff6d5;stroke:#ff0000"
       d="m 192.1582,807.33398 0,10.63086 0,17.71485 10.63086,0 0,26.57617 -10.63086,0 0,17.7168 10.63086,0 0,38.97656 -10.63086,0 0,17.71484 10.63086,0 0,26.57617 -10.63086,0 0,17.7168 0,10.62891 10.63086,0 17.7168,0 0,-10.62891 26.57422,0 0,10.62891 17.7168,0 0,-10.62891 26.57421,0 0,10.62891 17.7168,0 0,-10.62891 26.57422,0 0,10.62891 17.7168,0 0,-10.62891 35.43359,0 0,10.62891 17.7168,0 0,-10.62891 26.57422,0 0,10.62891 17.71679,0 0,-10.62891 26.57422,0 0,10.62891 17.7168,0 0,-10.62891 26.57617,0 0,10.62891 17.71484,0 10.63086,0 0,-10.62891 0,-17.7168 -10.63086,0 0,-26.57617 10.63086,0 0,-17.71484 -10.63086,0 0,-38.97656 10.63086,0 0,-17.7168 -10.63086,0 0,-26.57617 10.63086,0 0,-17.71485 0,-10.63086 -10.63086,0 -17.71484,0 0,10.63086 -26.57617,0 0,-10.63086 -17.7168,0 0,10.63086 -26.57422,0 0,-10.63086 -17.71679,0 0,10.63086 -26.57422,0 0,-10.63086 -17.7168,0 0,10.63086 -35.43359,0 0,-10.63086 -17.7168,0 0,10.63086 -26.57422,0 0,-10.63086 -17.7168,0 0,10.63086 -26.57421,0 0,-10.63086 -17.7168,0 0,10.63086 -26.57422,0 0,-10.63086 -17.7168,0 -10.63086,0 z m 59.41602,76.18164 a 15.944881,15.944881 0 0 1 15.94531,15.94532 15.944881,15.944881 0 0 1 -15.94531,15.94336 15.944881,15.944881 0 0 1 -15.94336,-15.94336 15.944881,15.944881 0 0 1 15.94336,-15.94532 z m 102.75586,0 a 15.944881,15.944881 0 0 1 15.94531,15.94532 15.944881,15.944881 0 0 1 -15.94531,15.94336 15.944881,15.944881 0 0 1 -15.94336,-15.94336 15.944881,15.944881 0 0 1 15.94336,-15.94532 z m 119.76367,0 a 15.944881,15.944881 0 0 1 15.94531,15.94532 15.944881,15.944881 0 0 1 -15.94531,15.94336 15.944881,15.944881 0 0 1 -15.94336,-15.94336 15.944881,15.944881 0 0 1 15.94336,-15.94532 z"
       transform="translate(0,1.6535434e-6)"
       id="path6327"
       inkscape:connector-curvature="0" />
    <path
       inkscape:connector-curvature="0"
       style="fill:none;stroke:#ff0000"
       id="path6395"
       d="m 647.59842,439.37008 0,0 0,0 17.71654,0 0,-10.62992 21.25984,0 0,10.62992 17.71654,0 0,0 0,0 0,0 0,17.71654 10.62992,0 0,26.5748 -10.62992,0 0,17.71654 10.62992,0 0,38.97637 -10.62992,0 0,17.71654 10.62992,0 0,26.5748 -10.62992,0 0,17.71653 0,0 0,0 0,0 -17.71654,0 0,10.62993 -21.25984,0 0,-10.62993 -17.71654,0 0,0 0,0 0,-17.71653 -10.62992,0 0,-26.5748 10.62992,0 0,-17.71654 -10.62992,0 0,-38.97637 10.62992,0 0,-17.71654 -10.62992,0 0,-26.5748 10.62992,0 0,-17.71654 z" />
    <path
       inkscape:connector-curvature="0"
       style="fill:none;stroke:#ff0000"
       id="path6397"
       d="m 811.91735,439.37008 0,0 0,0 -17.7166,0 0,-10.62992 -21.2598,0 0,10.62992 -17.71656,0 0,0 0,0 0,0 0,17.71654 -10.62992,0 0,26.5748 10.62992,0 0,17.71654 -10.62992,0 0,38.97637 10.62992,0 0,17.71654 -10.62992,0 0,26.5748 10.62992,0 0,17.71653 0,0 0,0 0,0 17.71656,0 0,10.62993 21.2598,0 0,-10.62993 17.7166,0 0,0 0,0 0,-17.71653 10.6299,0 0,-26.5748 -10.6299,0 0,-17.71654 10.6299,0 0,-38.97637 -10.6299,0 0,-17.71654 10.6299,0 0,-26.5748 -10.6299,0 0,-17.71654 z" />
    <path
       inkscape:connector-curvature="0"
       style="fill:none;stroke:#ff0000"
       id="path6399"
       d="m 635.52359,669.68505 0,0 0,0 17.71654,0 0,-10.62992 26.5748,0 0,10.62992 17.71654,0 0,-10.62992 26.5748,0 0,10.62992 17.71653,0 0,-10.62992 26.57481,0 0,10.62992 17.71653,0 0,-10.62992 35.43307,0 0,10.62992 17.71654,0 0,-10.62992 26.5748,0 0,10.62992 17.71654,0 0,-10.62992 26.5748,0 0,10.62992 17.71654,0 0,-10.62992 26.5748,0 0,10.62992 17.71653,0 0,0 10.62993,0 0,0 0,17.71653 -10.62993,0 0,21.25985 10.62993,0 0,17.71653 -10.62993,0 0,0 0,0 -17.71653,0 0,10.62992 -26.5748,0 0,-10.62992 -17.71654,0 0,10.62992 -26.5748,0 0,-10.62992 -17.71654,0 0,10.62992 -26.5748,0 0,-10.62992 -17.71654,0 0,10.62992 -35.43307,0 0,-10.62992 -17.71653,0 0,10.62992 -26.57481,0 0,-10.62992 -17.71653,0 0,10.62992 -26.5748,0 0,-10.62992 -17.71654,0 0,10.62992 -26.5748,0 0,-10.62992 -17.71654,0 -10.62992,0 0,0 0,-17.71653 10.62992,0 0,-21.25985 -10.62992,0 0,-17.71653 z" />
    <path
       inkscape:connector-curvature="0"
       style="fill:none;stroke:#ff0000"
       id="path6401"
       d="m 575.7874,363.18898 0,0 0,0 17.71654,0 0,10.62992 26.5748,0 0,-10.62992 17.71654,0 0,10.62992 26.5748,0 0,-10.62992 17.71653,0 0,10.62992 26.57481,0 0,-10.62992 17.71653,0 0,10.62992 35.43307,0 0,-10.62992 17.71654,0 0,10.62992 26.5748,0 0,-10.62992 17.71654,0 0,10.62992 26.5748,0 0,-10.62992 17.71654,0 0,10.62992 26.5748,0 0,-10.62992 17.71653,0 0,0 10.62993,0 0,0 0,-17.71654 -10.62993,0 0,-21.25984 10.62993,0 0,-17.71654 -10.62993,0 0,0 0,0 -17.71653,0 0,-10.62992 -26.5748,0 0,10.62992 -17.71654,0 0,-10.62992 -26.5748,0 0,10.62992 -17.71654,0 0,-10.62992 -26.5748,0 0,10.62992 -17.71654,0 0,-10.62992 -35.43307,0 0,10.62992 -17.71653,0 0,-10.62992 -26.57481,0 0,10.62992 -17.71653,0 0,-10.62992 -26.5748,0 0,10.62992 -17.71654,0 0,-10.62992 -26.5748,0 0,10.62992 -17.71654,0 -10.62992,0 0,0 0,17.71654 10.62992,0 0,21.25984 -10.62992,0 0,17.71654 z" />
    <path
       style="fill:#f4d7d7;stroke:#0000ff;stroke-width:0.35433072;stroke-miterlimit:4;stroke-dasharray:none;stroke-opacity:1"
       d="m 83.131322,549.96961 a 24.853767,24.853767 0 0 0 -24.853517,24.85352 24.853767,24.853767 0 0 0 24.853517,24.85352 24.853767,24.853767 0 0 0 24.853508,-24.85352 24.853767,24.853767 0 0 0 -24.853508,-24.85352 z m 0.36133,10.68555 a 14.173228,14.173228 0 0 1 13.59765,11.70703 14.173228,14.173228 0 0 1 -11.49804,16.41992 14.173228,14.173228 0 0 1 -16.417972,-11.49804 14.173228,14.173228 0 0 1 11.496093,-16.41797 14.173228,14.173228 0 0 1 2.822269,-0.21094 z"
       id="path6504"
       inkscape:connector-curvature="0" />
    <path
       id="path6515"
       d="M 82.121169,603.0888 A 24.853767,24.853767 0 0 0 57.267652,627.94232 24.853767,24.853767 0 0 0 82.121169,652.79584 24.853767,24.853767 0 0 0 106.97468,627.94232 24.853767,24.853767 0 0 0 82.121169,603.0888 Z m 0.36133,10.68555 a 14.173228,14.173228 0 0 1 13.59765,11.70703 14.173228,14.173228 0 0 1 -11.49804,16.41992 14.173228,14.173228 0 0 1 -16.417972,-11.49804 14.173228,14.173228 0 0 1 11.496093,-16.41797 14.173228,14.173228 0 0 1 2.822269,-0.21094 z"
       style="fill:#f4d7d7;stroke:#0000ff;stroke-width:0.35433072;stroke-miterlimit:4;stroke-dasharray:none;stroke-opacity:1"
       inkscape:connector-curvature="0" />
    <path
       inkscape:connector-curvature="0"
       style="fill:#f4d7d7;stroke:#0000ff;stroke-width:0.35433072;stroke-miterlimit:4;stroke-dasharray:none;stroke-opacity:1"
       d="m 33.633847,521.04331 a 24.853767,24.853767 0 0 0 -24.8535171,24.85352 24.853767,24.853767 0 0 0 24.8535171,24.85352 24.853767,24.853767 0 0 0 24.85351,-24.85352 24.853767,24.853767 0 0 0 -24.85351,-24.85352 z m 0.36133,10.68555 a 14.173228,14.173228 0 0 1 13.59765,11.70703 14.173228,14.173228 0 0 1 -11.49804,16.41992 14.173228,14.173228 0 0 1 -16.417972,-11.49804 14.173228,14.173228 0 0 1 11.496093,-16.41797 14.173228,14.173228 0 0 1 2.822269,-0.21094 z"
       id="path6517" />
    <path
       id="path6519"
       d="m 33.633847,583.22651 a 24.853767,24.853767 0 0 0 -24.8535171,24.85352 24.853767,24.853767 0 0 0 24.8535171,24.85352 24.853767,24.853767 0 0 0 24.85351,-24.85352 24.853767,24.853767 0 0 0 -24.85351,-24.85352 z m 0.36133,10.68555 a 14.173228,14.173228 0 0 1 13.59765,11.70703 14.173228,14.173228 0 0 1 -11.49804,16.41992 14.173228,14.173228 0 0 1 -16.417972,-11.49804 14.173228,14.173228 0 0 1 11.496093,-16.41797 14.173228,14.173228 0 0 1 2.822269,-0.21094 z"
       style="fill:#f4d7d7;stroke:#0000ff;stroke-width:0.35433072;stroke-miterlimit:4;stroke-dasharray:none;stroke-opacity:1"
       inkscape:connector-curvature="0" />
  </g>
  <g
     inkscape:groupmode="layer"
     id="layer3"
     inkscape:label="print"
     transform="translate(0,-308.26772)"
     style="display:inline">
    <path
       style="fill:none;stroke:#ff0000;stroke-width:0.35433072;stroke-miterlimit:4;stroke-dasharray:none"
       d="m 457.11406,604.40197 -3.38086,0.90625 -1.05078,6.3789 0.34375,2.07032 1.42578,3.30273 -5.65234,3.26367 -2.14649,-2.88672 -1.62109,-1.33398 -6.05078,-2.2793 -2.47461,2.47656 2.27929,6.04883 1.33399,1.6211 2.88672,2.14843 -3.26367,5.65235 -3.30274,-1.42774 -2.07031,-0.34375 -6.37891,1.05078 -0.90625,3.38086 4.99805,4.09961 1.96484,0.73633 3.57422,0.41797 0.002,6.52539 -3.57617,0.41797 -1.96484,0.73633 -4.99805,4.09961 0.90625,3.38086 6.37891,1.05078 2.07031,-0.34375 3.30274,-1.42774 3.26367,5.65235 -2.88672,2.14843 -1.33399,1.6211 -2.27929,6.04883 2.47461,2.47656 6.05078,-2.2793 1.62109,-1.33398 2.14649,-2.88672 5.65234,3.26172 -1.42578,3.30469 -0.34375,2.07031 1.05078,6.3789 3.38086,0.90625 4.09961,-5 0.73633,-1.96484 0.41601,-3.57422 6.52735,0 0.41601,3.57422 0.73633,1.96484 4.10156,5 3.38086,-0.90625 1.05078,-6.3789 -0.34375,-2.07031 -1.42773,-3.30469 5.65234,-3.26172 2.14844,2.88672 1.61914,1.33398 6.05078,2.2793 2.47461,-2.47656 -2.2793,-6.04883 -1.33203,-1.6211 -2.88867,-2.14843 3.26367,-5.65235 3.30469,1.42774 2.07031,0.34375 6.37891,-1.05078 0.90625,-3.38086 -5,-4.09961 -1.96485,-0.73633 -3.57421,-0.41797 0,-6.52539 3.57421,-0.41797 1.96485,-0.73633 5,-4.09961 -0.90625,-3.38086 -6.37891,-1.05078 -2.07031,0.34375 -3.30469,1.42774 -3.26367,-5.65235 2.88867,-2.14843 1.33203,-1.6211 2.2793,-6.04883 -2.47461,-2.47656 -6.05078,2.2793 -1.61914,1.33398 -2.14844,2.88672 -5.65234,-3.26367 1.42773,-3.30273 0.34375,-2.07032 -1.05078,-6.3789 -3.38086,-0.90625 -4.10156,5 -0.73633,1.96484 -0.41601,3.57422 -6.52735,0 -0.41601,-3.57422 -0.73633,-1.96484 -4.09961,-5 z m 9.05664,24.38281 a 14.173228,14.173228 0 0 1 13.15039,10.49414 14.173228,14.173228 0 0 1 -10.02344,17.35938 14.173228,14.173228 0 0 1 -17.35742,-10.02149 14.173228,14.173228 0 0 1 10.02148,-17.35937 14.173228,14.173228 0 0 1 4.20899,-0.47266 z"
       id="path5362-7"
       inkscape:connector-curvature="0" />
    <path
       style="fill:none;stroke:#ff0000;stroke-width:0.35433072;stroke-miterlimit:4;stroke-dasharray:none"
       d="m 433.969,481.24078 -2.50195,5.79883 -0.43946,3.11719 0.26172,2.56445 -6.42383,1.13282 -0.63085,-2.5 -1.47852,-2.77735 -4.33594,-4.59375 -3.61133,1.31446 -0.36718,6.30468 0.65234,3.08008 1.12305,2.32031 -5.64844,3.26172 -1.44727,-2.13476 -2.34179,-2.10352 -5.64453,-2.83398 -2.94336,2.46875 1.81054,6.05273 1.66602,2.66992 1.84961,1.79492 -4.19336,4.99805 -2.08984,-1.50976 -2.91797,-1.17774 -6.27344,-0.73242 -1.92188,3.32812 3.77149,5.06641 2.47851,1.94141 2.35352,1.05468 -2.23242,6.12891 -2.48047,-0.70312 -3.14453,-0.10743 -6.14649,1.45704 -0.66797,3.78515 5.27735,3.4707 2.99219,0.97461 2.57226,0.18555 0,6.52344 -2.57226,0.1875 -2.99219,0.97461 -5.27735,3.4707 0.66797,3.78516 6.14649,1.45703 3.14453,-0.10742 2.48047,-0.70313 2.23242,6.12891 -2.35352,1.05469 -2.47851,1.9414 -3.77149,5.06641 1.92188,3.32812 6.27344,-0.73437 2.91797,-1.17578 2.08984,-1.50977 4.19336,4.99805 -1.84961,1.79492 -1.66602,2.66992 -1.81054,6.05274 2.94336,2.46875 5.64453,-2.83399 2.34179,-2.10351 1.44727,-2.13477 5.64844,3.26172 -1.12305,2.32031 -0.65234,3.08008 0.36718,6.30469 3.61133,1.31445 4.33594,-4.59375 1.47852,-2.77734 0.63085,-2.5 6.42383,1.13281 -0.26172,2.56445 0.43946,3.11719 2.50195,5.79883 3.84375,0 2.50195,-5.79883 0.44141,-3.11719 -0.26367,-2.56445 6.42578,-1.13281 0.62891,2.5 1.48046,2.77734 4.33399,4.59375 3.61133,-1.31445 0.36914,-6.30469 -0.65235,-3.08008 -1.125,-2.32031 5.65039,-3.26172 1.44727,2.13477 2.33984,2.10351 5.64453,2.83399 2.94532,-2.46875 -1.8125,-6.05274 -1.66407,-2.66992 -1.85156,-1.79492 4.19336,-4.99805 2.08985,1.50977 2.91992,1.17578 6.27343,0.73437 1.92188,-3.32812 -3.77149,-5.06641 -2.47851,-1.9414 -2.35352,-1.05469 2.23047,-6.12891 2.48047,0.70313 3.14649,0.10742 6.14648,-1.45703 0.66602,-3.78516 -5.2754,-3.4707 -2.99414,-0.97461 -2.57031,-0.1875 0,-6.52344 2.57031,-0.18555 2.99414,-0.97461 5.2754,-3.4707 -0.66602,-3.78515 -6.14648,-1.45704 -3.14649,0.10743 -2.48047,0.70312 -2.23047,-6.12891 2.35352,-1.05468 2.47851,-1.94141 3.77149,-5.06641 -1.92188,-3.32812 -6.27343,0.73242 -2.91992,1.17774 -2.08985,1.50976 -4.19336,-4.99805 1.85156,-1.79492 1.66407,-2.66992 1.8125,-6.05273 -2.94532,-2.46875 -5.64453,2.83398 -2.33984,2.10352 -1.44727,2.13476 -5.65039,-3.26172 1.125,-2.32031 0.65235,-3.08008 -0.36914,-6.30468 -3.61133,-1.31446 -4.33399,4.59375 -1.48046,2.77735 -0.62891,2.5 -6.42578,-1.13282 0.26367,-2.56445 -0.44141,-3.11719 -2.50195,-5.79883 -3.84375,0 z m 2.2832,42.19141 a 14.173228,14.173228 0 0 1 13.59766,11.70703 14.173228,14.173228 0 0 1 -11.49805,16.41992 14.173228,14.173228 0 0 1 -16.41797,-11.49609 14.173228,14.173228 0 0 1 11.4961,-16.41992 14.173228,14.173228 0 0 1 2.82226,-0.21094 z"
       id="path5408-4"
       inkscape:connector-curvature="0" />
    <path
       inkscape:connector-curvature="0"
       style="display:inline;fill:none;stroke:#ff0000;stroke-width:0.35433072;stroke-miterlimit:4;stroke-dasharray:none"
       d="m 446.57008,322.13178 -2.40821,5.75586 -0.67773,4.14257 0.125,1.55274 -6.21485,0.81836 -0.28125,-1.53321 -1.72656,-3.82421 -3.8164,-4.9375 -3.89844,1.04492 -0.83594,6.18359 0.41602,4.17578 0.52343,1.46875 -5.79101,2.39844 -0.66797,-1.4082 -2.6582,-3.24805 -4.96485,-3.7793 -3.49414,2.01758 0.79297,6.18945 1.48242,3.92579 0.88477,1.28125 -4.97266,3.8164 -1.00976,-1.1875 -3.40821,-2.44726 -5.77343,-2.36719 -2.85352,2.85156 2.36719,5.77344 2.44922,3.4082 1.1875,1.00977 -3.81641,4.97265 -1.2832,-0.88476 -3.92578,-1.48242 -6.18946,-0.79297 -2.01758,3.49414 3.78125,4.96484 3.24805,2.6582 1.4082,0.66797 -2.40039,5.79102 -1.46679,-0.52149 -4.17578,-0.41796 -6.1836,0.83789 -1.04492,3.89648 4.9375,3.81641 3.82422,1.72656 1.5332,0.28125 -0.81836,6.21484 -1.55273,-0.125 -4.14258,0.67774 -5.75586,2.41015 0,4.03321 5.75586,2.41015 4.14258,0.67774 1.55273,-0.125 0.81836,6.21484 -1.5332,0.28125 -3.82422,1.72656 -4.9375,3.81641 1.04492,3.89648 6.1836,0.8379 4.17578,-0.41797 1.46679,-0.52149 2.40039,5.79102 -1.4082,0.66797 -3.24805,2.6582 -3.78125,4.96484 2.01758,3.49414 6.18946,-0.79296 3.92578,-1.48243 1.2832,-0.88672 3.81641,4.97461 -1.1875,1.00977 -2.44922,3.4082 -2.36719,5.77344 2.85352,2.85156 5.77343,-2.36718 3.40821,-2.44727 1.00976,-1.1875 4.97266,3.81641 -0.88477,1.28125 -1.48242,3.92578 -0.79297,6.18945 3.49414,2.01758 4.96485,-3.78125 2.6582,-3.24609 0.66797,-1.40821 5.79101,2.39844 -0.52343,1.46875 -0.41602,4.17578 0.83594,6.18359 3.89844,1.04493 3.8164,-4.9375 1.72656,-3.82422 0.28125,-1.53321 6.21485,0.81836 -0.125,1.55274 0.67773,4.14062 2.40821,5.75782 4.03515,0 2.4082,-5.75782 0.67969,-4.14062 -0.125,-1.55274 6.21485,-0.81836 0.27929,1.53321 1.72852,3.82422 3.8164,4.9375 3.89649,-1.04493 0.83789,-6.18359 -0.41797,-4.17578 -0.52148,-1.46875 5.79101,-2.39844 0.66797,1.40821 2.6582,3.24609 4.96289,3.78125 3.49414,-2.01758 -0.79101,-6.18945 -1.48438,-3.92578 -0.88476,-1.28125 4.97265,-3.81641 1.00977,1.1875 3.4082,2.44727 5.77344,2.36718 2.85352,-2.85156 -2.36719,-5.77344 -2.44922,-3.4082 -1.18555,-1.00977 3.81446,-4.97461 1.2832,0.88672 3.92578,1.48243 6.18945,0.79296 2.01758,-3.49414 -3.78125,-4.96484 -3.24609,-2.6582 -1.4082,-0.66797 2.39843,-5.79102 1.46875,0.52149 4.17578,0.41797 6.1836,-0.8379 1.04297,-3.89648 -4.93555,-3.81641 -3.82617,-1.72656 -1.53125,-0.28125 0.81836,-6.21484 1.55273,0.125 4.14063,-0.67774 5.75781,-2.41015 0,-4.03321 -5.75781,-2.41015 -4.14063,-0.67774 -1.55273,0.125 -0.81836,-6.21484 1.53125,-0.28125 3.82617,-1.72656 4.93555,-3.81641 -1.04297,-3.89648 -6.1836,-0.83789 -4.17578,0.41796 -1.46875,0.52149 -2.39843,-5.79102 1.4082,-0.66797 3.24609,-2.6582 3.78125,-4.96484 -2.01758,-3.49414 -6.18945,0.79297 -3.92578,1.48242 -1.2832,0.88476 -3.81446,-4.97265 1.18555,-1.00977 2.44922,-3.4082 2.36719,-5.77344 -2.85352,-2.85156 -5.77344,2.36719 -3.4082,2.44726 -1.00977,1.1875 -4.97265,-3.8164 0.88476,-1.28125 1.48438,-3.92579 0.79101,-6.18945 -3.49414,-2.01758 -4.96289,3.7793 -2.6582,3.24805 -0.66797,1.4082 -5.79101,-2.39844 0.52148,-1.46875 0.41797,-4.17578 -0.83789,-6.18359 -3.89649,-1.04492 -3.8164,4.9375 -1.72852,3.82421 -0.27929,1.53321 -6.21485,-0.81836 0.125,-1.55274 -0.67969,-4.14257 -2.4082,-5.75586 -4.03515,0 z m 2.01757,59.11132 a 14.173228,14.173228 0 0 1 14.17383,14.17188 14.173228,14.173228 0 0 1 -14.17383,14.17383 14.173228,14.173228 0 0 1 -14.17187,-14.17383 14.173228,14.173228 0 0 1 14.17187,-14.17188 z"
       id="path5382-3" />
    <path
       inkscape:connector-curvature="0"
       id="path5513-6"
       style="fill:none;fill-rule:evenodd;stroke:#0000ff;stroke-width:0.35433072;stroke-linecap:butt;stroke-linejoin:miter;stroke-miterlimit:4;stroke-dasharray:none;stroke-opacity:1"
       d="m 501.73808,387.33487 -1e-5,16.16204 m -8.08181,-8.0824 16.16294,10e-6" />
    <path
       d="m 395.43887,387.33487 -1e-5,16.16204 m -8.08181,-8.0824 16.16294,10e-6"
       style="fill:none;fill-rule:evenodd;stroke:#0000ff;stroke-width:0.35433072;stroke-linecap:butt;stroke-linejoin:miter;stroke-miterlimit:4;stroke-dasharray:none;stroke-opacity:1"
       id="path5526-1"
       inkscape:connector-curvature="0" />
    <path
       style="display:inline;fill:none;stroke:#ff0000;stroke-width:0.35433072;stroke-miterlimit:4;stroke-dasharray:none"
       d="M 13.339844 207.71289 L 13.339844 218.3418 L 13.339844 236.05859 L 23.970703 236.05859 L 23.970703 262.63281 L 13.339844 262.63281 L 13.339844 280.34961 L 23.970703 280.34961 L 23.970703 319.32617 L 13.339844 319.32617 L 13.339844 337.04297 L 23.970703 337.04297 L 23.970703 363.61719 L 13.339844 363.61719 L 13.339844 381.33398 L 13.339844 391.96484 L 23.970703 391.96484 L 41.6875 391.96484 L 41.6875 381.33398 L 68.261719 381.33398 L 68.261719 391.96484 L 85.978516 391.96484 L 85.978516 381.33398 L 112.55273 381.33398 L 112.55273 391.96484 L 130.26953 391.96484 L 130.26953 381.33398 L 156.84375 381.33398 L 156.84375 391.96484 L 174.56055 391.96484 L 174.56055 381.33398 L 209.99414 381.33398 L 209.99414 391.96484 L 227.71094 391.96484 L 227.71094 381.33398 L 254.28516 381.33398 L 254.28516 391.96484 L 272.00195 391.96484 L 272.00195 381.33398 L 298.57617 381.33398 L 298.57617 391.96484 L 316.29297 391.96484 L 316.29297 381.33398 L 342.86914 381.33398 L 342.86914 391.96484 L 360.58398 391.96484 L 371.21484 391.96484 L 371.21484 381.33398 L 371.21484 363.61719 L 360.58398 363.61719 L 360.58398 337.04297 L 371.21484 337.04297 L 371.21484 319.32617 L 360.58398 319.32617 L 360.58398 280.34961 L 371.21484 280.34961 L 371.21484 262.63281 L 360.58398 262.63281 L 360.58398 236.05859 L 371.21484 236.05859 L 371.21484 218.3418 L 371.21484 207.71289 L 360.58398 207.71289 L 342.86914 207.71289 L 342.86914 218.3418 L 316.29297 218.3418 L 316.29297 207.71289 L 298.57617 207.71289 L 298.57617 218.3418 L 272.00195 218.3418 L 272.00195 207.71289 L 254.28516 207.71289 L 254.28516 218.3418 L 227.71094 218.3418 L 227.71094 207.71289 L 209.99414 207.71289 L 209.99414 218.3418 L 174.56055 218.3418 L 174.56055 207.71289 L 156.84375 207.71289 L 156.84375 218.3418 L 130.26953 218.3418 L 130.26953 207.71289 L 112.55273 207.71289 L 112.55273 218.3418 L 85.978516 218.3418 L 85.978516 207.71289 L 68.261719 207.71289 L 68.261719 218.3418 L 41.6875 218.3418 L 41.6875 207.71289 L 23.970703 207.71289 L 13.339844 207.71289 z M 154.25195 278.57422 L 196.77148 278.57422 L 196.77148 360.42383 L 154.25195 360.42383 L 154.25195 278.57422 z M 72.755859 283.89258 A 15.944881 15.944881 0 0 1 88.701172 299.83789 A 15.944881 15.944881 0 0 1 72.755859 315.7832 A 15.944881 15.944881 0 0 1 56.8125 299.83789 A 15.944881 15.944881 0 0 1 72.755859 283.89258 z M 295.27539 283.89258 A 15.944881 15.944881 0 0 1 311.2207 299.83789 A 15.944881 15.944881 0 0 1 295.27539 315.7832 A 15.944881 15.944881 0 0 1 279.33203 299.83789 A 15.944881 15.944881 0 0 1 295.27539 283.89258 z "
       transform="translate(0,308.26772)"
       id="box-inner-close-tab-1" />
    <path
       inkscape:connector-curvature="0"
       style="display:inline;fill:none;stroke:#ff0000;stroke-width:0.35433072;stroke-miterlimit:4;stroke-dasharray:none"
       d="m 13.340127,321.1217 0,10.63086 0,17.71485 10.63086,0 0,26.57617 -10.63086,0 0,17.7168 10.63086,0 0,38.97656 -10.63086,0 0,17.7148 10.63086,0 0,26.5762 -10.63086,0 0,17.7168 0,10.6289 10.63086,0 17.7168,0 0,-10.6289 26.57422,0 0,10.6289 17.716803,0 0,-10.6289 26.57421,0 0,10.6289 17.7168,0 0,-10.6289 26.57422,0 0,10.6289 17.7168,0 0,-10.6289 35.43359,0 0,10.6289 17.7168,0 0,-10.6289 26.57422,0 0,10.6289 17.71679,0 0,-10.6289 26.57422,0 0,10.6289 17.7168,0 0,-10.6289 26.57617,0 0,10.6289 17.71484,0 10.63086,0 0,-10.6289 0,-17.7168 -10.63086,0 0,-26.5762 10.63086,0 0,-17.7148 -10.63086,0 0,-38.97656 10.63086,0 0,-17.7168 -10.63086,0 0,-26.57617 10.63086,0 0,-17.71485 0,-10.63086 -10.63086,0 -17.71484,0 0,10.63086 -26.57617,0 0,-10.63086 -17.7168,0 0,10.63086 -26.57422,0 0,-10.63086 -17.71679,0 0,10.63086 -26.57422,0 0,-10.63086 -17.7168,0 0,10.63086 -35.43359,0 0,-10.63086 -17.7168,0 0,10.63086 -26.57422,0 0,-10.63086 -17.7168,0 0,10.63086 -26.57421,0 0,-10.63086 -17.716803,0 0,10.63086 -26.57422,0 0,-10.63086 -17.7168,0 -10.63086,0 z m 59.41602,76.18164 a 15.944881,15.944881 0 0 1 15.945313,15.9453 15.944881,15.944881 0 0 1 -15.945313,15.9434 15.944881,15.944881 0 0 1 -15.94336,-15.9434 15.944881,15.944881 0 0 1 15.94336,-15.9453 z m 102.755863,0 a 15.944881,15.944881 0 0 1 15.94531,15.9453 15.944881,15.944881 0 0 1 -15.94531,15.9434 15.944881,15.944881 0 0 1 -15.94336,-15.9434 15.944881,15.944881 0 0 1 15.94336,-15.9453 z m 119.76367,0 a 15.944881,15.944881 0 0 1 15.94531,15.9453 15.944881,15.944881 0 0 1 -15.94531,15.9434 15.944881,15.944881 0 0 1 -15.94336,-15.9434 15.944881,15.944881 0 0 1 15.94336,-15.9453 z"
       id="path6327-8" />
    <path
       inkscape:connector-curvature="0"
       style="display:inline;fill:none;stroke:#ff0000;stroke-width:0.35433072;stroke-miterlimit:4;stroke-dasharray:none"
       id="path6395-0"
       d="m 506.12678,705.98687 0,0 0,0 17.71654,0 0,-10.62992 21.25984,0 0,10.62992 17.71654,0 0,0 0,0 0,0 0,17.71654 10.62992,0 0,26.5748 -10.62992,0 0,17.71654 10.62992,0 0,38.97637 -10.62992,0 0,17.71654 10.62992,0 0,26.5748 -10.62992,0 0,17.71653 0,0 0,0 0,0 -17.71654,0 0,10.62993 -21.25984,0 0,-10.62993 -17.71654,0 0,0 0,0 0,-17.71653 -10.62992,0 0,-26.5748 10.62992,0 0,-17.71654 -10.62992,0 0,-38.97637 10.62992,0 0,-17.71654 -10.62992,0 0,-26.5748 10.62992,0 0,-17.71654 z" />
    <path
       inkscape:connector-curvature="0"
       style="display:inline;fill:none;stroke:#ff0000;stroke-width:0.35433072;stroke-miterlimit:4;stroke-dasharray:none"
       id="path6397-8"
       d="m 464.25859,704.29406 0,0 0,0 -17.7166,0 0,-10.62992 -21.2598,0 0,10.62992 -17.71656,0 0,0 0,0 0,0 0,17.71654 -10.62992,0 0,26.5748 10.62992,0 0,17.71654 -10.62992,0 0,38.97637 10.62992,0 0,17.71649 -10.62992,0 0,26.5749 10.62992,0 0,17.7165 0,0 0,0 0,0 17.71656,0 0,10.63 21.2598,0 0,-10.63 17.7166,0 0,0 0,0 0,-17.7165 10.6299,0 0,-26.5749 -10.6299,0 0,-17.71649 10.6299,0 0,-38.97637 -10.6299,0 0,-17.71654 10.6299,0 0,-26.5748 -10.6299,0 0,-17.71654 z" />
    <path
       inkscape:connector-curvature="0"
       style="display:inline;fill:none;stroke:#ff0000;stroke-width:0.35433072;stroke-miterlimit:4;stroke-dasharray:none"
       id="path6399-2"
       d="m 23.970047,721.46832 0,0 0,0 17.71654,0 0,-10.62992 26.5748,0 0,10.62992 17.716543,0 0,-10.62992 26.57479,0 0,10.62992 17.71653,0 0,-10.62992 26.57481,0 0,10.62992 17.71653,0 0,-10.62992 35.43307,0 0,10.62992 17.71654,0 0,-10.62992 26.5748,0 0,10.62992 17.71653,0 0,-10.62992 26.5748,0 0,10.62992 17.7165,0 0,-10.62992 26.5748,0 0,10.62992 17.7166,0 0,0 10.6299,0 0,0 0,17.71653 -10.6299,0 0,21.25985 10.6299,0 0,17.71653 -10.6299,0 0,0 0,0 -17.7166,0 0,10.62992 -26.5748,0 0,-10.62992 -17.7165,0 0,10.62992 -26.5748,0 0,-10.62992 -17.71653,0 0,10.62992 -26.5748,0 0,-10.62992 -17.71654,0 0,10.62992 -35.43307,0 0,-10.62992 -17.71653,0 0,10.62992 -26.57481,0 0,-10.62992 -17.71653,0 0,10.62992 -26.57479,0 0,-10.62992 -17.716543,0 0,10.62992 -26.5748,0 0,-10.62992 -17.71654,0 -10.62992,0 0,0 0,-17.71653 10.62992,0 0,-21.25985 -10.62992,0 0,-17.71653 z" />
    <path
       inkscape:connector-curvature="0"
       style="display:inline;fill:none;stroke:#ff0000;stroke-width:0.35433072;stroke-miterlimit:4;stroke-dasharray:none"
       id="path6401-2"
       d="m 23.970047,866.72041 0,0 0,0 17.71654,0 0,10.62992 26.5748,0 0,-10.62992 17.716543,0 0,10.62992 26.5748,0 0,-10.62992 17.71653,0 0,10.62992 26.57481,0 0,-10.62992 17.71653,0 0,10.62992 35.43307,0 0,-10.62992 17.71654,0 0,10.62992 26.5748,0 0,-10.62992 17.71654,0 0,10.62992 26.5748,0 0,-10.62992 17.71654,0 0,10.62992 26.57484,0 0,-10.62992 17.7165,0 0,0 10.6299,0 0,0 0,-17.71654 -10.6299,0 0,-21.25984 10.6299,0 0,-17.71654 -10.6299,0 0,0 0,0 -17.7165,0 0,-10.62992 -26.57484,0 0,10.62992 -17.71654,0 0,-10.62992 -26.5748,0 0,10.62992 -17.71654,0 0,-10.62992 -26.5748,0 0,10.62992 -17.71654,0 0,-10.62992 -35.43307,0 0,10.62992 -17.71653,0 0,-10.62992 -26.57481,0 0,10.62992 -17.71653,0 0,-10.62992 -26.5748,0 0,10.62992 -17.716543,0 0,-10.62992 -26.5748,0 0,10.62992 -17.71654,0 -10.62992,0 0,0 0,17.71654 10.62992,0 0,21.25984 -10.62992,0 0,17.71654 z" />
    <path
       style="display:inline;fill:none;stroke:#ff0000;stroke-width:0.35433072;stroke-miterlimit:4;stroke-dasharray:none;stroke-opacity:1"
       d="m 548.59611,639.78954 a 24.853767,24.853767 0 0 0 -24.85351,24.85352 24.853767,24.853767 0 0 0 24.85351,24.8535 24.853767,24.853767 0 0 0 24.85351,-24.8535 24.853767,24.853767 0 0 0 -24.85351,-24.85352 z m 0.36133,10.68552 a 14.173228,14.173228 0 0 1 13.59765,11.707 14.173228,14.173228 0 0 1 -11.49804,16.42 14.173228,14.173228 0 0 1 -16.41797,-11.4981 14.173228,14.173228 0 0 1 11.4961,-16.418 14.173228,14.173228 0 0 1 2.82226,-0.2109 z"
       id="path6504-4"
       inkscape:connector-curvature="0" />
    <path
       id="path6515-5"
       d="m 548.59611,321.12162 a 24.853767,24.853767 0 0 0 -24.8535,24.85352 24.853767,24.853767 0 0 0 24.8535,24.85355 24.853767,24.853767 0 0 0 24.85351,-24.85355 24.853767,24.853767 0 0 0 -24.85351,-24.85352 z m 0.3613,10.68555 a 14.173228,14.173228 0 0 1 13.59771,11.70703 14.173228,14.173228 0 0 1 -11.49811,16.41992 14.173228,14.173228 0 0 1 -16.4179,-11.49804 14.173228,14.173228 0 0 1 11.4961,-16.41797 14.173228,14.173228 0 0 1 2.8222,-0.21094 z"
       style="display:inline;fill:none;stroke:#ff0000;stroke-width:0.35433072;stroke-miterlimit:4;stroke-dasharray:none;stroke-opacity:1"
       inkscape:connector-curvature="0" />
    <path
       inkscape:connector-curvature="0"
       style="display:inline;fill:none;stroke:#ff0000;stroke-width:0.35433072;stroke-miterlimit:4;stroke-dasharray:none;stroke-opacity:1"
       d="m 548.59611,443.52304 a 24.853767,24.853767 0 0 0 -24.85352,24.8536 24.853767,24.853767 0 0 0 24.85352,24.8535 24.853767,24.853767 0 0 0 24.85351,-24.8535 24.853767,24.853767 0 0 0 -24.85351,-24.8536 z m 0.36133,10.6856 a 14.173228,14.173228 0 0 1 13.59765,11.707 14.173228,14.173228 0 0 1 -11.49804,16.4199 14.173228,14.173228 0 0 1 -16.41797,-11.498 14.173228,14.173228 0 0 1 11.49609,-16.418 14.173228,14.173228 0 0 1 2.82227,-0.2109 z"
       id="path6517-7" />
    <path
       id="path6519-1"
       d="m 548.59611,499.75917 a 24.853767,24.853767 0 0 0 -24.85352,24.85352 24.853767,24.853767 0 0 0 24.85352,24.85352 24.853767,24.853767 0 0 0 24.85351,-24.85352 24.853767,24.853767 0 0 0 -24.85351,-24.85352 z m 0.36133,10.68555 a 14.173228,14.173228 0 0 1 13.59765,11.70703 14.173228,14.173228 0 0 1 -11.49804,16.41992 14.173228,14.173228 0 0 1 -16.41797,-11.49804 14.173228,14.173228 0 0 1 11.49609,-16.41797 14.173228,14.173228 0 0 1 2.82227,-0.21094 z"
       style="display:inline;fill:none;stroke:#ff0000;stroke-width:0.35433072;stroke-miterlimit:4;stroke-dasharray:none;stroke-opacity:1"
       inkscape:connector-curvature="0" />
    <path
       inkscape:connector-curvature="0"
       id="path6610"
       d="m 498.11642,457.9635 a 24.853767,24.853767 0 0 0 -24.8535,24.85352 24.853767,24.853767 0 0 0 24.8535,24.85352 24.853767,24.853767 0 0 0 24.85351,-24.85352 24.853767,24.853767 0 0 0 -24.85351,-24.85352 z m 0.36133,10.68555 a 14.173228,14.173228 0 0 1 13.59765,11.70703 14.173228,14.173228 0 0 1 -11.49804,16.41992 14.173228,14.173228 0 0 1 -16.41796,-11.49804 14.173228,14.173228 0 0 1 11.49609,-16.41797 14.173228,14.173228 0 0 1 2.82226,-0.21094 z"
       style="display:inline;fill:none;stroke:#ff0000;stroke-width:0.35433072;stroke-miterlimit:4;stroke-dasharray:none;stroke-opacity:1" />
    <path
       inkscape:connector-curvature="0"
       style="display:inline;fill:none;stroke:#ff0000;stroke-width:0.35433072;stroke-miterlimit:4;stroke-dasharray:none;stroke-opacity:1"
       d="m 399.74003,647.77704 a 24.853767,24.853767 0 0 0 -24.85352,24.85352 24.853767,24.853767 0 0 0 24.85352,24.85352 24.853767,24.853767 0 0 0 24.85351,-24.85352 24.853767,24.853767 0 0 0 -24.85351,-24.85352 z m 0.36133,10.68555 a 14.173228,14.173228 0 0 1 13.59765,11.70703 14.173228,14.173228 0 0 1 -11.49804,16.41992 14.173228,14.173228 0 0 1 -16.41797,-11.49804 14.173228,14.173228 0 0 1 11.49609,-16.41797 14.173228,14.173228 0 0 1 2.82227,-0.21094 z"
       id="path6612" />
    <path
       id="path6614"
       d="m 401.1672,593.27433 a 24.853767,24.853767 0 0 0 -24.85352,24.85352 24.853767,24.853767 0 0 0 24.85352,24.85352 24.853767,24.853767 0 0 0 24.85351,-24.85352 24.853767,24.853767 0 0 0 -24.85351,-24.85352 z m 0.36133,10.68555 a 14.173228,14.173228 0 0 1 13.59765,11.70703 14.173228,14.173228 0 0 1 -11.49804,16.41992 14.173228,14.173228 0 0 1 -16.41797,-11.49804 14.173228,14.173228 0 0 1 11.49609,-16.41797 14.173228,14.173228 0 0 1 2.82227,-0.21094 z"
       style="display:inline;fill:none;stroke:#ff0000;stroke-width:0.35433072;stroke-miterlimit:4;stroke-dasharray:none;stroke-opacity:1"
       inkscape:connector-curvature="0" />
    <path
       inkscape:connector-curvature="0"
       style="display:inline;fill:none;stroke:#ff0000;stroke-width:0.35433072;stroke-miterlimit:4;stroke-dasharray:none;stroke-opacity:1"
       d="m 548.59611,388.75096 a 24.853767,24.853767 0 0 0 -24.85352,24.85352 24.853767,24.853767 0 0 0 24.85352,24.85352 24.853767,24.853767 0 0 0 24.85351,-24.85352 24.853767,24.853767 0 0 0 -24.85351,-24.85352 z m 0.36133,10.68555 a 14.173228,14.173228 0 0 1 13.59765,11.70703 14.173228,14.173228 0 0 1 -11.49804,16.41992 14.173228,14.173228 0 0 1 -16.41797,-11.49804 14.173228,14.173228 0 0 1 11.49609,-16.41797 14.173228,14.173228 0 0 1 2.82227,-0.21094 z"
       id="path6616" />
    <path
       inkscape:connector-curvature="0"
       id="path6618"
       d="m 526.36352,556.01617 -3.38086,0.90625 -1.05078,6.3789 0.34375,2.07032 1.42578,3.30273 -5.65234,3.26367 -2.14649,-2.88672 -1.62109,-1.33398 -6.05078,-2.2793 -2.47461,2.47656 2.27929,6.04883 1.33399,1.6211 2.88672,2.14843 -3.26367,5.65235 -3.30274,-1.42774 -2.07031,-0.34375 -6.37891,1.05078 -0.90625,3.38086 4.99805,4.09961 1.96484,0.73633 3.57422,0.41797 0.002,6.52539 -3.57617,0.41797 -1.96484,0.73633 -4.99805,4.09961 0.90625,3.38086 6.37891,1.05078 2.07031,-0.34375 3.30274,-1.42774 3.26367,5.65235 -2.88672,2.14843 -1.33399,1.6211 -2.27929,6.04883 2.47461,2.47656 6.05078,-2.2793 1.62109,-1.33398 2.14649,-2.88672 5.65234,3.26172 -1.42578,3.30469 -0.34375,2.07031 1.05078,6.3789 3.38086,0.90625 4.09961,-5 0.73633,-1.96484 0.41601,-3.57422 6.52735,0 0.41601,3.57422 0.73633,1.96484 4.10156,5 3.38086,-0.90625 1.05078,-6.3789 -0.34375,-2.07031 -1.42773,-3.30469 5.65234,-3.26172 2.14844,2.88672 1.61914,1.33398 6.05078,2.2793 2.47461,-2.47656 -2.2793,-6.04883 -1.33203,-1.6211 -2.88867,-2.14843 3.26367,-5.65235 3.30469,1.42774 2.07031,0.34375 6.37891,-1.05078 0.90625,-3.38086 -5,-4.09961 -1.96485,-0.73633 -3.57421,-0.41797 0,-6.52539 3.57421,-0.41797 1.96485,-0.73633 5,-4.09961 -0.90625,-3.38086 -6.37891,-1.05078 -2.07031,0.34375 -3.30469,1.42774 -3.26367,-5.65235 2.88867,-2.14843 1.33203,-1.6211 2.2793,-6.04883 -2.47461,-2.47656 -6.05078,2.2793 -1.61914,1.33398 -2.14844,2.88672 -5.65234,-3.26367 1.42773,-3.30273 0.34375,-2.07032 -1.05078,-6.3789 -3.38086,-0.90625 -4.10156,5 -0.73633,1.96484 -0.41601,3.57422 -6.52735,0 -0.41601,-3.57422 -0.73633,-1.96484 -4.09961,-5 z m 9.05664,24.38281 a 14.173228,14.173228 0 0 1 13.15039,10.49414 14.173228,14.173228 0 0 1 -10.02344,17.35938 14.173228,14.173228 0 0 1 -17.35742,-10.02149 14.173228,14.173228 0 0 1 10.02148,-17.35937 14.173228,14.173228 0 0 1 4.20899,-0.47266 z"
       style="fill:none;stroke:#ff0000;stroke-width:0.35433072;stroke-miterlimit:4;stroke-dasharray:none" />
  </g>
  <g
     inkscape:groupmode="layer"
     id="layer4"
     inkscape:label="Hands"
     style="display:none">
    <path
       style="display:inline;fill:#fff6d5;stroke:#ff0000;stroke-width:0.35433072;stroke-miterlimit:4;stroke-dasharray:none;stroke-opacity:1"
       d="m 251.57422,267.51562 c -22.30311,30.56915 7.00349,73.17829 -15.69531,103 a 24.853767,24.853767 0 0 0 -9.15821,19.24805 24.853767,24.853767 0 0 0 5.20118,15.16406 c 4.89118,8.03695 9.42517,16.66682 8.49414,26.64454 -0.78957,8.46154 -7.57507,8.33323 -23.23243,20.45507 12.93437,0 28.68737,-8.38821 34.34375,-8.20117 0.0159,5.3e-4 0.031,0.003 0.0469,0.004 0.0159,-0.001 0.031,-0.003 0.0469,-0.004 5.65638,-0.18704 21.40938,8.20117 34.34375,8.20117 -15.65736,-12.12184 -22.44285,-11.99353 -23.23242,-20.45507 -0.92304,-9.89202 3.52449,-18.46135 8.36719,-26.43946 a 24.853767,24.853767 0 0 0 5.32812,-15.36914 24.853767,24.853767 0 0 0 -9.16601,-19.25976 c -22.68172,-29.82116 6.6126,-72.42326 -15.6875,-102.98829 z m 0,12.26563 c 4.38097,11.6002 3.24965,24.96947 1.88867,39.53125 -1.40564,15.03957 -2.76691,31.36965 4.12695,46.07227 -1.95479,0.0619 -3.90848,0.12251 -6.01562,0.35546 -2.10698,-0.23292 -4.0611,-0.29352 -6.01563,-0.35546 6.89415,-14.70287 5.53497,-31.03245 4.12891,-46.07227 -1.36137,-14.56178 -2.4941,-27.93111 1.88672,-39.53125 z m 0.36133,95.81445 a 14.173228,14.173228 0 0 1 13.59765,11.70703 14.173228,14.173228 0 0 1 -11.49804,16.41993 14.173228,14.173228 0 0 1 -16.41797,-11.49805 14.173228,14.173228 0 0 1 11.49609,-16.41797 14.173228,14.173228 0 0 1 2.82227,-0.21094 z m -11.79297,33.02149 c 0.51263,0.0591 1.11889,0.0958 1.59961,0.16797 1.8513,0.27795 3.39352,0.67744 4.22461,1.04882 0.55405,0.2476 0.68837,0.37029 0.70508,0.38672 a 5.3935766,5.3935766 0 0 1 -0.0254,-0.0527 c 0.0228,0.0513 0.0337,0.0609 0.0254,0.0527 a 5.3935766,5.3935766 0 0 0 9.80273,0.002 c -0.006,0.006 0.005,-0.005 0.0273,-0.0547 a 5.3935766,5.3935766 0 0 1 -0.0273,0.0547 c 0.012,-0.0122 0.14238,-0.13635 0.70703,-0.38868 0.83109,-0.37138 2.3733,-0.77087 4.22461,-1.04882 0.48072,-0.0722 1.08698,-0.10887 1.59961,-0.16797 -3.5974,6.82639 -6.47779,14.50624 -5.64258,23.45703 0.30665,3.28629 1.73679,6.06466 3.65039,8.42187 -0.59977,-0.19551 -1.29844,-0.44593 -1.875,-0.62304 -2.60341,-0.79974 -4.79888,-1.4894 -7.55469,-1.42578 -0.003,7e-5 -0.006,-8e-5 -0.01,0 -0.003,-8e-5 -0.006,7e-5 -0.01,0 -2.7558,-0.0636 -4.95128,0.62604 -7.55468,1.42578 -0.57657,0.17711 -1.27523,0.42753 -1.875,0.62304 1.9136,-2.35721 3.34373,-5.13558 3.65039,-8.42187 0.83521,-8.95079 -2.04518,-16.63064 -5.64258,-23.45703 z m 11.42187,29.83008 c -0.0435,10e-4 -0.0773,-0.0132 -0.12109,-0.0117 a 5.3935766,5.3935766 0 0 0 -0.16016,0.008 c -0.23219,0.0146 -0.24726,0.0165 -0.0469,0.004 l 0.32812,0 z m 0.0195,0 0.32813,0 c 0.3059,0.0192 0.23462,0.003 -0.20508,-0.0117 a 5.3935766,5.3935766 0 0 1 -0.002,0 c -0.0437,-10e-4 -0.0777,0.0128 -0.1211,0.0117 z"
       id="path6616-2"
       inkscape:connector-curvature="0" />
  </g>
  <g
     style="display:none"
     inkscape:groupmode="layer"
     id="layer2"
     inkscape:label="Box"
     transform="translate(0,-308.26772)">
    <path
       d="m 450,444.68504 0,0 0,0 44.29134,0 0,0 0,0 0,0 0,17.71654 10.62992,0 0,26.5748 -10.62992,0 0,17.71654 10.62992,0 0,38.97637 -10.62992,0 0,17.71654 10.62992,0 0,26.5748 -10.62992,0 0,17.71653 0,0 0,0 0,0 -44.29134,0 0,0 0,0 0,-17.71653 -10.62992,0 0,-26.5748 10.62992,0 0,-17.71654 -10.62992,0 0,-38.97637 10.62992,0 0,-17.71654 -10.62992,0 0,-26.5748 10.62992,0 0,-17.71654 z"
       id="path6241"
       style="fill:none;stroke:#ff0000"
       inkscape:connector-curvature="0" />
    <path
       d="m 1038.189,444.68504 0,0 0,0 -44.29136,0 0,0 0,0 0,0 0,17.71654 -10.62992,0 0,26.5748 10.62992,0 0,17.71654 -10.62992,0 0,38.97637 10.62992,0 0,17.71654 -10.62992,0 0,26.5748 10.62992,0 0,17.71653 0,0 0,0 0,0 44.29136,0 0,0 0,0 0,-17.71653 10.6299,0 0,-26.5748 -10.6299,0 0,-17.71654 10.6299,0 0,-38.97637 -10.6299,0 0,-17.71654 10.6299,0 0,-26.5748 -10.6299,0 0,-17.71654 z"
       id="path6243"
       style="fill:none;stroke:#ff0000"
       inkscape:connector-curvature="0" />
    <path
       d="m 575.7874,689.17323 0,0 0,0 17.71654,0 0,-10.62992 26.5748,0 0,10.62992 17.71654,0 0,-10.62992 26.5748,0 0,10.62992 17.71653,0 0,-10.62992 26.57481,0 0,10.62992 17.71653,0 0,-10.62992 35.43307,0 0,10.62992 17.71654,0 0,-10.62992 26.5748,0 0,10.62992 17.71654,0 0,-10.62992 26.5748,0 0,10.62992 17.71654,0 0,-10.62992 26.5748,0 0,10.62992 17.71653,0 0,0 10.62993,0 0,0 0,44.29134 -10.62993,0 0,0 0,0 -17.71653,0 0,10.62992 -26.5748,0 0,-10.62992 -17.71654,0 0,10.62992 -26.5748,0 0,-10.62992 -17.71654,0 0,10.62992 -26.5748,0 0,-10.62992 -17.71654,0 0,10.62992 -35.43307,0 0,-10.62992 -17.71653,0 0,10.62992 -26.57481,0 0,-10.62992 -17.71653,0 0,10.62992 -26.5748,0 0,-10.62992 -17.71654,0 0,10.62992 -26.5748,0 0,-10.62992 -17.71654,0 -10.62992,0 0,0 0,-44.29134 z"
       id="path6245"
       style="fill:none;stroke:#ff0000"
       inkscape:connector-curvature="0" />
    <path
       d="m 575.7874,363.18898 0,0 0,0 17.71654,0 0,10.62992 26.5748,0 0,-10.62992 17.71654,0 0,10.62992 26.5748,0 0,-10.62992 17.71653,0 0,10.62992 26.57481,0 0,-10.62992 17.71653,0 0,10.62992 35.43307,0 0,-10.62992 17.71654,0 0,10.62992 26.5748,0 0,-10.62992 17.71654,0 0,10.62992 26.5748,0 0,-10.62992 17.71654,0 0,10.62992 26.5748,0 0,-10.62992 17.71653,0 0,0 10.62993,0 0,0 0,-44.29134 -10.62993,0 0,0 0,0 -17.71653,0 0,-10.62992 -26.5748,0 0,10.62992 -17.71654,0 0,-10.62992 -26.5748,0 0,10.62992 -17.71654,0 0,-10.62992 -26.5748,0 0,10.62992 -17.71654,0 0,-10.62992 -35.43307,0 0,10.62992 -17.71653,0 0,-10.62992 -26.57481,0 0,10.62992 -17.71653,0 0,-10.62992 -26.5748,0 0,10.62992 -17.71654,0 0,-10.62992 -26.5748,0 0,10.62992 -17.71654,0 -10.62992,0 0,0 0,44.29134 z"
       id="path6247"
       style="fill:none;stroke:#ff0000"
       inkscape:connector-curvature="0" />
  </g>
</svg>
