<?xml version="1.0" encoding="UTF-8" standalone="no"?>
<!-- Created with Inkscape (http://www.inkscape.org/) -->

<svg
   xmlns:dc="http://purl.org/dc/elements/1.1/"
   xmlns:cc="http://creativecommons.org/ns#"
   xmlns:rdf="http://www.w3.org/1999/02/22-rdf-syntax-ns#"
   xmlns:svg="http://www.w3.org/2000/svg"
   xmlns="http://www.w3.org/2000/svg"
   xmlns:sodipodi="http://sodipodi.sourceforge.net/DTD/sodipodi-0.dtd"
   xmlns:inkscape="http://www.inkscape.org/namespaces/inkscape"
   width="1052.3622"
   height="744.09448"
   id="svg2"
   version="1.1"
   inkscape:version="0.48.4 r9939"
   sodipodi:docname="knife holder cut.svg">
  <defs
     id="defs4" />
  <sodipodi:namedview
     id="base"
     pagecolor="#ffffff"
     bordercolor="#666666"
     borderopacity="1.0"
     inkscape:pageopacity="0.0"
     inkscape:pageshadow="2"
     inkscape:zoom="0.7"
     inkscape:cx="549.3929"
     inkscape:cy="409.20685"
     inkscape:document-units="mm"
     inkscape:current-layer="layer1"
     showgrid="false"
     showguides="true"
     inkscape:guide-bbox="true"
     inkscape:window-width="1920"
     inkscape:window-height="1140"
     inkscape:window-x="0"
     inkscape:window-y="0"
     inkscape:window-maximized="1">
    <sodipodi:guide
       orientation="1,0"
       position="0,187.79528"
       id="guide3120" />
  </sodipodi:namedview>
  <metadata
     id="metadata7">
    <rdf:RDF>
      <cc:Work
         rdf:about="">
        <dc:format>image/svg+xml</dc:format>
        <dc:type
           rdf:resource="http://purl.org/dc/dcmitype/StillImage" />
        <dc:title></dc:title>
      </cc:Work>
    </rdf:RDF>
  </metadata>
  <g
     inkscape:label="Layer 1"
     inkscape:groupmode="layer"
     id="layer1"
     transform="translate(0,-308.2677)">
    <path
       style="fill:none;fill-rule:nonzero;stroke:#ff0000;stroke-width:0.35433071;stroke-miterlimit:4;stroke-dasharray:none"
       d="M 77.9375 496.0625 C 54.381595 496.0625 35.4375 515.03785 35.4375 538.59375 L 35.4375 584.65625 C 35.4375 608.21215 54.381595 627.15625 77.9375 627.15625 L 807.875 627.15625 C 831.4309 627.15625 850.40625 608.21215 850.40625 584.65625 L 850.40625 538.59375 C 850.40625 515.03785 831.4309 496.0625 807.875 496.0625 L 77.9375 496.0625 z M 112 513.78125 L 122.65625 513.78125 L 122.65625 538.59375 L 112 538.59375 L 112 513.78125 z M 204.9375 513.78125 L 215.59375 513.78125 L 215.59375 538.59375 L 204.9375 538.59375 L 204.9375 513.78125 z M 297.84375 513.78125 L 308.53125 513.78125 L 308.53125 538.59375 L 297.84375 538.59375 L 297.84375 513.78125 z M 390.8125 513.78125 L 401.46875 513.78125 L 401.46875 538.59375 L 390.8125 538.59375 L 390.8125 513.78125 z M 483.75 513.78125 L 494.375 513.78125 L 494.375 538.59375 L 483.75 538.59375 L 483.75 513.78125 z M 576.6875 513.78125 L 587.3125 513.78125 L 587.3125 538.59375 L 576.6875 538.59375 L 576.6875 513.78125 z M 669.625 513.78125 L 680.25 513.78125 L 680.25 538.59375 L 669.625 538.59375 L 669.625 513.78125 z M 762.5625 513.78125 L 773.1875 513.78125 L 773.1875 538.59375 L 762.5625 538.59375 L 762.5625 513.78125 z M 70.875 556.3125 L 209.09375 556.3125 L 209.09375 566.9375 L 70.875 566.9375 L 70.875 556.3125 z M 376.78125 556.3125 L 554.5625 556.3125 L 554.5625 566.9375 L 376.78125 566.9375 L 376.78125 556.3125 z M 697 556.3125 L 814.96875 556.3125 L 814.96875 566.9375 L 697 566.9375 L 697 556.3125 z M 112 584.65625 L 122.65625 584.65625 L 122.65625 609.4375 L 112 609.4375 L 112 584.65625 z M 204.9375 584.65625 L 215.59375 584.65625 L 215.59375 609.4375 L 204.9375 609.4375 L 204.9375 584.65625 z M 297.84375 584.65625 L 308.53125 584.65625 L 308.53125 609.4375 L 297.84375 609.4375 L 297.84375 584.65625 z M 390.8125 584.65625 L 401.46875 584.65625 L 401.46875 609.3125 L 390.8125 609.3125 L 390.8125 584.65625 z M 483.75 584.65625 L 494.375 584.65625 L 494.375 609.4375 L 483.75 609.4375 L 483.75 584.65625 z M 576.6875 584.65625 L 587.3125 584.65625 L 587.3125 609.4375 L 576.6875 609.4375 L 576.6875 584.65625 z M 669.625 584.65625 L 680.25 584.65625 L 680.25 609.4375 L 669.625 609.4375 L 669.625 584.65625 z M 762.5625 584.65625 L 773.1875 584.65625 L 773.1875 609.4375 L 762.5625 609.4375 L 762.5625 584.65625 z "
       transform="translate(0,308.2677)"
       id="rect3126" />
    <path
       style="fill:none;stroke:#ff0000;stroke-width:0.35433071;stroke-miterlimit:4;stroke-dasharray:none"
       d="M 73.71875 354.3125 C 38.285679 354.3125 38.28125 467.6875 38.28125 467.6875 L 73.71875 467.6875 L 73.71875 478.3125 L 211.9375 478.3125 L 211.9375 467.6875 L 379.625 467.6875 L 379.625 478.3125 L 557.40625 478.3125 L 557.40625 467.6875 L 699.84375 467.6875 L 699.84375 478.3125 L 817.8125 478.3125 L 817.8125 467.4375 L 818.125 467.6875 L 853.5625 467.6875 C 853.5625 467.6875 853.5585 354.3125 818.125 354.3125 L 817.8125 355.34375 L 817.8125 354.3125 L 776.03125 354.3125 L 776.03125 407.28125 L 765.40625 407.28125 L 765.40625 354.3125 L 731.25 354.3125 C 728.10724 398.92372 726.7687 427.97112 725.96875 444.8125 L 723.65625 444.8125 C 722.72131 427.9712 721.12535 398.92401 717.625 354.3125 L 683.09375 354.3125 L 683.09375 407.28125 L 672.46875 407.28125 L 672.46875 354.3125 L 638.3125 354.3125 C 635.16974 398.92372 633.8312 427.97112 633.03125 444.8125 L 630.71875 444.8125 C 629.78381 427.9712 628.18785 398.92401 624.6875 354.3125 L 590.15625 354.3125 L 590.15625 407.28125 L 579.53125 407.28125 L 579.53125 354.3125 L 545.40625 354.3125 C 542.2623 398.92303 540.92878 427.97095 540.125 444.8125 L 537.78125 444.8125 C 536.84248 427.97101 535.25153 398.92325 531.75 354.3125 L 497.21875 354.3125 L 497.21875 407.28125 L 486.59375 407.28125 L 486.59375 354.3125 L 452.46875 354.3125 C 449.3248 398.92303 447.99128 427.97095 447.1875 444.8125 L 444.84375 444.8125 C 443.90498 427.97101 442.31403 398.92325 438.8125 354.3125 L 404.28125 354.3125 L 404.28125 407.28125 L 393.65625 407.28125 L 393.65625 354.3125 L 359.53125 354.3125 C 356.3873 398.92303 355.05378 427.97095 354.25 444.8125 L 351.90625 444.8125 C 350.96748 427.97101 349.37653 398.92325 345.875 354.3125 L 311.375 354.3125 L 311.375 407.28125 L 300.71875 407.28125 L 300.71875 354.3125 L 266.59375 354.3125 C 263.4498 398.92303 262.11628 427.97095 261.3125 444.8125 L 258.96875 444.8125 C 258.02998 427.97101 256.43903 398.92325 252.9375 354.3125 L 218.4375 354.3125 L 218.4375 407.28125 L 207.78125 407.28125 L 207.78125 354.3125 L 173.65625 354.3125 C 170.5123 398.92303 169.17878 427.97095 168.375 444.8125 L 166.03125 444.8125 C 165.09248 427.97101 163.50153 398.92325 160 354.3125 L 125.5 354.3125 L 125.5 407.28125 L 114.875 407.28125 L 114.875 354.3125 L 73.71875 354.3125 z "
       transform="translate(0,308.2677)"
       id="rect2999" />
    <path
       style="fill:none;stroke:#ff0000;stroke-width:0.35433071;stroke-miterlimit:4;stroke-dasharray:none"
       d="m 923.99553,805.75876 c 0,0 -53.17966,4.8e-4 -53.16314,42.52017 l 0.007,17.72983 0,28.34375 -0.007,-0.0106 c 0,42.51969 53.16325,42.51059 53.16325,42.51059 l 60.21875,0 0,-17.71875 10.62505,0 0,-24.78125 -10.62505,0 0,-17.71875 -60.21875,0 0,-10.625 60.21875,0 0,-17.71875 10.62505,0 0,-24.8125 -10.62505,0 0,-17.71875 z"
       id="rect3104"
       inkscape:connector-curvature="0"
       sodipodi:nodetypes="csccccccccccccccccccc" />
    <path
       sodipodi:nodetypes="csccccccccccccccccccc"
       inkscape:connector-curvature="0"
       id="path3952"
       d="m 99.709742,521.47305 c 0,0 -53.1796,4.8e-4 -53.1631,42.52017 l 0.01,17.72983 0,28.34375 -0.01,-0.0106 c 0,42.51969 53.1632,42.51059 53.1632,42.51059 l 60.218798,0 0,-17.71875 10.625,0 0,-24.78125 -10.625,0 0,-17.71875 -60.218798,0 0,-10.625 60.218798,0 0,-17.71875 10.625,0 0,-24.8125 -10.625,0 0,-17.71875 z"
       style="fill:none;stroke:#ff0000;stroke-width:0.35433071;stroke-miterlimit:4;stroke-dasharray:none" />
    <path
       style="fill:none;stroke:#ff0000;stroke-width:0.35433071;stroke-miterlimit:4;stroke-dasharray:none"
       d="m 921.13839,662.90162 c 0,0 -53.17966,4.8e-4 -53.16314,42.52017 l 0.007,17.72983 0,28.34375 -0.007,-0.0106 c 0,42.51969 53.16325,42.51059 53.16325,42.51059 l 60.21875,0 0,-17.71875 10.625,0 0,-24.78125 -10.625,0 0,-17.71875 -60.21875,0 0,-10.625 60.21875,0 0,-17.71875 10.625,0 0,-24.8125 -10.625,0 0,-17.71875 z"
       id="path3954"
       inkscape:connector-curvature="0"
       sodipodi:nodetypes="csccccccccccccccccccc" />
    <path
       sodipodi:nodetypes="csccccccccccccccccccc"
       inkscape:connector-curvature="0"
       id="path3956"
       d="m 391.13834,521.47305 c 0,0 -53.1796,4.8e-4 -53.1631,42.52017 l 0.01,17.72983 0,28.34375 -0.01,-0.0106 c 0,42.51969 53.1633,42.51059 53.1633,42.51059 l 60.2187,0 0,-17.71875 10.625,0 0,-24.78125 -10.625,0 0,-17.71875 -60.2187,0 0,-10.625 60.2187,0 0,-17.71875 10.625,0 0,-24.8125 -10.625,0 0,-17.71875 z"
       style="fill:none;stroke:#ff0000;stroke-width:0.35433071;stroke-miterlimit:4;stroke-dasharray:none" />
    <path
       sodipodi:nodetypes="csccccccccccccccccccc"
       inkscape:connector-curvature="0"
       id="path3960"
       d="m 676.8528,522.90162 c 0,0 -53.1797,4.8e-4 -53.1632,42.52017 l 0.01,17.72983 0,28.34375 -0.01,-0.0106 c 0,42.51969 53.1633,42.51059 53.1633,42.51059 l 60.2187,0 0,-17.71875 10.625,0 0,-24.78125 -10.625,0 0,-17.71875 -60.2187,0 0,-10.625 60.2187,0 0,-17.71875 10.625,0 0,-24.8125 -10.625,0 0,-17.71875 z"
       style="fill:none;stroke:#ff0000;stroke-width:0.35433071;stroke-miterlimit:4;stroke-dasharray:none" />
    <path
       style="fill:none;stroke:#ff0000;stroke-width:0.35433071;stroke-miterlimit:4;stroke-dasharray:none"
       d="m 535.4241,522.90162 c 0,0 -53.1797,4.8e-4 -53.1632,42.52017 l 0.01,17.72983 0,28.34375 -0.01,-0.0106 c 0,42.51969 53.1633,42.51059 53.1633,42.51059 l 60.2187,0 0,-17.71875 10.625,0 0,-24.78125 -10.625,0 0,-17.71875 -60.2187,0 0,-10.625 60.2187,0 0,-17.71875 10.625,0 0,-24.8125 -10.625,0 0,-17.71875 z"
       id="path3962"
       inkscape:connector-curvature="0"
       sodipodi:nodetypes="csccccccccccccccccccc" />
    <path
       sodipodi:nodetypes="csccccccccccccccccccc"
       inkscape:connector-curvature="0"
       id="path3964"
       d="m 818.2812,522.90162 c 0,0 -53.1797,4.8e-4 -53.1631,42.52017 l 0.01,17.72983 0,28.34375 -0.01,-0.0106 c 0,42.51969 53.1632,42.51059 53.1632,42.51059 l 60.2188,0 0,-17.71875 10.625,0 0,-24.78125 -10.625,0 0,-17.71875 -60.2188,0 0,-10.625 60.2188,0 0,-17.71875 10.625,0 0,-24.8125 -10.625,0 0,-17.71875 z"
       style="fill:none;stroke:#ff0000;stroke-width:0.35433071;stroke-miterlimit:4;stroke-dasharray:none" />
    <path
       sodipodi:nodetypes="csccccccccccccccccccc"
       inkscape:connector-curvature="0"
       id="path3966"
       d="m 245.42414,521.47305 c 0,0 -53.1797,4.8e-4 -53.1631,42.52017 l 0.01,17.72983 0,28.34375 -0.01,-0.0106 c 0,42.51969 53.1632,42.51059 53.1632,42.51059 l 60.2188,0 0,-17.71875 10.625,0 0,-24.78125 -10.625,0 0,-17.71875 -60.2188,0 0,-10.625 60.2188,0 0,-17.71875 10.625,0 0,-24.8125 -10.625,0 0,-17.71875 z"
       style="fill:none;stroke:#ff0000;stroke-width:0.35433071;stroke-miterlimit:4;stroke-dasharray:none" />
  </g>
</svg>
