<?xml version="1.0" encoding="UTF-8" standalone="no"?>
<!-- Created with Inkscape (http://www.inkscape.org/) -->

<svg
   xmlns:dc="http://purl.org/dc/elements/1.1/"
   xmlns:cc="http://creativecommons.org/ns#"
   xmlns:rdf="http://www.w3.org/1999/02/22-rdf-syntax-ns#"
   xmlns:svg="http://www.w3.org/2000/svg"
   xmlns="http://www.w3.org/2000/svg"
   xmlns:sodipodi="http://sodipodi.sourceforge.net/DTD/sodipodi-0.dtd"
   xmlns:inkscape="http://www.inkscape.org/namespaces/inkscape"
   width="1052.3622"
   height="744.09448"
   id="svg2"
   version="1.1"
   inkscape:version="0.48.4 r9939"
   sodipodi:docname="New document 1">
  <defs
     id="defs4" />
  <sodipodi:namedview
     id="base"
     pagecolor="#ffffff"
     bordercolor="#666666"
     borderopacity="1.0"
     inkscape:pageopacity="0.0"
     inkscape:pageshadow="2"
     inkscape:zoom="0.7"
     inkscape:cx="649.66044"
     inkscape:cy="420.11117"
     inkscape:document-units="mm"
     inkscape:current-layer="layer1"
     showgrid="false"
     showguides="true"
     inkscape:guide-bbox="true"
     inkscape:window-width="1920"
     inkscape:window-height="1140"
     inkscape:window-x="0"
     inkscape:window-y="0"
     inkscape:window-maximized="1">
    <sodipodi:guide
       orientation="0,1"
       position="0,354.33071"
       id="guide2985" />
    <sodipodi:guide
       orientation="0,1"
       position="0,364.96063"
       id="guide2987" />
    <sodipodi:guide
       orientation="0,1"
       position="0,478.34646"
       id="guide2989" />
    <sodipodi:guide
       orientation="1,0"
       position="70.866142,0"
       id="guide2991" />
    <sodipodi:guide
       orientation="1,0"
       position="814.96063,0"
       id="guide2993" />
    <sodipodi:guide
       orientation="0,1"
       position="0,187.79528"
       id="guide2995" />
    <sodipodi:guide
       orientation="0,1"
       position="0,177.16535"
       id="guide2997" />
    <sodipodi:guide
       orientation="0,1"
       position="0,425.19685"
       id="guide3019" />
    <sodipodi:guide
       orientation="0,1"
       position="0,248.0315"
       id="guide3043" />
    <sodipodi:guide
       orientation="0,1"
       position="0,116.92913"
       id="guide3045" />
    <sodipodi:guide
       orientation="0,1"
       position="0,230.31496"
       id="guide3047" />
    <sodipodi:guide
       orientation="0,1"
       position="0,205.51181"
       id="guide3049" />
    <sodipodi:guide
       orientation="0,1"
       position="0,159.44882"
       id="guide3051" />
    <sodipodi:guide
       orientation="0,1"
       position="0,134.64567"
       id="guide3053" />
    <sodipodi:guide
       orientation="1,0"
       position="209.10158,364.96063"
       id="guide3075" />
    <sodipodi:guide
       orientation="1,0"
       position="376.7869,276.7818"
       id="guide3077" />
    <sodipodi:guide
       orientation="1,0"
       position="697.00526,304.05592"
       id="guide3079" />
    <sodipodi:guide
       orientation="1,0"
       position="554.57375,268.70058"
       id="guide3081" />
    <sodipodi:guide
       orientation="1,0"
       position="-70.866142,0"
       id="guide3096" />
    <sodipodi:guide
       orientation="1,0"
       position="-81.496063,0"
       id="guide3098" />
    <sodipodi:guide
       orientation="1,0"
       position="-141.73228,0"
       id="guide3100" />
    <sodipodi:guide
       orientation="1,0"
       position="-194.88189,0"
       id="guide3102" />
    <sodipodi:guide
       orientation="1,0"
       position="0,187.79528"
       id="guide3120" />
    <sodipodi:guide
       orientation="1,0"
       position="35.433071,0"
       id="guide3122" />
    <sodipodi:guide
       orientation="1,0"
       position="850.3937,0"
       id="guide3124" />
  </sodipodi:namedview>
  <metadata
     id="metadata7">
    <rdf:RDF>
      <cc:Work
         rdf:about="">
        <dc:format>image/svg+xml</dc:format>
        <dc:type
           rdf:resource="http://purl.org/dc/dcmitype/StillImage" />
        <dc:title></dc:title>
      </cc:Work>
    </rdf:RDF>
  </metadata>
  <g
     inkscape:label="Layer 1"
     inkscape:groupmode="layer"
     id="layer1"
     transform="translate(0,-308.2677)">
    <path
       style="fill:#e9afaf;fill-rule:nonzero;stroke:#00ffff;stroke-width:0.35433072;stroke-miterlimit:4;stroke-dasharray:none"
       d="M 77.9375 496.0625 C 54.381595 496.0625 35.4375 515.03785 35.4375 538.59375 L 35.4375 584.65625 C 35.4375 608.21215 54.381595 627.15625 77.9375 627.15625 L 807.875 627.15625 C 831.4309 627.15625 850.40625 608.21215 850.40625 584.65625 L 850.40625 538.59375 C 850.40625 515.03785 831.4309 496.0625 807.875 496.0625 L 77.9375 496.0625 z M 112 513.78125 L 122.65625 513.78125 L 122.65625 538.59375 L 112 538.59375 L 112 513.78125 z M 204.9375 513.78125 L 215.59375 513.78125 L 215.59375 538.59375 L 204.9375 538.59375 L 204.9375 513.78125 z M 297.84375 513.78125 L 308.53125 513.78125 L 308.53125 538.59375 L 297.84375 538.59375 L 297.84375 513.78125 z M 390.8125 513.78125 L 401.46875 513.78125 L 401.46875 538.59375 L 390.8125 538.59375 L 390.8125 513.78125 z M 483.75 513.78125 L 494.375 513.78125 L 494.375 538.59375 L 483.75 538.59375 L 483.75 513.78125 z M 576.6875 513.78125 L 587.3125 513.78125 L 587.3125 538.59375 L 576.6875 538.59375 L 576.6875 513.78125 z M 669.625 513.78125 L 680.25 513.78125 L 680.25 538.59375 L 669.625 538.59375 L 669.625 513.78125 z M 762.5625 513.78125 L 773.1875 513.78125 L 773.1875 538.59375 L 762.5625 538.59375 L 762.5625 513.78125 z M 70.875 556.3125 L 209.09375 556.3125 L 209.09375 566.9375 L 70.875 566.9375 L 70.875 556.3125 z M 376.78125 556.3125 L 554.5625 556.3125 L 554.5625 566.9375 L 376.78125 566.9375 L 376.78125 556.3125 z M 697 556.3125 L 814.96875 556.3125 L 814.96875 566.9375 L 697 566.9375 L 697 556.3125 z M 112 584.65625 L 122.65625 584.65625 L 122.65625 609.4375 L 112 609.4375 L 112 584.65625 z M 204.9375 584.65625 L 215.59375 584.65625 L 215.59375 609.4375 L 204.9375 609.4375 L 204.9375 584.65625 z M 297.84375 584.65625 L 308.53125 584.65625 L 308.53125 609.4375 L 297.84375 609.4375 L 297.84375 584.65625 z M 390.8125 584.65625 L 401.46875 584.65625 L 401.46875 609.3125 L 390.8125 609.3125 L 390.8125 584.65625 z M 483.75 584.65625 L 494.375 584.65625 L 494.375 609.4375 L 483.75 609.4375 L 483.75 584.65625 z M 576.6875 584.65625 L 587.3125 584.65625 L 587.3125 609.4375 L 576.6875 609.4375 L 576.6875 584.65625 z M 669.625 584.65625 L 680.25 584.65625 L 680.25 609.4375 L 669.625 609.4375 L 669.625 584.65625 z M 762.5625 584.65625 L 773.1875 584.65625 L 773.1875 609.4375 L 762.5625 609.4375 L 762.5625 584.65625 z "
       transform="translate(0,308.2677)"
       id="rect3126" />
    <path
       style="fill:#ff00ff;fill-rule:nonzero;stroke:#00ffff;stroke-width:0.35433072;stroke-miterlimit:4;stroke-dasharray:none"
       d="M 70.875 265.75 C 35.441929 265.75 35.4375 379.125 35.4375 379.125 L 70.875 379.125 L 70.875 389.75 L 209.09375 389.75 L 209.09375 379.125 L 376.78125 379.125 L 376.78125 389.75 L 554.5625 389.75 L 554.5625 379.125 L 697 379.125 L 697 389.75 L 814.96875 389.75 L 814.96875 378.875 L 815.28125 379.125 L 850.71875 379.125 C 850.71875 379.125 850.71432 265.75 815.28125 265.75 L 814.96875 266.78125 L 814.96875 265.75 L 773.1875 265.75 L 773.1875 318.71875 L 762.5625 318.71875 L 762.5625 265.75 L 728.40625 265.75 C 718.30883 409.08227 726.02756 409.08282 714.78125 265.75 L 680.25 265.75 L 680.25 318.71875 L 669.625 318.71875 L 669.625 265.75 L 635.46875 265.75 C 625.37133 409.08227 633.09006 409.08282 621.84375 265.75 L 587.3125 265.75 L 587.3125 318.71875 L 576.6875 318.71875 L 576.6875 265.75 L 542.5625 265.75 C 532.4611 409.08227 540.15654 409.08282 528.90625 265.75 L 494.375 265.75 L 494.375 318.71875 L 483.75 318.71875 L 483.75 265.75 L 449.625 265.75 C 439.5236 409.08227 447.21904 409.08282 435.96875 265.75 L 401.4375 265.75 L 401.4375 318.71875 L 390.8125 318.71875 L 390.8125 265.75 L 356.6875 265.75 C 346.5861 409.08227 354.28154 409.08282 343.03125 265.75 L 308.53125 265.75 L 308.53125 318.71875 L 297.875 318.71875 L 297.875 265.75 L 263.75 265.75 C 253.6486 409.08227 261.34404 409.08282 250.09375 265.75 L 215.59375 265.75 L 215.59375 318.71875 L 204.9375 318.71875 L 204.9375 265.75 L 170.8125 265.75 C 160.7111 409.08227 168.40654 409.08282 157.15625 265.75 L 122.65625 265.75 L 122.65625 318.71875 L 112.03125 318.71875 L 112.03125 265.75 L 70.875 265.75 z "
       transform="translate(0,308.2677)"
       id="rect2999" />
    <path
       style="fill:#00ffff;fill-rule:nonzero;stroke:#00ffff;stroke-width:0.35433072;stroke-miterlimit:4;stroke-dasharray:none"
       d="m -141.71875,496.0625 c 0,0 -53.17966,4.8e-4 -53.16314,42.52017 l 0.007,17.72983 0,28.34375 -0.007,-0.0106 c 0,42.51969 53.16325,42.51059 53.16325,42.51059 l 60.21875,0 0,-17.71875 10.625,0 0,-24.78125 -10.625,0 0,-17.71875 -60.21875,0 0,-10.625 60.21875,0 0,-17.71875 10.625,0 0,-24.8125 -10.625,0 0,-17.71875 z"
       transform="translate(0,308.2677)"
       id="rect3104"
       inkscape:connector-curvature="0"
       sodipodi:nodetypes="csccccccccccccccccccc" />
  </g>
</svg>
