<?xml version="1.0" encoding="UTF-8" standalone="no"?>
<!-- Created with Inkscape (http://www.inkscape.org/) -->

<svg
   xmlns:dc="http://purl.org/dc/elements/1.1/"
   xmlns:cc="http://creativecommons.org/ns#"
   xmlns:rdf="http://www.w3.org/1999/02/22-rdf-syntax-ns#"
   xmlns:svg="http://www.w3.org/2000/svg"
   xmlns="http://www.w3.org/2000/svg"
   xmlns:sodipodi="http://sodipodi.sourceforge.net/DTD/sodipodi-0.dtd"
   xmlns:inkscape="http://www.inkscape.org/namespaces/inkscape"
   width="210mm"
   height="297mm"
   id="svg3392"
   version="1.1"
   inkscape:version="0.48.3.1 r9886"
   sodipodi:docname="New document 2">
  <sodipodi:namedview
     inkscape:document-units="mm"
     id="base"
     pagecolor="#ffffff"
     bordercolor="#666666"
     borderopacity="1.0"
     inkscape:pageopacity="0.0"
     inkscape:pageshadow="2"
     inkscape:zoom="1"
     inkscape:cx="180.46737"
     inkscape:cy="328.39994"
     inkscape:current-layer="svg3392"
     showgrid="false"
     inkscape:window-width="1871"
     inkscape:window-height="1176"
     inkscape:window-x="49"
     inkscape:window-y="24"
     inkscape:window-maximized="1">
    <sodipodi:guide
       id="guide4397"
       orientation="1.0,-6.12323399574e-17"
       position="157.677164931,0" />
    <sodipodi:guide
       id="guide4399"
       orientation="1.0,-6.12323399574e-17"
       position="168.307086613,0" />
    <sodipodi:guide
       id="guide4401"
       orientation="1.0,-6.12323399574e-17"
       position="100.984250701,0" />
    <sodipodi:guide
       id="guide4403"
       orientation="1.0,-6.12323399574e-17"
       position="586.417323255,0" />
    <sodipodi:guide
       id="guide4405"
       orientation="1.0,-6.12323399574e-17"
       position="575.787401573,0" />
    <sodipodi:guide
       id="guide4407"
       orientation="1.0,-6.12323399574e-17"
       position="643.110237485,0" />
    <sodipodi:guide
       id="guide4409"
       orientation="0.0,-1.0"
       position="0,726.37795402" />
    <sodipodi:guide
       id="guide4411"
       orientation="0.0,-1.0"
       position="0,737.007875702" />
    <sodipodi:guide
       id="guide4413"
       orientation="0.0,-1.0"
       position="0,669.68503979" />
    <sodipodi:guide
       id="guide4415"
       orientation="0.0,-1.0"
       position="0,325.9842507" />
    <sodipodi:guide
       id="guide4417"
       orientation="0.0,-1.0"
       position="0,315.354329018" />
    <sodipodi:guide
       id="guide4419"
       orientation="0.0,-1.0"
       position="0,382.67716493" />
    <sodipodi:guide
       id="guide4421"
       orientation="0.0,-1.0"
       position="0,526.18110236" />
    <sodipodi:guide
       id="guide4423"
       orientation="0.0,-1.0"
       position="0,428.740157479" />
    <sodipodi:guide
       id="guide4425"
       orientation="0.0,-1.0"
       position="0,418.110235796" />
    <sodipodi:guide
       id="guide4427"
       orientation="0.0,-1.0"
       position="0,634.251968924" />
    <sodipodi:guide
       id="guide4429"
       orientation="1.0,-6.12323399574e-17"
       position="372.047244093,0" />
    <sodipodi:guide
       id="guide4431"
       orientation="1.0,-6.12323399574e-17"
       position="203.740157479,0" />
    <sodipodi:guide
       id="guide4433"
       orientation="1.0,-6.12323399574e-17"
       position="193.110235797,0" />
    <sodipodi:guide
       id="guide4435"
       orientation="1.0,-6.12323399574e-17"
       position="540.354330707,0" />
    <sodipodi:guide
       id="guide4437"
       orientation="1.0,-6.12323399574e-17"
       position="550.984252389,0" />
  </sodipodi:namedview>
  <defs
     id="defs3" />
  <metadata
     id="metadata4">
    <rdf:RDF>
      <cc:Work
         rdf:about="">
        <dc:format>image/svg+xml</dc:format>
        <dc:type
           rdf:resource="http://purl.org/dc/dcmitype/StillImage" />
        <dc:title></dc:title>
      </cc:Work>
    </rdf:RDF>
  </metadata>
  <g
     id="layer1"
     inkscape:groupmode="layer"
     inkscape:label="Layer 1" />
  <path
     inkscape:connector-curvature="0"
     style="fill:none;stroke:#ff0000"
     id="box-inner-close-tab"
     d="m 203.74016,442.91339 -10.62992,0 0,-24.80315 24.80315,0 0,10.62992 0,0 14.17322,0 0,-10.62992 14.17323,0 0,10.62992 14.17323,0 0,-10.62992 14.17323,0 0,10.62992 14.17323,0 0,-10.62992 14.17323,0 0,10.62992 14.17323,0 0,-10.62992 14.17322,0 0,10.62992 14.17323,0 0,-10.62992 14.17323,0 24.80315,0 14.17323,0 0,10.62992 14.17322,0 0,-10.62992 14.17323,0 0,10.62992 14.17323,0 0,-10.62992 14.17323,0 0,10.62992 14.17323,0 0,-10.62992 14.17323,0 0,10.62992 14.17323,0 0,-10.62992 14.17322,0 0,10.62992 14.17323,0 0,0 0,-10.62992 24.80315,0 0,24.80315 -10.62992,0 0,0 0,14.17322 10.62992,0 0,14.17323 -10.62992,0 0,14.17323 10.62992,0 0,14.17323 -10.62992,0 0,14.17323 10.62992,0 0,24.80315 -10.62992,0 0,14.17322 10.62992,0 0,14.17323 -10.62992,0 0,14.17323 10.62992,0 0,14.17323 -10.62992,0 0,14.17323 0,0 10.62992,0 0,24.80315 -24.80315,0 0,-10.62992 0,0 -14.17323,0 0,10.62992 -14.17322,0 0,-10.62992 -14.17323,0 0,10.62992 -14.17323,0 0,-10.62992 -14.17323,0 0,10.62992 -14.17323,0 0,-10.62992 -14.17323,0 0,10.62992 -14.17323,0 0,-10.62992 -14.17322,0 0,10.62992 -14.17323,0 -24.80315,0 -14.17323,0 0,-10.62992 -14.17323,0 0,10.62992 -14.17322,0 0,-10.62992 -14.17323,0 0,10.62992 -14.17323,0 0,-10.62992 -14.17323,0 0,10.62992 -14.17323,0 0,-10.62992 -14.17323,0 0,10.62992 -14.17323,0 0,-10.62992 -14.17322,0 0,0 0,10.62992 -24.80315,0 0,-24.80315 10.62992,0 0,0 0,-14.17323 -10.62992,0 0,-14.17323 10.62992,0 0,-14.17323 -10.62992,0 0,-14.17323 10.62992,0 0,-14.17322 -10.62992,0 0,-24.80315 10.62992,0 0,-14.17323 -10.62992,0 0,-14.17323 10.62992,0 0,-14.17323 -10.62992,0 0,-14.17323 10.62992,0 0,-14.17322 z" />
  <g
     id="g5608">
    <path
       sodipodi:type="inkscape:offset"
       inkscape:radius="-6.0616899"
       inkscape:original="M 85.21875 413.375 C 79.464276 413.3001 72.000478 414.47096 62.625 418.125 C 35.350881 428.75492 26.253169 468.71177 38.375 481.84375 C 50.49683 494.97573 57.564877 497.00936 66.65625 492.96875 C 75.747623 488.92814 77.78125 459.625 77.78125 459.625 L 77.78125 517.875 C 77.78125 517.875 72.469703 494.25187 66.15625 517.59375 C 56.30985 492.15896 5.4005664 483.73713 0.375 521.96875 C 0.09328277 523.34637 -0.03568246 524.75637 0 526.1875 C -0.0289218 527.34747 0.06839965 528.46825 0.25 529.59375 C 0.2684549 529.70813 0.2919684 529.82351 0.3125 529.9375 C 5.0035401 568.67389 56.272191 560.31332 66.15625 534.78125 C 72.469703 558.12313 77.78125 534.5 77.78125 534.5 L 77.78125 592.75 C 77.78125 592.75 75.747623 563.44686 66.65625 559.40625 C 57.564877 555.36564 50.49683 557.39927 38.375 570.53125 C 26.253169 583.66323 35.350881 623.62008 62.625 634.25 C 89.899119 644.87992 100.96875 634.25 100.96875 634.25 C 100.98425 526.18108 100.98425 510.74516 100.96875 418.125 C 100.96875 418.125 96.204564 413.51806 85.21875 413.375 z "
       style="fill:none;stroke:#0000ff;stroke-width:1px;stroke-linecap:butt;stroke-linejoin:miter;stroke-opacity:1;opacity:0.96"
       id="path4493"
       d="m 85.125,419.4375 c -4.864231,-0.0633 -11.543011,0.92589 -20.3125,4.34375 -11.455169,4.46458 -19.57886,15.51739 -23.3125,27.125 -3.73364,11.60761 -2.12614,23.05345 1.34375,26.8125 5.768411,6.24911 10.028606,9.35468 12.9375,10.4375 2.908894,1.08282 4.738215,0.91149 8.40625,-0.71875 -0.135346,0.0602 1.313393,-1.16593 2.5,-3.84375 1.186607,-2.67782 2.229925,-6.39625 3,-10.0625 1.54015,-7.3325 2.03125,-14.3125 2.03125,-14.3125 a 6.0659019,6.0659019 0 0 1 12.125,0.40625 l 0,58.25 a 6.062296,6.062296 0 0 1 -11.90625,1.53125 6.062296,6.062296 0 0 1 -11.4375,0.375 c -3.73476,-9.64747 -16.858773,-17.38277 -29.25,-17.8125 -6.195614,-0.21486 -11.941764,1.26482 -16.25,4.46875 -4.308236,3.20393 -7.5447093,8.09427 -8.625,16.3125 a 6.062296,6.062296 0 0 1 -0.0625,0.4375 c -0.1918119,0.93798 -0.2741384,1.87562 -0.25,2.84375 a 6.062296,6.062296 0 0 1 0,0.3125 c -0.018051,0.72397 0.021204,1.44428 0.15625,2.28125 -0.00841,-0.0521 0.025342,0.0437 0.0625,0.25 a 6.062296,6.062296 0 0 1 0.0625,0.34375 c 1.0112,8.35001 4.203325,13.33367 8.5,16.59375 4.296675,3.26008 10.035126,4.78038 16.25,4.59375 12.429747,-0.37326 25.657651,-8.12928 29.40625,-17.8125 a 6.062296,6.062296 0 0 1 11.4375,0.34375 6.062296,6.062296 0 0 1 11.90625,1.5625 l 0,58.25 a 6.0659019,6.0659019 0 0 1 -12.125,0.40625 c 0,0 -0.4911,-6.98 -2.03125,-14.3125 -0.770075,-3.66625 -1.813393,-7.38468 -3,-10.0625 -1.186607,-2.67782 -2.635346,-3.9039 -2.5,-3.84375 -3.668035,-1.63024 -5.497356,-1.80157 -8.40625,-0.71875 -2.908894,1.08282 -7.169089,4.18839 -12.9375,10.4375 -3.46989,3.75905 -5.07739,15.20489 -1.34375,26.8125 3.73364,11.60761 11.857331,22.66042 23.3125,27.125 12.741544,4.96594 21.021486,4.77629 25.9375,3.71875 1.890833,-0.40676 3.165007,-0.92693 4.15625,-1.40625 0.01456,-102.00182 0.01456,-121.95572 0,-209.46875 -0.161038,-0.078 -0.02248,-0.0355 -0.21875,-0.125 -1.842077,-0.84021 -4.9053,-1.81435 -9.5625,-1.875 z" />
    <path
       id="path4537"
       d="M 214.25 401.125 C 191.43193 401.125 191.77181 418.125 168.3125 418.125 L 168.3125 442.90625 L 157.6875 442.90625 L 157.6875 428.75 L 157.6875 418.125 L 143.5 418.125 L 143.5 428.75 L 129.34375 428.75 L 129.34375 418.125 L 115.15625 418.125 L 115.15625 428.75 L 100.96875 428.75 C 100.96806 424.54957 100.96951 422.67833 100.96875 418.125 C 100.96875 418.125 96.204564 413.51806 85.21875 413.375 C 79.464276 413.3001 72.000478 414.47096 62.625 418.125 C 35.350881 428.75492 26.253169 468.71177 38.375 481.84375 C 50.49683 494.97573 57.564877 497.00936 66.65625 492.96875 C 75.747623 488.92814 77.78125 459.625 77.78125 459.625 L 77.78125 517.875 C 77.78125 517.875 72.469703 494.25187 66.15625 517.59375 C 56.30985 492.15896 5.400566 483.73713 0.375 521.96875 C 0.093283 523.34637 -0.035682 524.75637 0 526.1875 C -0.02892 527.34747 0.0684 528.46825 0.25 529.59375 C 0.26846 529.70813 0.29197 529.82351 0.3125 529.9375 C 5.00354 568.67389 56.272191 560.31332 66.15625 534.78125 C 72.469703 558.12313 77.78125 534.5 77.78125 534.5 L 77.78125 592.75 C 77.78125 592.75 75.747623 563.44686 66.65625 559.40625 C 57.564877 555.36564 50.49683 557.39927 38.375 570.53125 C 26.253169 583.66323 35.350881 623.62008 62.625 634.25 C 89.899119 644.87992 100.96875 634.25 100.96875 634.25 C 100.96951 628.93718 100.96806 628.51023 100.96875 623.625 L 115.15625 623.625 L 115.15625 634.25 L 129.34375 634.25 L 129.34375 623.625 L 143.5 623.625 L 143.5 634.25 L 157.6875 634.25 L 157.6875 623.625 L 157.6875 609.4375 L 168.3125 609.4375 L 168.3125 623.625 L 168.3125 634.25 C 191.77181 634.25 191.43193 651.25 214.25 651.25 L 214.25 622.90625 C 203.91143 622.90625 198.32212 619.4096 193.125 615.59375 L 193.125 436.78125 C 198.32212 432.9654 203.91143 429.46875 214.25 429.46875 L 214.25 401.125 z M 157.6875 457.09375 L 168.3125 457.09375 L 168.3125 471.25 L 157.6875 471.25 L 157.6875 457.09375 z M 157.6875 485.4375 L 168.3125 485.4375 L 168.3125 499.59375 L 157.6875 499.59375 L 157.6875 485.4375 z M 157.6875 513.78125 L 168.3125 513.78125 L 168.3125 538.59375 L 157.6875 538.59375 L 157.6875 513.78125 z M 42.5 515.8125 L 48.1875 515.8125 L 48.1875 536.53125 L 19.03125 536.53125 L 19.03125 516.25 L 24.71875 516.25 L 24.71875 529 L 30.125 529 L 30.125 517 L 35.8125 517 L 35.8125 529 L 42.5 529 L 42.5 515.8125 z M 157.6875 552.75 L 168.3125 552.75 L 168.3125 566.9375 L 157.6875 566.9375 L 157.6875 552.75 z M 157.6875 581.09375 L 168.3125 581.09375 L 168.3125 595.28125 L 157.6875 595.28125 L 157.6875 581.09375 z "
       style="opacity:0.95999995;fill:none;stroke:#ff0000" />
  </g>
  <g
     id="g5604">
    <path
       id="path4445"
       d="M 529.84375 401.125 L 529.84375 429.46875 C 540.18232 429.46875 545.77163 432.9654 550.96875 436.78125 L 550.96875 615.59375 C 545.77163 619.4096 540.18232 622.90625 529.84375 622.90625 L 529.84375 651.25 C 552.66182 651.25 552.32194 634.25 575.78125 634.25 L 575.78125 623.625 L 575.78125 609.4375 L 586.40625 609.4375 L 586.40625 623.625 L 586.40625 634.25 L 600.59375 634.25 L 600.59375 623.625 L 614.75 623.625 L 614.75 634.25 L 628.9375 634.25 L 628.9375 623.625 L 643.125 623.625 L 643.125 634.25 C 643.125 634.25 704.88976 663.8189 674 595 C 664.38173 573.57158 657.77979 549.36025 653.21875 526.1875 C 657.77998 503.00567 664.37759 478.81264 674 457.375 C 690.41018 420.81496 680.67783 412.02267 667.9375 411.8125 C 656.69603 411.62705 643.125 418.125 643.125 418.125 L 643.125 428.75 L 628.9375 428.75 L 628.9375 418.125 L 614.75 418.125 L 614.75 428.75 L 600.59375 428.75 L 600.59375 418.125 L 586.40625 418.125 L 586.40625 428.75 L 586.40625 442.90625 L 575.78125 442.90625 L 575.78125 418.125 C 552.32194 418.125 552.66182 401.125 529.84375 401.125 z M 575.78125 457.09375 L 586.40625 457.09375 L 586.40625 471.25 L 575.78125 471.25 L 575.78125 457.09375 z M 575.78125 485.4375 L 586.40625 485.4375 L 586.40625 499.59375 L 575.78125 499.59375 L 575.78125 485.4375 z M 575.78125 513.78125 L 586.40625 513.78125 L 586.40625 538.59375 L 575.78125 538.59375 L 575.78125 513.78125 z M 575.78125 552.75 L 586.40625 552.75 L 586.40625 566.9375 L 575.78125 566.9375 L 575.78125 552.75 z M 575.78125 581.09375 L 586.40625 581.09375 L 586.40625 595.28125 L 575.78125 595.28125 L 575.78125 581.09375 z "
       style="fill:none;stroke:#ff0000" />
    <path
       sodipodi:nodetypes="scccsssssccsssss"
       inkscape:connector-curvature="0"
       id="path4556"
       d="m 666.5,417.59375 c -6.70481,0.24726 -14.02032,3.05086 -17.59375,4.5 -5.79601,104.08733 -5.79601,104.08733 -16.28125,104.08733 10.48524,0 10.48524,0 16.28125,104.10017 1.47372,0.63297 2.14561,1.03756 5.15625,2 4.92205,1.57347 11.15497,2.85705 15.46875,2.40625 2.15689,-0.2254 3.73427,-0.81044 4.75,-1.59375 1.01573,-0.78331 1.75979,-1.78485 2.25,-4.125 0.98043,-4.6803 -0.32173,-14.90517 -7.8125,-31.59375 -9.88006,-22.01165 -16.56961,-46.60089 -21.1875,-70.0625 -0.1467,-0.74041 -0.1467,-1.50959 0,-2.25 4.61807,-23.47073 11.30366,-48.04241 21.1875,-70.0625 7.95906,-17.7319 8.87392,-28.1396 7.625,-32.4375 -0.62446,-2.14895 -1.41617,-2.94729 -2.6875,-3.6875 -1.27133,-0.74021 -3.28072,-1.23948 -5.8125,-1.28125 -0.44015,-0.007 -0.89676,-0.0165 -1.34375,0 z"
       style="fill:none;stroke:#0000ff" />
  </g>
  <g
     id="g5529">
    <path
       id="path4449"
       d="M 293.4375 314.5625 C 270.46672 314.86074 248.98854 323.57756 225.65625 325.96875 L 203.75 325.96875 L 193.125 325.96875 L 193.125 340.15625 L 203.75 340.15625 L 203.75 354.34375 L 193.125 354.34375 L 193.125 368.5 L 203.75 368.5 L 203.75 382.6875 L 217.90625 382.6875 L 217.90625 393.3125 L 232.09375 393.3125 L 232.09375 382.6875 L 246.25 382.6875 L 246.25 393.3125 L 260.4375 393.3125 L 260.4375 382.6875 L 274.59375 382.6875 L 274.59375 393.3125 L 288.78125 393.3125 L 288.78125 382.6875 L 302.9375 382.6875 L 302.9375 393.3125 L 317.125 393.3125 L 317.125 382.6875 L 331.3125 382.6875 L 331.3125 393.3125 L 345.46875 393.3125 L 345.46875 382.6875 L 359.65625 382.6875 L 384.4375 382.6875 L 398.625 382.6875 L 398.625 393.3125 L 412.78125 393.3125 L 412.78125 382.6875 L 426.96875 382.6875 L 426.96875 393.3125 L 441.15625 393.3125 L 441.15625 382.6875 L 455.3125 382.6875 L 455.3125 393.3125 L 469.5 393.3125 L 469.5 382.6875 L 483.65625 382.6875 L 483.65625 393.3125 L 497.84375 393.3125 L 497.84375 382.6875 L 512 382.6875 L 512 393.3125 L 526.1875 393.3125 L 526.1875 382.6875 L 540.34375 382.6875 L 540.34375 368.5 L 550.96875 368.5 L 550.96875 354.34375 L 540.34375 354.34375 L 540.34375 340.15625 L 550.96875 340.15625 L 550.96875 325.96875 L 540.34375 325.96875 L 518.4375 325.96875 C 481.27021 322.15969 448.79685 302.31369 407.5 325.96875 C 388.85656 336.64781 398.44571 348.84946 416.4375 355.65625 C 404.71793 358.50568 391.68319 360.09375 377.9375 360.09375 C 361.31425 360.09375 345.71984 357.78534 332.25 353.71875 C 347.12257 346.69369 353.57263 335.69434 336.59375 325.96875 C 321.22158 317.16349 307.05814 314.38566 293.4375 314.5625 z M 293.5625 324.21875 C 305.7825 324.06009 317.87006 326.37535 331.78125 334.34375 C 335.13438 336.26444 336.54695 337.87231 336.90625 338.4375 C 336.61146 338.9366 333.12693 342.88906 326.4375 345.75 C 312.66974 351.63821 289.28328 353.23539 277.25 347.21875 C 274.49906 345.84328 272.73015 344.57712 271.34375 343.46875 A 9.6654943 9.6654943 0 0 0 268.03125 327.84375 C 276.75471 325.93049 285.27613 324.32633 293.5625 324.21875 z M 448.25 324.21875 C 449.01319 324.20856 449.7675 324.20883 450.53125 324.21875 C 458.81762 324.32633 467.33904 325.93049 476.0625 327.84375 A 9.6654943 9.6654943 0 0 0 472.75 343.46875 C 471.3636 344.57712 469.59469 345.84328 466.84375 347.21875 C 454.81047 353.23539 431.42401 351.63821 417.65625 345.75 C 410.96682 342.88906 407.48229 338.9366 407.1875 338.4375 C 407.5468 337.87231 408.95937 336.26444 412.3125 334.34375 C 425.35424 326.87338 436.80211 324.37156 448.25 324.21875 z "
       style="fill:none;stroke:#ff0000" />
    <path
       id="path4740"
       d="M 416.44385 355.66837 C 432.67631 361.80644 455.75578 363.55974 471.15127 355.862 C 500.46203 341.20662 478.33279 328.62045 456.30203 341.01276 "
       style="fill:none;stroke:#0000ff;stroke-width:0.35433071;stroke-miterlimit:4;stroke-dasharray:none" />
    <path
       id="path4738"
       d="M 469.67562 316.48253 C 450.12279 313.11825 430.14554 313.01942 407.51167 325.98423 C 388.86447 336.66545 398.44504 348.86239 416.44385 355.66837 "
       style="fill:none;stroke:#0000ff;stroke-width:0.03543307000000000;stroke-miterlimit:4" />
    <path
       id="path4648"
       d="M 540.35433 325.98423 C 514.97524 328.87298 492.61758 320.42996 469.67562 316.48253 "
       style="fill:none;stroke:#0000ff;stroke-width:0.03543307000000000;stroke-miterlimit:4" />
    <path
       id="path4759"
       d="M 332.283 353.70872 C 316.09209 361.3634 289.87218 364.32648 272.94322 355.862 C 243.63246 341.20662 265.7617 328.62045 287.79246 341.01276 "
       style="fill:none;stroke:#0000ff;stroke-width:0.35433070999999999;stroke-linecap:butt;stroke-linejoin:miter;stroke-opacity:1;stroke-miterlimit:4;stroke-dasharray:none" />
  </g>
  <g
     id="g5536"
     transform="matrix(1,0,0,-1,-0.00984252,1052.3725)">
    <path
       style="fill:none;stroke:#ff0000"
       d="m 293.4375,314.5625 c -22.97078,0.29824 -44.44896,9.01506 -67.78125,11.40625 l -21.90625,0 -10.625,0 0,14.1875 10.625,0 0,14.1875 -10.625,0 0,14.15625 10.625,0 0,14.1875 14.15625,0 0,10.625 14.1875,0 0,-10.625 14.15625,0 0,10.625 14.1875,0 0,-10.625 14.15625,0 0,10.625 14.1875,0 0,-10.625 14.15625,0 0,10.625 14.1875,0 0,-10.625 14.1875,0 0,10.625 14.15625,0 0,-10.625 14.1875,0 24.78125,0 14.1875,0 0,10.625 14.15625,0 0,-10.625 14.1875,0 0,10.625 14.1875,0 0,-10.625 14.15625,0 0,10.625 14.1875,0 0,-10.625 14.15625,0 0,10.625 14.1875,0 0,-10.625 14.15625,0 0,10.625 14.1875,0 0,-10.625 14.15625,0 0,-14.1875 10.625,0 0,-14.15625 -10.625,0 0,-14.1875 10.625,0 0,-14.1875 -10.625,0 -21.90625,0 c -37.16729,-3.80906 -69.64065,-23.65506 -110.9375,0 -18.64344,10.67906 -9.05429,22.88071 8.9375,29.6875 -11.71957,2.84943 -24.75431,4.4375 -38.5,4.4375 -16.62325,0 -32.21766,-2.30841 -45.6875,-6.375 14.87257,-7.02506 21.32263,-18.02441 4.34375,-27.75 -15.37217,-8.80526 -29.53561,-11.58309 -43.15625,-11.40625 z m 0.125,9.65625 c 12.22,-0.15866 24.30756,2.1566 38.21875,10.125 3.35313,1.92069 4.7657,3.52856 5.125,4.09375 -0.29479,0.4991 -3.77932,4.45156 -10.46875,7.3125 -13.76776,5.88821 -37.15422,7.48539 -49.1875,1.46875 -2.75094,-1.37547 -4.51985,-2.64163 -5.90625,-3.75 a 9.6654943,9.6654943 0 0 0 -3.3125,-15.625 c 8.72346,-1.91326 17.24488,-3.51742 25.53125,-3.625 z m 154.6875,0 c 0.76319,-0.0102 1.5175,-0.01 2.28125,0 8.28637,0.10758 16.80779,1.71174 25.53125,3.625 a 9.6654943,9.6654943 0 0 0 -3.3125,15.625 c -1.3864,1.10837 -3.15531,2.37453 -5.90625,3.75 -12.03328,6.01664 -35.41974,4.41946 -49.1875,-1.46875 -6.68943,-2.86094 -10.17396,-6.8134 -10.46875,-7.3125 0.3593,-0.56519 1.77187,-2.17306 5.125,-4.09375 13.04174,-7.47037 24.48961,-9.97219 35.9375,-10.125 z"
       id="path5538"
       inkscape:connector-curvature="0" />
    <path
       style="fill:none;stroke:#0000ff;stroke-width:0.35433072;stroke-miterlimit:4;stroke-dasharray:none"
       d="m 416.44385,355.66837 c 16.23246,6.13807 39.31193,7.89137 54.70742,0.19363 29.31076,-14.65538 7.18152,-27.24155 -14.84924,-14.84924"
       id="path5540"
       inkscape:connector-curvature="0" />
    <path
       style="fill:none;stroke:#0000ff;stroke-width:0.03543307;stroke-miterlimit:4"
       d="m 469.67562,316.48253 c -19.55283,-3.36428 -39.53008,-3.46311 -62.16395,9.5017 -18.6472,10.68122 -9.06663,22.87816 8.93218,29.68414"
       id="path5542"
       inkscape:connector-curvature="0" />
    <path
       style="fill:none;stroke:#0000ff;stroke-width:0.03543307;stroke-miterlimit:4"
       d="m 540.35433,325.98423 c -25.37909,2.88875 -47.73675,-5.55427 -70.67871,-9.5017"
       id="path5544"
       inkscape:connector-curvature="0" />
    <path
       style="fill:none;stroke:#0000ff;stroke-width:0.35433072;stroke-linecap:butt;stroke-linejoin:miter;stroke-miterlimit:4;stroke-opacity:1;stroke-dasharray:none"
       d="m 332.283,353.70872 c -16.19091,7.65468 -42.41082,10.61776 -59.33978,2.15328 -29.31076,-14.65538 -7.18152,-27.24155 14.84924,-14.84924"
       id="path5546"
       inkscape:connector-curvature="0" />
  </g>
</svg>
