<?xml version="1.0" encoding="UTF-8" standalone="no"?>
<!-- Created with Inkscape (http://www.inkscape.org/) -->

<svg
   xmlns:dc="http://purl.org/dc/elements/1.1/"
   xmlns:cc="http://creativecommons.org/ns#"
   xmlns:rdf="http://www.w3.org/1999/02/22-rdf-syntax-ns#"
   xmlns:svg="http://www.w3.org/2000/svg"
   xmlns="http://www.w3.org/2000/svg"
   xmlns:sodipodi="http://sodipodi.sourceforge.net/DTD/sodipodi-0.dtd"
   xmlns:inkscape="http://www.inkscape.org/namespaces/inkscape"
   width="210mm"
   height="297mm"
   id="svg3166"
   version="1.1"
   inkscape:version="0.48.3.1 r9886"
   sodipodi:docname="semainier.svg">
  <defs
     id="defs3" />
  <sodipodi:namedview
     inkscape:document-units="mm"
     id="base"
     pagecolor="#ffffff"
     bordercolor="#666666"
     borderopacity="1.0"
     inkscape:pageopacity="0.0"
     inkscape:pageshadow="2"
     inkscape:zoom="0.98994949"
     inkscape:cx="417.11385"
     inkscape:cy="510.10655"
     inkscape:current-layer="layer2"
     showgrid="false"
     showguides="true"
     inkscape:guide-bbox="true"
     inkscape:window-width="1855"
     inkscape:window-height="1176"
     inkscape:window-x="65"
     inkscape:window-y="24"
     inkscape:window-maximized="1" />
  <metadata
     id="metadata4">
    <rdf:RDF>
      <cc:Work
         rdf:about="">
        <dc:format>image/svg+xml</dc:format>
        <dc:type
           rdf:resource="http://purl.org/dc/dcmitype/StillImage" />
        <dc:title />
      </cc:Work>
    </rdf:RDF>
  </metadata>
  <g
     inkscape:label="Print"
     inkscape:groupmode="layer"
     id="layer1"
     style="display:none">
    <rect
       style="fill:none;stroke:#0000ff"
       id="rect3276"
       width="645.71429"
       height="962.85712"
       x="60"
       y="39.505039" />
    <text
       sodipodi:linespacing="125%"
       id="text3325"
       y="237.6924"
       x="465.13574"
       style="font-size:40px;font-style:normal;font-weight:normal;line-height:125%;letter-spacing:0px;word-spacing:0px;fill:#000000;fill-opacity:1;stroke:none;font-family:Sans"
       xml:space="preserve"><tspan
         style="font-size:64px;font-style:normal;font-variant:normal;font-weight:bold;font-stretch:normal;text-align:center;text-anchor:middle;font-family:Impact;-inkscape-font-specification:Impact Bold"
         y="237.6924"
         x="465.13574"
         id="tspan3327"
         sodipodi:role="line">MARDI</tspan></text>
    <text
       sodipodi:linespacing="125%"
       id="text3333"
       y="339.83527"
       x="465.13574"
       style="font-size:40px;font-style:normal;font-weight:normal;line-height:125%;letter-spacing:0px;word-spacing:0px;fill:#000000;fill-opacity:1;stroke:none;font-family:Sans"
       xml:space="preserve"><tspan
         style="font-size:64px;font-style:normal;font-variant:normal;font-weight:bold;font-stretch:normal;text-align:center;text-anchor:middle;font-family:Impact;-inkscape-font-specification:Impact Bold"
         y="339.83527"
         x="465.13574"
         id="tspan3335"
         sodipodi:role="line">MERCREDI</tspan></text>
    <text
       sodipodi:linespacing="125%"
       id="text3341"
       y="441.97812"
       x="465.13574"
       style="font-size:40px;font-style:normal;font-weight:normal;line-height:125%;letter-spacing:0px;word-spacing:0px;fill:#000000;fill-opacity:1;stroke:none;font-family:Sans"
       xml:space="preserve"><tspan
         style="font-size:64px;font-style:normal;font-variant:normal;font-weight:bold;font-stretch:normal;text-align:center;text-anchor:middle;font-family:Impact;-inkscape-font-specification:Impact Bold"
         y="441.97812"
         x="465.13574"
         id="tspan3343"
         sodipodi:role="line">JEUDI</tspan></text>
    <text
       sodipodi:linespacing="125%"
       id="text3357"
       y="646.26379"
       x="465.13574"
       style="font-size:40px;font-style:normal;font-weight:normal;line-height:125%;letter-spacing:0px;word-spacing:0px;fill:#000000;fill-opacity:1;stroke:none;font-family:Sans"
       xml:space="preserve"><tspan
         style="font-size:64px;font-style:normal;font-variant:normal;font-weight:bold;font-stretch:normal;text-align:center;text-anchor:middle;font-family:Impact;-inkscape-font-specification:Impact Bold"
         y="646.26379"
         x="465.13574"
         id="tspan3359"
         sodipodi:role="line">SAMEDI</tspan></text>
    <text
       sodipodi:linespacing="125%"
       id="text3365"
       y="748.40668"
       x="465.13574"
       style="font-size:40px;font-style:normal;font-weight:normal;line-height:125%;letter-spacing:0px;word-spacing:0px;fill:#000000;fill-opacity:1;stroke:none;font-family:Sans"
       xml:space="preserve"><tspan
         style="font-size:64px;font-style:normal;font-variant:normal;font-weight:bold;font-stretch:normal;text-align:center;text-anchor:middle;font-family:Impact;-inkscape-font-specification:Impact Bold"
         y="748.40668"
         x="465.13574"
         id="tspan3367"
         sodipodi:role="line">DIMANCHE</tspan></text>
    <text
       sodipodi:linespacing="125%"
       id="text3317"
       y="135.54955"
       x="465.13574"
       style="font-size:40px;font-style:normal;font-weight:normal;line-height:125%;letter-spacing:0px;word-spacing:0px;fill:#000000;fill-opacity:1;stroke:none;display:inline;font-family:Sans"
       xml:space="preserve"><tspan
         style="font-size:64px;font-style:normal;font-variant:normal;font-weight:bold;font-stretch:normal;text-align:center;text-anchor:middle;font-family:Impact;-inkscape-font-specification:Impact Bold"
         y="135.54955"
         x="465.13574"
         id="tspan3319"
         sodipodi:role="line">LUNDI</tspan></text>
    <text
       sodipodi:linespacing="125%"
       id="text3349"
       y="544.12097"
       x="465.13574"
       style="font-size:40px;font-style:normal;font-weight:normal;line-height:125%;letter-spacing:0px;word-spacing:0px;fill:#000000;fill-opacity:1;stroke:none;display:inline;font-family:Sans"
       xml:space="preserve"><tspan
         style="font-size:64px;font-style:normal;font-variant:normal;font-weight:bold;font-stretch:normal;text-align:center;text-anchor:middle;font-family:Impact;-inkscape-font-specification:Impact Bold"
         y="544.12097"
         x="465.13574"
         id="tspan3351"
         sodipodi:role="line">VENDREDI</tspan></text>
    <g
       id="g3797"
       transform="matrix(1.4383065,0,0,1.4596223,272.31763,789.09151)">
      <path
         inkscape:connector-curvature="0"
         id="path3788"
         style="fill:#ffffff;fill-rule:evenodd;stroke:#000000;stroke-width:6;stroke-linejoin:round"
         d="m 64.812,11.75 c -1.784,0 -3.419,0.672 -4.75,1.844 -0.84,-0.738 -1.919,-1.188 -3.124,-1.188 -2.635,0 -4.782,2.147 -4.782,4.782 0,0.191 -0.022,0.376 0,0.562 -0.686,0.143 -1.346,0.358 -2,0.625 -1.716,-2.153 -4.125,-3.469 -6.812,-3.469 -4.862,0 -8.881,4.397 -9.375,10.032 -2.242,1.192 -3.781,3.857 -3.781,6.968 0,3.579 2.053,6.608 4.843,7.438 0.255,0.738 0.607,1.396 1,2.031 -4.926,0.91 -9.9,2.92 -14.437,6.063 -6.706,4.644 -16.444,12.666 -17.438,25.968 8.847,2.552 18.108,0.966 26.032,-3.156 -1.307,9.958 -0.666,19.431 2.656,26.188 15.561,31.652 54.171,23.592 63.812,-1.188 2.505,-6.437 2.535,-16.951 0.469,-28.062 9.185,3.281 19.575,3.467 28.535,-1.126 -3.54,-12.906 -14.69,-18.936 -22.19,-22.218 -2.32,-1.015 -4.667,-1.783 -7.032,-2.313 0,-0.564 -0.071,-1.091 -0.25,-1.593 2.288,-1.461 3.842,-4.345 3.842,-7.657 0,-2.011 -0.595,-3.838 -1.561,-5.312 0.483,-0.746 0.781,-1.64 0.781,-2.594 0,-2.635 -2.146,-4.781 -4.781,-4.781 -0.359,0 -0.695,0.049 -1.031,0.125 -1.206,-3.204 -4.28,-5.5 -7.907,-5.5 -2.491,0 -4.73,1.099 -6.281,2.812 -1.34,-0.878 -2.894,-1.406 -4.531,-1.406 -1.061,0 -2.08,0.239 -3.031,0.625 -1.444,-2.707 -3.99,-4.5 -6.876,-4.5 z" />
      <path
         inkscape:connector-curvature="0"
         id="path3697"
         sodipodi:nodetypes="cscc"
         style="fill:#ffffff;fill-rule:evenodd;stroke:#000000;stroke-width:2.88039994"
         d="M 125.66,66.049 C 122.12,53.142 110.98,47.118 103.48,43.835 93.103,39.291 81.743,39.7 73.813,44.275 78.75,62.957 105.77,76.248 125.66,66.049 z" />
      <path
         inkscape:connector-curvature="0"
         id="path3695"
         sodipodi:nodetypes="cscc"
         style="fill:#ffffff;fill-rule:evenodd;stroke:#000000;stroke-width:2.87100005"
         d="m 4.1489,73.42 c 0.9941,-13.303 10.735,-21.326 17.441,-25.971 9.286,-6.431 20.476,-8.203 29.109,-5.244 -1.257,19.219 -25.149,37.389 -46.55,31.215 z" />
      <path
         inkscape:connector-curvature="0"
         id="path3638"
         sodipodi:nodetypes="csss"
         style="fill:#ffffff;fill-rule:evenodd;stroke:#000000;stroke-width:2.6315999"
         d="M 96.647,95.251 C 104.05,76.226 90.08,21.51 63.068,21.389 40.065,21.285 21.798,73.961 32.853,96.445 48.414,128.09 87.005,120.03 96.647,95.251 z" />
      <path
         inkscape:connector-curvature="0"
         id="path3643"
         style="fill:#ffffff;stroke:#000000;stroke-width:2.5229001;stroke-linecap:round;stroke-linejoin:round"
         d="m 64.81,11.738 c -1.785,0 -3.426,0.694 -4.757,1.865 -0.84,-0.737 -1.922,-1.182 -3.127,-1.182 -2.635,0 -4.783,2.122 -4.783,4.757 0,0.191 0.004,0.392 0.026,0.578 -0.686,0.143 -1.344,0.363 -1.997,0.631 -1.716,-2.153 -4.147,-3.469 -6.833,-3.469 -4.862,0 -8.862,4.378 -9.356,10.012 -2.242,1.193 -3.811,3.88 -3.811,6.991 0,3.579 2.072,6.581 4.862,7.411 1.217,3.519 4.127,6.019 7.516,6.019 1.216,0 2.381,-0.35 3.417,-0.92 2.242,2.293 5.144,3.679 8.331,3.679 4.99,0 9.331,-3.381 11.458,-8.331 1.603,1.505 3.611,2.392 5.808,2.392 1.763,0 3.396,-0.6 4.81,-1.603 1.164,3.65 4.123,6.254 7.595,6.254 1.694,0 3.269,-0.617 4.572,-1.682 0.841,0.738 1.922,1.183 3.128,1.183 2.635,0 4.783,-2.148 4.783,-4.783 0,-0.564 -0.083,-1.101 -0.263,-1.603 2.289,-1.461 3.841,-4.336 3.841,-7.648 0,-2.012 -0.588,-3.861 -1.554,-5.335 0.482,-0.746 0.762,-1.621 0.762,-2.575 0,-2.635 -2.122,-4.784 -4.757,-4.784 -0.359,0 -0.715,0.057 -1.051,0.132 -1.205,-3.203 -4.284,-5.493 -7.911,-5.493 -2.491,0 -4.73,1.072 -6.281,2.786 -1.34,-0.878 -2.883,-1.393 -4.52,-1.393 -1.061,0 -2.07,0.245 -3.022,0.631 -1.444,-2.707 -4,-4.52 -6.886,-4.52 z" />
      <g
         id="g3518"
         transform="matrix(1.4381,0.64705,-0.64705,1.4381,-42.089,-43.474)">
        <path
           id="path3183"
           sodipodi:rx="4"
           sodipodi:ry="4"
           style="fill:#000000"
           sodipodi:type="arc"
           d="m 76,48 a 4,4 0 1 1 -8,0 4,4 0 1 1 8,0 z"
           transform="translate(10.649,-9.4991)"
           sodipodi:cy="48"
           sodipodi:cx="72" />
        <path
           id="path3185"
           sodipodi:rx="4"
           sodipodi:ry="4"
           style="fill:#ffffff"
           sodipodi:type="arc"
           d="m 76,48 a 4,4 0 1 1 -8,0 4,4 0 1 1 8,0 z"
           transform="matrix(0.3961,0,0,0.3961,55.121,18.835)"
           sodipodi:cy="48"
           sodipodi:cx="72" />
        <path
           id="path3195"
           sodipodi:rx="4"
           sodipodi:ry="4"
           style="fill:#000000"
           sodipodi:type="arc"
           d="m 76,48 a 4,4 0 1 1 -8,0 4,4 0 1 1 8,0 z"
           transform="translate(25.61,-16.267)"
           sodipodi:cy="48"
           sodipodi:cx="72" />
        <path
           id="path3197"
           sodipodi:rx="4"
           sodipodi:ry="4"
           style="fill:#ffffff"
           sodipodi:type="arc"
           d="m 76,48 a 4,4 0 1 1 -8,0 4,4 0 1 1 8,0 z"
           transform="matrix(0.3961,0,0,0.3961,70.082,12.067)"
           sodipodi:cy="48"
           sodipodi:cx="72" />
      </g>
      <g
         id="g3780"
         inkscape:transform-center-x="3.2997387"
         inkscape:transform-center-y="3.9241956"
         transform="matrix(0.7778,0.62851,-0.62851,0.7778,77.013,-10.361)">
        <path
           inkscape:connector-curvature="0"
           id="path3771"
           sodipodi:nodetypes="cscc"
           style="fill:#000000;fill-rule:evenodd;stroke:#000000;stroke-width:0.93831998px;stroke-linecap:round;stroke-linejoin:round"
           d="m 62.183,99.205 c -1.685,-2.5 -3.845,-3.217 -6.223,-3.895 -3.065,-0.873 -4.906,0.167 -6.971,1.077 4.881,-0.958 9.661,0.378 13.194,2.818 z" />
        <path
           inkscape:connector-curvature="0"
           id="path3775"
           style="fill:#000000"
           d="m 54.896,98.553 c -0.398,1.209 -2.106,1.737 -3.813,1.173 -1.707,-0.562 -2.77,-2 -2.372,-3.209 0.398,-1.209 2.107,-1.734 3.814,-1.172 1.707,0.562 2.769,1.999 2.371,3.208 z" />
      </g>
      <g
         id="g3784"
         transform="matrix(0.79935,-0.60086,0.60086,0.79935,-45.783,68.703)">
        <path
           inkscape:connector-curvature="0"
           id="path3773"
           style="fill:#000000;fill-rule:evenodd;stroke:#000000;stroke-width:0.99880999px;stroke-linecap:round;stroke-linejoin:round"
           d="m 69.469,99.207 c 1.58,-2.794 3.812,-3.736 6.279,-4.654 3.178,-1.184 5.219,-0.234 7.487,0.559 -5.26,-0.608 -10.221,1.21 -13.766,4.095 z"
           sodipodi:nodetypes="cscc"
           inkscape:transform-center-y="-3.1426362"
           inkscape:transform-center-x="-7.3416612" />
        <path
           inkscape:connector-curvature="0"
           id="path3778"
           inkscape:transform-center-x="-2.0288668"
           style="fill:#000000"
           inkscape:transform-center-y="1.2173202"
           d="m 83.691,95.114 c 0.48,1.175 -0.476,2.678 -2.135,3.356 -1.659,0.677 -3.395,0.274 -3.875,-0.901 -0.48,-1.175 0.477,-2.679 2.136,-3.357 1.659,-0.677 3.394,-0.273 3.874,0.902 z" />
      </g>
    </g>
    <g
       id="g3478"
       transform="matrix(0.31540659,0,0,0.31540659,482.6026,783.55863)">
      <g
         id="g3480">
        <path
           id="path3482"
           d="m 308.768,272.434 c 0,0 38.983,5.653 7.905,70.633 0,0 -7.905,33.335 0.569,75.15 0,0 -32.208,28.25 -91.539,10.737 0,0 -7.346,-24.296 31.643,-36.727 0,0 -10.735,-61.591 18.079,-97.19 0,-10e-4 11.303,-21.474 33.343,-22.603 z"
           inkscape:connector-curvature="0"
           style="fill:#ffffff" />
        <path
           id="path3484"
           d="m 309.157,270.215 c 1.893,0.345 3.729,0.942 5.414,1.695 0.879,0.325 1.673,0.825 2.501,1.264 0.839,0.417 1.604,0.957 2.355,1.519 1.589,1.017 2.87,2.411 4.227,3.716 0.625,0.699 1.15,1.484 1.724,2.227 0.555,0.759 1.167,1.485 1.543,2.345 0.812,1.674 1.85,3.284 2.284,5.087 0.528,1.767 1.234,3.519 1.38,5.336 0.2,1.802 0.676,3.62 0.628,5.417 l 0.003,5.401 c -0.077,1.787 -0.4,3.532 -0.592,5.301 -0.234,1.762 -0.387,3.548 -0.871,5.238 l -1.224,5.137 c -0.356,1.735 -0.888,3.399 -1.474,5.043 l -1.676,4.966 c -0.54,1.667 -1.102,3.32 -1.82,4.9 l -4.041,9.619 0.227,-0.633 c -0.299,1.404 -0.523,2.961 -0.776,4.462 -0.276,1.501 -0.402,3.055 -0.608,4.58 -0.163,1.536 -0.422,3.054 -0.505,4.603 l -0.35,4.628 c -0.107,1.543 -0.275,3.08 -0.275,4.631 l -0.11,4.644 -0.115,4.639 0.17,4.639 0.189,4.637 c 0.093,1.542 0.054,3.09 0.272,4.624 l 0.992,9.212 c 0.199,1.53 0.246,3.077 0.584,4.588 l 0.841,4.546 1.67,9.082 0.485,2.643 -1.952,1.7 -0.006,0.005 c -1.992,1.55 -3.668,2.61 -5.548,3.709 -1.833,1.094 -3.711,2.048 -5.6,2.961 -1.91,0.876 -3.805,1.765 -5.768,2.471 -1.93,0.794 -3.899,1.461 -5.89,2.053 -1.968,0.672 -3.975,1.18 -5.991,1.647 l -3.007,0.732 -3.05,0.526 c -2.035,0.328 -4.048,0.761 -6.102,0.896 -2.048,0.188 -4.084,0.418 -6.125,0.564 l -6.134,0.134 c -2.042,0.112 -4.077,-0.096 -6.112,-0.185 -2.029,-0.151 -4.068,-0.133 -6.08,-0.426 l -6.033,-0.799 c -2.019,-0.207 -3.995,-0.641 -5.971,-1.07 l -5.926,-1.251 c -1.963,-0.448 -3.881,-1.095 -5.82,-1.631 l -5.79,-1.689 -0.769,-0.225 -0.176,-0.716 -0.003,-0.009 c -0.345,-1.283 -0.516,-2.402 -0.603,-3.603 -0.099,-1.182 -0.104,-2.371 -0.014,-3.548 0.07,-1.183 0.223,-2.355 0.488,-3.511 0.172,-1.178 0.611,-2.282 0.947,-3.417 0.343,-1.136 0.928,-2.171 1.389,-3.262 0.496,-1.073 1.192,-2.031 1.786,-3.052 0.578,-1.038 1.419,-1.869 2.119,-2.813 0.699,-0.955 1.533,-1.769 2.381,-2.575 0.858,-0.782 1.614,-1.708 2.569,-2.367 l 2.756,-2.126 c 0.898,-0.756 1.939,-1.249 2.903,-1.887 0.987,-0.592 1.96,-1.228 2.963,-1.785 l 3.092,-1.505 c 1.037,-0.48 2.049,-1.047 3.114,-1.456 l 6.392,-2.445 -1.596,2.631 v -0.006 c -0.654,-4.338 -1.057,-8.548 -1.331,-12.833 -0.293,-4.268 -0.43,-8.542 -0.416,-12.817 -0.036,-2.137 0.03,-4.273 0.115,-6.412 0.059,-2.136 0.146,-4.271 0.327,-6.405 0.18,-2.133 0.233,-4.273 0.518,-6.397 l 0.765,-6.379 1.108,-6.337 c 0.316,-2.123 0.905,-4.197 1.401,-6.287 0.522,-2.084 0.968,-4.187 1.703,-6.218 l 2.025,-6.138 2.541,-5.959 c 0.752,-2.031 1.918,-3.875 2.924,-5.792 1.054,-1.894 1.993,-3.855 3.337,-5.578 l 3.762,-5.334 -0.222,0.338 c 0.95,-1.71 1.906,-3.183 2.99,-4.668 1.058,-1.478 2.206,-2.888 3.403,-4.256 1.217,-1.353 2.477,-2.671 3.831,-3.896 1.336,-1.242 2.757,-2.409 4.245,-3.478 1.47,-1.101 3.044,-2.058 4.657,-2.965 0.784,-0.487 1.659,-0.815 2.487,-1.228 0.835,-0.402 1.673,-0.794 2.564,-1.071 l 2.63,-0.918 2.721,-0.633 c 1.802,-0.497 3.684,-0.512 5.528,-0.778 l 0.186,-0.026 0.316,0.059 z m -0.561,4.498 c -1.524,0.197 -3.082,0.205 -4.57,0.614 l -2.395,0.531 -2.329,0.793 c -0.788,0.232 -1.534,0.577 -2.278,0.929 -0.738,0.364 -1.519,0.635 -2.225,1.07 -1.448,0.799 -2.868,1.642 -4.21,2.629 -1.357,0.954 -2.66,2.004 -3.891,3.132 -1.253,1.108 -2.421,2.313 -3.553,3.551 -1.117,1.253 -2.192,2.547 -3.183,3.904 -0.995,1.327 -1.949,2.793 -2.711,4.133 l -0.077,0.134 -0.144,0.203 -3.591,5 c -1.287,1.607 -2.192,3.47 -3.209,5.26 -0.971,1.815 -2.103,3.548 -2.836,5.49 l -2.428,5.708 -1.928,5.91 c -0.704,1.951 -1.127,3.992 -1.626,6.009 -0.475,2.023 -1.042,4.024 -1.341,6.089 l -1.058,6.156 -0.728,6.214 c -0.276,2.067 -0.317,4.163 -0.488,6.24 -0.177,2.081 -0.206,4.172 -0.233,6.26 -0.051,2.09 -0.081,4.178 -0.01,6.267 0.054,4.178 0.26,8.357 0.613,12.519 0.329,4.146 0.811,8.352 1.481,12.363 l 10e-4,0.006 0.283,1.989 -1.879,0.643 -6.144,2.106 c -1.024,0.352 -1.976,0.851 -2.971,1.268 l -2.957,1.309 c -0.951,0.488 -1.865,1.043 -2.803,1.561 -0.907,0.557 -1.916,0.985 -2.745,1.647 l -2.591,1.858 c -0.909,0.572 -1.593,1.382 -2.402,2.063 -0.792,0.699 -1.58,1.407 -2.221,2.236 -0.648,0.819 -1.448,1.539 -1.977,2.437 -0.548,0.885 -1.21,1.713 -1.676,2.642 -0.428,0.943 -0.994,1.838 -1.321,2.825 -0.322,0.985 -0.758,1.943 -0.937,2.969 -0.27,1.008 -0.44,2.033 -0.54,3.071 -0.114,1.031 -0.147,2.079 -0.094,3.111 0.024,1.018 0.177,2.109 0.373,2.982 v 0.006 l -0.947,-0.941 5.778,1.274 c 1.93,0.398 3.834,0.907 5.776,1.213 l 5.833,0.832 c 1.942,0.289 3.878,0.584 5.838,0.651 l 5.85,0.382 c 1.948,0.158 3.904,0.003 5.847,0.021 1.945,-0.044 3.892,0.033 5.823,-0.207 l 5.793,-0.509 5.724,-0.917 c 1.913,-0.247 3.771,-0.786 5.643,-1.213 l 2.801,-0.674 2.741,-0.867 c 1.836,-0.554 3.655,-1.142 5.414,-1.881 1.789,-0.664 3.546,-1.391 5.249,-2.231 1.745,-0.757 3.396,-1.676 5.055,-2.572 1.632,-0.926 3.254,-1.89 4.772,-2.943 1.504,-0.996 3.099,-2.217 4.188,-3.185 l 0.003,-0.002 -1.467,4.345 -1.341,-9.581 -0.668,-4.785 c -0.276,-1.587 -0.265,-3.207 -0.402,-4.808 l -0.613,-9.624 c -0.156,-1.6 -0.05,-3.212 -0.076,-4.816 l 0.012,-4.816 0.008,-4.81 0.263,-4.805 0.263,-4.802 c 0.053,-1.601 0.273,-3.196 0.433,-4.791 l 0.513,-4.785 c 0.134,-1.595 0.45,-3.182 0.672,-4.772 0.264,-1.59 0.443,-3.175 0.785,-4.768 0.317,-1.597 0.588,-3.153 0.994,-4.823 l 0.076,-0.307 0.15,-0.327 4.182,-9.164 c 0.739,-1.516 1.343,-3.074 1.88,-4.653 l 1.699,-4.715 c 0.595,-1.566 1.137,-3.143 1.497,-4.759 l 1.25,-4.811 c 0.499,-1.599 0.656,-3.227 0.904,-4.848 0.207,-1.621 0.551,-3.248 0.652,-4.867 l 0.096,-4.853 c 0.087,-1.628 -0.329,-3.167 -0.459,-4.761 -0.076,-1.62 -0.674,-3.07 -1.08,-4.586 -0.316,-1.566 -1.183,-2.861 -1.807,-4.279 -0.286,-0.733 -0.786,-1.319 -1.23,-1.948 -0.461,-0.613 -0.862,-1.276 -1.364,-1.856 -1.1,-1.068 -2.098,-2.254 -3.399,-3.104 -0.605,-0.478 -1.223,-0.944 -1.916,-1.295 -0.678,-0.372 -1.318,-0.816 -2.046,-1.09 -1.351,-0.635 -2.707,-1.096 -4.093,-1.404 z"
           inkscape:connector-curvature="0"
           style="fill:#000000" />
      </g>
      <g
         id="g3486">
        <path
           id="path3488"
           d="m 535.545,293.589 c 0,0 21.578,8.014 61.031,2.466 0,0 -19.111,52.401 -85.692,44.388 l 24.661,-46.854 z"
           inkscape:connector-curvature="0"
           style="fill:#ffffff" />
        <path
           id="path3490"
           d="m 537.053,289.177 c 1.19,0.701 2.102,1.085 3.192,1.616 1.1,0.477 2.282,0.928 3.445,1.346 2.322,0.889 4.79,1.426 7.218,2.092 2.454,0.569 4.962,0.932 7.46,1.358 2.495,0.476 5.039,0.494 7.572,0.765 l 3.807,0.295 c 1.27,0.09 2.542,0.031 3.818,0.054 2.548,0.032 5.096,-0.059 7.649,-0.084 1.277,0.018 2.545,-0.127 3.817,-0.229 1.273,-0.099 2.542,-0.215 3.812,-0.365 2.537,-0.285 5.081,-0.523 7.604,-0.879 l 1.517,-0.214 -0.526,1.436 v 0.001 c -0.844,2.096 -1.805,4.045 -2.851,5.982 -1.008,1.95 -2.189,3.799 -3.355,5.658 -1.225,1.813 -2.502,3.601 -3.834,5.343 -1.419,1.671 -2.694,3.475 -4.238,5.041 -1.556,1.548 -2.958,3.265 -4.65,4.677 -1.682,1.416 -3.268,2.967 -5.042,4.277 l -5.375,3.878 -5.745,3.333 c -1.885,1.192 -4.015,1.868 -6.019,2.826 l -3.059,1.338 c -1.043,0.384 -2.118,0.67 -3.176,1.009 -2.129,0.639 -4.248,1.343 -6.399,1.925 l -6.559,1.265 -3.293,0.637 -3.325,0.324 c -2.219,0.196 -4.447,0.468 -6.686,0.723 -2.238,0.258 -4.46,0.071 -6.709,0.202 -2.252,0.087 -4.51,0.119 -6.792,0.262 h -0.003 l -6.891,-0.487 3.323,-6.314 26.89,-51.091 3.403,2 z m 1.152,9.371 -23.196,44.067 -3.568,-6.801 h 0.001 c 2.036,0.441 4.101,0.772 6.17,1.156 2.071,0.329 4.163,0.761 6.25,0.872 2.085,0.084 4.187,0.185 6.293,0.21 l 3.167,0.067 3.13,-0.326 6.277,-0.714 c 2.053,-0.428 4.087,-0.973 6.14,-1.452 1.019,-0.26 2.063,-0.466 3.069,-0.771 l 2.964,-1.092 c 1.947,-0.795 4.037,-1.308 5.886,-2.337 l 5.68,-2.846 5.339,-3.468 c 1.756,-1.193 3.329,-2.632 5.011,-3.939 1.69,-1.302 3.101,-2.913 4.67,-4.358 1.559,-1.461 2.856,-3.166 4.301,-4.74 1.341,-1.66 2.597,-3.396 3.825,-5.143 1.16,-1.792 2.342,-3.576 3.352,-5.459 1.065,-1.845 1.969,-3.814 2.748,-5.731 v -0.002 l 0.988,1.223 c -2.572,0.187 -5.126,0.493 -7.689,0.751 -2.567,0.2 -5.104,0.726 -7.679,0.854 -2.572,0.172 -5.148,0.277 -7.723,0.504 -1.288,0.083 -2.575,0.248 -3.869,0.263 l -3.881,0.077 c -2.59,0.027 -5.189,0.22 -7.79,0.105 l -3.912,-0.092 c -1.307,-0.041 -2.624,0.028 -3.935,-0.072 -2.621,-0.207 -5.268,-0.212 -7.942,-0.47 l -4.058,-0.333 -0.019,-0.003 z"
           inkscape:connector-curvature="0"
           style="fill:#000000" />
      </g>
      <g
         id="g3492">
        <g
           id="g3494">
          <path
             id="path3496"
             d="m 169.451,332.976 c 0,0 42.1,34.57 -16.705,75.29 l -9.667,-38.663 c 0,10e-4 -2.252,16.979 26.372,-36.627 z"
             inkscape:connector-curvature="0"
             style="fill:#ffffff" />
          <path
             id="path3498"
             d="m 170.353,331.901 c 1.546,1.33 2.879,2.733 4.179,4.218 1.284,1.485 2.499,3.029 3.591,4.662 1.113,1.619 2.111,3.318 3.009,5.073 0.871,1.764 1.694,3.565 2.298,5.451 1.278,3.739 1.991,7.7 1.999,11.673 -0.003,1.985 -0.145,3.972 -0.481,5.929 -0.106,0.987 -0.383,1.941 -0.602,2.908 -0.202,0.972 -0.492,1.915 -0.819,2.848 -0.566,1.9 -1.41,3.684 -2.209,5.481 -0.927,1.732 -1.81,3.491 -2.918,5.106 -1.007,1.687 -2.227,3.21 -3.393,4.775 -1.198,1.534 -2.512,2.971 -3.79,4.436 -1.374,1.366 -2.69,2.801 -4.116,4.108 -1.451,1.277 -2.841,2.635 -4.347,3.844 -1.511,1.2 -2.984,2.455 -4.528,3.608 l -4.677,3.4 -0.002,0.004 -0.801,1.211 -1.363,-2.027 c -1.972,-2.93 -3.36,-6.006 -4.59,-9.121 -1.213,-3.12 -2.194,-6.298 -2.979,-9.527 -0.792,-3.225 -1.403,-6.495 -1.81,-9.817 -0.36,-3.333 -0.606,-6.694 -0.287,-10.198 l 2.756,-0.156 -0.002,10e-4 c -0.039,0.345 -0.039,0.841 0.019,1.099 0.019,0.127 0.082,0.192 0,0.089 -0.078,-0.167 -0.475,-0.26 -0.524,-0.232 -0.082,0.039 0.353,-0.173 0.644,-0.419 0.332,-0.277 0.672,-0.592 1.004,-0.947 1.333,-1.406 2.558,-3.08 3.737,-4.753 2.354,-3.378 4.537,-6.918 6.668,-10.488 4.251,-7.15 8.255,-14.472 12.193,-21.822 l 0.828,-1.544 1.313,1.127 z m -0.584,3.383 c -3.667,6.819 -7.372,13.618 -11.34,20.292 -2.15,3.606 -4.356,7.183 -6.777,10.664 -1.228,1.736 -2.471,3.453 -4.012,5.083 -0.382,0.408 -0.807,0.808 -1.276,1.199 -0.539,0.365 -0.967,0.822 -2.098,1.015 -0.573,0.117 -1.499,-0.193 -1.925,-0.748 -0.409,-0.516 -0.513,-0.96 -0.603,-1.34 -0.14,-0.769 -0.121,-1.333 -0.053,-2.023 v -0.006 l -0.503,-5.127 3.26,4.968 c 1.93,2.942 3.294,6.024 4.544,9.134 1.207,3.122 2.205,6.297 3.024,9.516 0.826,3.217 1.456,6.481 1.858,9.805 0.378,3.328 0.6,6.696 0.241,10.209 l -2.164,-0.814 h 0.006 l 4.577,-3.332 c 1.513,-1.127 2.944,-2.351 4.423,-3.522 1.47,-1.18 2.811,-2.497 4.226,-3.737 1.384,-1.27 2.649,-2.655 3.982,-3.975 1.226,-1.408 2.493,-2.792 3.643,-4.261 1.11,-1.496 2.281,-2.954 3.233,-4.551 1.055,-1.534 1.881,-3.192 2.758,-4.822 0.744,-1.687 1.541,-3.359 2.063,-5.125 0.31,-0.867 0.581,-1.744 0.762,-2.645 0.203,-0.894 0.463,-1.777 0.558,-2.69 0.309,-1.807 0.44,-3.636 0.443,-5.462 -0.009,-3.658 -0.661,-7.306 -1.848,-10.78 -0.559,-1.75 -1.327,-3.432 -2.144,-5.084 -0.839,-1.642 -1.775,-3.24 -2.825,-4.764 -1.741,-2.561 -3.823,-4.947 -6.033,-7.077 z"
             inkscape:connector-curvature="0"
             style="fill:#000000" />
        </g>
        <g
           id="g3500">
          <path
             id="path3502"
             d="m 517.473,314.498 c 0,0 -59.803,60.417 -253.996,-12.33 0,0 -112.201,-155.975 -200.977,-44.388 -21.014,26.412 -53.633,91.235 3.7,131.927 3.554,2.523 87.545,31.446 109.122,-57.332 0,0 28.976,36.991 -11.716,71.514 0,0 72.129,-24.044 170.771,-20.961 0,10e-4 147.96,20.962 183.096,-68.43 z"
             inkscape:connector-curvature="0"
             style="fill:#ffffff" />
          <path
             id="path3504"
             d="m 505.382,327.717 c -2.474,1.132 -4.896,2.434 -7.44,3.352 l -8.01,2.982 -8.176,2.313 c -1.366,0.372 -2.723,0.786 -4.094,1.121 l -4.15,0.807 -8.299,1.606 c -2.768,0.508 -5.571,0.683 -8.357,1.04 l -8.364,0.937 c -2.791,0.21 -5.585,0.23 -8.381,0.353 -5.585,0.171 -11.181,0.549 -16.743,0.169 -5.567,-0.25 -11.151,-0.318 -16.699,-0.725 l -16.586,-1.758 c -5.554,-0.437 -10.989,-1.551 -16.463,-2.455 -5.464,-0.96 -10.949,-1.82 -16.39,-2.864 l -16.178,-3.771 -8.086,-1.886 -4.045,-0.948 -3.981,-1.16 -15.921,-4.649 -7.961,-2.326 -3.979,-1.163 -3.914,-1.353 -31.291,-10.887 -1.243,-0.433 -0.864,-1.178 -0.008,-0.012 c -6.419,-8.679 -13.725,-17.149 -21.258,-25.14 -7.566,-8.013 -15.558,-15.622 -23.983,-22.667 -8.424,-7.045 -17.312,-13.514 -26.714,-19.027 -9.396,-5.503 -19.326,-10.058 -29.673,-12.964 -10.331,-2.911 -21.101,-4.095 -31.646,-2.895 -10.55,1.158 -20.75,4.749 -30,10.121 -9.379,5.229 -17.43,12.698 -24.865,20.6 -3.55,4.087 -7.335,8.185 -10.41,12.585 -3.189,4.419 -6.137,9.035 -8.821,13.795 -5.33,9.533 -9.741,19.624 -12.541,30.134 -2.785,10.494 -3.901,21.461 -2.419,32.149 1.5,10.665 5.748,20.913 12.399,29.46 3.345,4.24 7.011,8.284 11.231,11.743 1.992,1.858 4.293,3.364 6.423,5.067 0.182,0.123 -0.134,-0.078 -0.057,-0.037 l 0.116,0.063 0.23,0.123 c 0.171,0.102 0.27,0.126 0.383,0.171 l 0.739,0.29 c 0.614,0.227 1.228,0.457 1.875,0.658 1.268,0.428 2.579,0.805 3.89,1.156 10.536,2.785 21.591,3.91 32.409,3.13 10.797,-0.789 21.493,-3.652 30.578,-9.288 4.543,-2.773 8.804,-6.024 12.438,-9.917 3.666,-3.841 6.987,-8.051 9.62,-12.713 5.384,-9.236 9.042,-19.507 11.178,-30.124 v -0.001 l 2.745,-9.144 5.296,7.405 c 1.237,1.726 2.104,3.184 3,4.812 0.886,1.587 1.672,3.218 2.392,4.873 0.772,1.632 1.313,3.365 1.97,5.042 0.525,1.731 1.03,3.468 1.487,5.214 0.335,1.785 0.712,3.558 0.987,5.347 l 0.456,5.432 -0.173,5.458 c -0.129,1.81 -0.523,3.601 -0.784,5.394 -0.193,1.815 -0.881,3.515 -1.37,5.254 l -0.798,2.593 c -0.279,0.857 -0.729,1.646 -1.085,2.47 -0.771,1.623 -1.491,3.275 -2.318,4.858 l -2.904,4.482 c -0.496,0.735 -0.949,1.506 -1.48,2.209 l -1.715,2.01 -3.436,4.002 c -1.179,1.293 -2.542,2.387 -3.804,3.586 l -3.853,3.511 -0.003,0.001 -2.806,-4.981 c 3.524,-1.176 6.999,-2.118 10.492,-3.145 3.483,-1.061 7.016,-1.832 10.524,-2.761 3.518,-0.871 7.015,-1.852 10.567,-2.55 l 10.622,-2.272 c 3.543,-0.763 7.078,-1.551 10.656,-2.096 l 10.71,-1.82 10.715,-1.792 10.785,-1.286 10.786,-1.285 c 3.598,-0.406 7.185,-0.942 10.808,-1.094 l 21.685,-1.422 c 3.615,-0.197 7.227,-0.593 10.853,-0.516 l 10.868,-0.066 21.748,-0.126 0.129,-0.001 0.31,0.038 c 4.132,0.515 8.489,0.897 12.766,1.179 4.297,0.277 8.605,0.495 12.915,0.593 4.307,0.126 8.623,0.145 12.93,0.083 4.308,-0.054 8.618,-0.182 12.912,-0.438 4.3,-0.207 8.59,-0.562 12.865,-0.982 4.281,-0.4 8.531,-0.979 12.782,-1.558 4.231,-0.694 8.464,-1.37 12.642,-2.272 2.108,-0.39 4.184,-0.886 6.255,-1.396 2.072,-0.509 4.162,-0.96 6.197,-1.581 2.045,-0.596 4.108,-1.138 6.136,-1.773 l 6.049,-1.999 c 3.968,-1.477 7.972,-2.901 11.783,-4.712 3.897,-1.647 7.58,-3.684 11.272,-5.689 l 5.365,-3.274 c 1.757,-1.139 3.415,-2.409 5.126,-3.603 1.75,-1.155 3.285,-2.562 4.893,-3.884 1.612,-1.318 3.206,-2.656 4.633,-4.168 1.436,-1.492 3.026,-2.846 4.346,-4.444 l 4.015,-4.738 c 1.538,-2.171 3.09,-4.34 4.557,-6.562 z m 16.347,-11.546 c -1.89,4.169 -3.522,8.469 -5.936,12.392 -2.109,4.087 -4.867,7.785 -7.534,11.522 l -4.456,5.25 c -1.474,1.762 -3.214,3.267 -4.81,4.907 -1.589,1.661 -3.335,3.134 -5.108,4.579 -1.763,1.451 -3.466,2.986 -5.364,4.245 -1.867,1.303 -3.689,2.682 -5.597,3.915 l -5.817,3.54 c -3.975,2.161 -7.956,4.338 -12.109,6.092 -4.087,1.925 -8.327,3.435 -12.539,4.99 l -6.395,2.081 c -2.145,0.645 -4.316,1.192 -6.468,1.792 -2.151,0.626 -4.336,1.078 -6.509,1.585 -2.172,0.508 -4.351,1 -6.542,1.385 -4.37,0.89 -8.767,1.545 -13.164,2.214 -4.407,0.551 -8.814,1.101 -13.233,1.465 -4.419,0.385 -8.84,0.701 -13.263,0.865 -4.424,0.213 -8.847,0.295 -13.271,0.304 -4.42,0.015 -8.844,-0.055 -13.258,-0.233 -4.42,-0.149 -8.834,-0.423 -13.247,-0.756 -4.433,-0.345 -8.773,-0.767 -13.298,-1.381 l 0.439,0.036 -21.442,-0.106 -10.723,-0.058 c -3.576,-0.118 -7.141,0.237 -10.712,0.39 l -21.425,1.166 c -3.578,0.11 -7.124,0.602 -10.682,0.964 l -10.669,1.15 -10.67,1.151 -10.609,1.617 -10.607,1.632 c -3.549,0.483 -7.05,1.208 -10.556,1.906 l -10.529,2.08 c -3.525,0.632 -6.977,1.547 -10.46,2.35 -3.463,0.862 -6.982,1.57 -10.402,2.557 -3.425,0.949 -6.917,1.839 -10.238,2.893 l -12.253,3.884 9.448,-8.866 0.002,-0.001 3.445,-3.419 c 1.119,-1.158 2.356,-2.223 3.382,-3.451 l 2.962,-3.766 1.484,-1.875 c 0.453,-0.649 0.816,-1.355 1.228,-2.026 l 2.413,-4.062 c 0.661,-1.418 1.213,-2.878 1.83,-4.306 0.28,-0.726 0.656,-1.419 0.859,-2.165 l 0.578,-2.248 c 0.345,-1.503 0.907,-2.961 0.982,-4.51 0.143,-1.533 0.437,-3.047 0.48,-4.582 l -0.041,-4.604 -0.579,-4.58 c -0.302,-1.511 -0.696,-3.009 -1.025,-4.512 -0.464,-1.477 -0.957,-2.946 -1.459,-4.406 -0.636,-1.415 -1.143,-2.883 -1.87,-4.255 -0.68,-1.396 -1.407,-2.76 -2.211,-4.072 -0.765,-1.283 -1.703,-2.663 -2.457,-3.635 l 8.041,-1.738 -0.003,0.001 c -3.117,11.105 -7.453,22.036 -13.907,31.807 -6.286,9.812 -14.9,18.378 -25.176,24.028 -10.23,5.759 -21.8,8.62 -33.263,9.303 -11.507,0.641 -22.993,-0.719 -34.028,-3.816 -1.383,-0.394 -2.756,-0.811 -4.13,-1.298 -0.684,-0.227 -1.378,-0.495 -2.071,-0.766 -0.309,-0.109 -0.801,-0.34 -1.196,-0.519 -0.205,-0.095 -0.433,-0.199 -0.564,-0.279 l -0.227,-0.127 -0.116,-0.064 c -0.002,0.004 -0.389,-0.247 -0.277,-0.18 -2.246,-1.775 -4.648,-3.343 -6.764,-5.291 -4.447,-3.628 -8.369,-7.9 -11.954,-12.415 -7.07,-9.132 -11.876,-20.093 -13.778,-31.543 -1.829,-11.48 -0.919,-23.215 1.697,-34.393 2.622,-11.21 7,-21.897 12.42,-31.958 2.714,-5.034 5.704,-9.918 8.971,-14.631 l 2.54,-3.524 c 0.829,-1.076 1.689,-2.287 2.65,-3.353 l 5.595,-6.523 c 7.758,-8.399 16.254,-16.432 26.418,-22.244 10.007,-5.943 21.282,-10.046 32.964,-11.429 11.681,-1.434 23.558,-0.211 34.754,2.838 11.224,3.047 21.829,7.819 31.773,13.523 9.949,5.718 19.27,12.383 28.067,19.606 8.794,7.236 17.042,15.07 24.872,23.28 7.833,8.259 15.217,16.716 22.143,25.996 l 0.011,0.014 -2.106,-1.611 30.914,10.756 3.867,1.338 3.924,1.145 7.845,2.289 15.689,4.582 3.925,1.147 3.969,0.93 7.949,1.852 15.892,3.709 c 5.334,1.021 10.702,1.86 16.05,2.803 5.354,0.883 10.687,1.983 16.09,2.4 l 16.166,1.717 c 5.391,0.395 10.795,0.454 16.193,0.701 5.407,0.377 10.782,-0.002 16.165,-0.162 2.687,-0.118 5.389,-0.134 8.069,-0.335 l 7.996,-0.901 c 2.657,-0.341 5.351,-0.502 7.978,-0.987 l 7.865,-1.526 3.937,-0.758 c 1.291,-0.317 2.561,-0.708 3.842,-1.057 l 7.669,-2.164 7.42,-2.764 c 2.491,-0.89 4.766,-2.173 7.164,-3.232 2.378,-1.098 4.537,-2.513 6.782,-3.782 l 3.132,-2.147 c 0.505,-0.358 0.894,-0.711 1.353,-1.061 0.423,-0.32 0.891,-0.704 1.417,-1.21 l 17.134,-16.486 -9.747,21.485 z"
             inkscape:connector-curvature="0"
             style="fill:#000000" />
        </g>
      </g>
      <g
         id="g3506">
        <g
           id="g3508">
          <path
             id="path3510"
             d="m 250.138,283.865 c 0,0 -5.551,-152.891 168.305,-156.591 0,0 118.98,1.847 125.145,107.885 l 3.702,62.265 c 0.001,0 -102.958,151.045 -297.152,-13.559 z"
             inkscape:connector-curvature="0"
             style="fill:#ffffff" />
          <path
             id="path3512"
             d="m 248.733,283.903 c -0.285,-10.67 0.749,-21.217 2.643,-31.652 1.902,-10.425 4.672,-20.715 8.429,-30.67 7.563,-19.878 19.334,-38.307 34.74,-53.224 7.591,-7.582 16.39,-13.857 25.54,-19.384 9.123,-5.657 19.068,-9.74 29.054,-13.481 l 7.634,-2.408 3.821,-1.192 3.884,-0.941 7.769,-1.879 c 2.591,-0.615 5.234,-0.957 7.849,-1.45 2.621,-0.441 5.239,-0.944 7.869,-1.335 l 7.92,-0.879 c 2.641,-0.256 5.276,-0.666 7.926,-0.796 l 7.95,-0.379 3.972,-0.184 1.991,-0.092 0.495,-0.023 0.396,-0.004 0.246,0.006 1.057,0.043 c 2.711,0.137 5.375,0.365 8.035,0.661 5.318,0.583 10.593,1.414 15.828,2.462 10.467,2.073 20.753,5.121 30.694,9.092 9.902,4.061 19.443,9.132 28.193,15.422 8.751,6.28 16.517,13.984 22.905,22.686 6.389,8.703 11.297,18.46 14.604,28.675 3.302,10.223 5.142,20.853 5.707,31.497 0.964,20.962 1.99,41.898 2.808,62.858 v 0.006 l 0.03,0.499 -0.272,0.376 c -4.227,5.851 -8.951,11.093 -13.966,16.128 -5.031,5.003 -10.381,9.668 -15.958,14.051 -5.672,4.241 -11.442,8.394 -17.62,11.894 -6.076,3.66 -12.483,6.739 -18.98,9.588 -3.279,1.352 -6.623,2.544 -9.935,3.822 l -10.183,3.096 c -3.458,0.797 -6.902,1.655 -10.371,2.399 l -10.507,1.692 -10.602,0.94 c -3.54,0.167 -7.091,0.142 -10.634,0.222 -3.549,0.106 -7.082,-0.324 -10.623,-0.461 -3.548,-0.101 -7.057,-0.623 -10.569,-1.092 -7.063,-0.719 -13.955,-2.426 -20.884,-3.857 -6.799,-1.963 -13.699,-3.618 -20.299,-6.189 -3.312,-1.237 -6.715,-2.251 -9.949,-3.671 l -9.742,-4.193 c -3.288,-1.317 -6.42,-2.952 -9.569,-4.553 l -9.459,-4.782 c -6.124,-3.511 -12.266,-7.006 -18.289,-10.682 -5.87,-3.922 -11.873,-7.649 -17.627,-11.731 -5.663,-4.204 -11.437,-8.267 -17.009,-12.588 l -16.923,-13.699 -0.019,-0.644 z m 2.833,-0.688 15.831,12.815 c 5.54,4.296 11.274,8.331 16.902,12.508 5.716,4.055 11.671,7.752 17.497,11.645 5.976,3.648 12.066,7.112 18.139,10.594 l 9.368,4.736 c 3.119,1.587 6.225,3.206 9.475,4.508 l 9.636,4.148 c 3.203,1.406 6.562,2.405 9.835,3.628 6.523,2.544 13.331,4.171 20.039,6.114 6.834,1.405 13.63,3.094 20.58,3.797 3.458,0.465 6.911,0.979 10.401,1.076 3.483,0.133 6.961,0.561 10.447,0.454 3.485,-0.08 6.974,-0.054 10.453,-0.215 l 10.414,-0.924 10.317,-1.662 c 3.406,-0.731 6.788,-1.574 10.183,-2.354 l 10,-3.039 c 3.247,-1.258 6.533,-2.426 9.752,-3.754 6.38,-2.799 12.674,-5.821 18.649,-9.42 6.07,-3.439 11.741,-7.524 17.325,-11.694 5.484,-4.31 10.747,-8.901 15.689,-13.817 4.909,-4.918 9.621,-10.171 13.632,-15.725 l -0.24,0.875 V 297.5 l -4.696,-62.734 c -0.784,-10.279 -2.688,-20.446 -6.006,-30.117 -3.31,-9.668 -8.101,-18.789 -14.254,-26.885 -6.15,-8.102 -13.605,-15.175 -21.89,-21.116 -8.318,-5.91 -17.439,-10.698 -26.95,-14.537 -9.551,-3.753 -19.473,-6.638 -29.584,-8.582 -5.051,-0.981 -10.147,-1.756 -15.258,-2.286 -2.55,-0.27 -5.113,-0.473 -7.637,-0.586 l -0.906,-0.034 -0.245,-0.005 c 0.026,0 -0.232,-0.004 0.026,0 l -0.126,0.005 -0.483,0.026 -1.939,0.101 -3.879,0.202 -7.757,0.392 c -2.59,0.109 -5.148,0.496 -7.722,0.73 l -7.716,0.808 c -2.557,0.367 -5.093,0.84 -7.643,1.255 -2.537,0.461 -5.109,0.776 -7.622,1.358 l -7.526,1.776 -3.766,0.887 -3.691,1.129 -7.38,2.278 c -9.632,3.555 -19.221,7.413 -27.982,12.785 -2.274,1.2 -4.4,2.627 -6.522,4.07 -2.093,1.471 -4.34,2.741 -6.303,4.392 l -6.089,4.7 -5.74,5.118 c -14.989,14.014 -26.657,31.527 -34.347,50.702 -3.928,9.557 -6.922,19.515 -9.077,29.66 -1.068,5.074 -1.942,10.195 -2.538,15.351 -0.598,4.939 -1.029,9.94 -1.076,14.872 z"
             inkscape:connector-curvature="0"
             style="fill:#000000" />
        </g>
        <g
           id="g3514">
          <path
             id="path3516"
             d="m 250.561,302.003 c 0,0 70.896,63.5 91.239,57.334 0,0 10.48,-54.872 43.77,-49.32 0,0 22.197,4.93 12.332,49.32 0,0 14.181,12.945 83.843,-4.316 0,0 1.852,-28.358 19.726,-32.061 0,0 20.961,-1.849 19.73,20.964 0,0 14.179,-8.013 26.508,-35.142 0,0 14.794,-25.894 -6.164,-22.813 0,0 -5.551,24.047 -15.412,28.363 0,0 -33.292,-27.742 -56.717,19.725 l -48.707,1.235 c 0,0 15.428,-33.514 -23.425,-51.785 -17.151,-8.069 -40.071,-14.178 -67.197,35.137 0,0 -5.548,8.019 -77.679,-43.77 0,10e-4 -12.946,5.551 -1.847,27.129 z"
             inkscape:connector-curvature="0"
             style="fill:#ffffff" />
          <path
             id="path3518"
             d="m 251.696,301.12 c 13.783,11.769 28.035,23.07 42.815,33.493 7.44,5.206 15.037,10.2 22.912,14.523 1.966,1.082 3.957,2.092 5.961,3.06 2.01,0.936 4.031,1.823 6.072,2.574 2.042,0.753 4.088,1.338 6.094,1.732 1.976,0.306 3.924,0.363 5.372,-0.052 h 10e-4 l -2.088,2.321 c 0.579,-2.8 1.267,-5.382 2.036,-8.025 0.771,-2.622 1.63,-5.218 2.575,-7.787 1.9,-5.132 4.155,-10.167 6.964,-14.956 2.803,-4.784 6.193,-9.347 10.479,-13.188 2.159,-1.903 4.574,-3.565 7.18,-4.928 2.635,-1.329 5.497,-2.219 8.419,-2.73 2.941,-0.397 5.921,-0.428 8.805,0.019 l 0.545,0.066 0.136,0.017 0.033,0.004 0.27,0.055 0.06,0.016 0.269,0.079 c 0.445,0.142 0.927,0.298 1.264,0.457 0.756,0.3 1.438,0.676 2.126,1.055 1.348,0.782 2.565,1.718 3.695,2.743 2.189,2.099 4.015,4.529 5.312,7.168 0.749,1.281 1.141,2.68 1.717,4.019 0.49,1.36 0.779,2.761 1.168,4.141 0.546,2.783 1.02,5.589 1.071,8.373 0.249,2.8 0.029,5.552 -0.064,8.317 -0.17,2.75 -0.606,5.455 -0.899,8.182 l -1.542,8.028 -0.003,0.011 -0.789,-2.5 c 0.192,0.17 1.02,0.565 1.662,0.884 0.621,0.38 1.416,0.611 2.211,0.843 1.574,0.467 3.09,1.071 4.822,1.243 l 5.051,0.824 c 1.707,0.194 3.462,0.18 5.192,0.283 l 5.214,0.23 c 1.742,0.054 3.499,-0.148 5.249,-0.207 l 5.262,-0.283 c 1.752,-0.114 3.511,-0.142 5.264,-0.325 l 10.494,-1.412 5.257,-0.706 c 1.756,-0.194 3.496,-0.508 5.225,-0.892 l 20.841,-4.229 -1.064,1.27 0,0 c 0.282,-3.489 0.891,-6.811 1.723,-10.15 0.408,-1.664 0.938,-3.302 1.479,-4.937 0.615,-1.611 1.227,-3.225 2.022,-4.778 0.349,-0.795 0.782,-1.553 1.237,-2.302 0.458,-0.748 0.851,-1.531 1.411,-2.22 0.533,-0.705 1.035,-1.434 1.599,-2.116 l 1.856,-1.933 c 0.616,-0.646 1.399,-1.132 2.095,-1.702 0.682,-0.596 1.486,-1.022 2.301,-1.433 0.815,-0.403 1.583,-0.917 2.477,-1.125 l 2.611,-0.804 0.063,-0.019 0.119,-0.008 c 1.594,-0.095 3.006,-0.028 4.489,0.171 1.467,0.173 2.916,0.521 4.341,0.962 1.424,0.473 2.801,1.096 4.111,1.872 0.658,0.378 1.248,0.881 1.87,1.321 0.636,0.427 1.115,1.048 1.679,1.569 0.578,0.515 1,1.162 1.444,1.785 0.459,0.62 0.905,1.244 1.2,1.948 0.323,0.687 0.691,1.363 0.968,2.065 l 0.646,2.16 c 0.466,1.437 0.498,2.92 0.752,4.381 0.063,1.459 0.043,2.915 0.063,4.373 v 0.009 l -2.534,-1.571 c 0.638,-0.367 1.396,-0.969 2.099,-1.449 l 2.062,-1.707 c 1.375,-1.142 2.608,-2.49 3.921,-3.72 1.22,-1.339 2.391,-2.728 3.592,-4.089 1.194,-1.369 2.192,-2.909 3.3,-4.354 l 1.623,-2.201 1.446,-2.327 2.879,-4.671 c 0.51,-0.758 0.861,-1.616 1.295,-2.421 l 1.244,-2.452 2.494,-4.903 0.059,-0.118 0.004,-0.008 c 1.243,-2.234 2.362,-4.668 3.25,-7.095 0.886,-2.434 1.571,-4.96 1.664,-7.39 0.041,-1.205 -0.091,-2.382 -0.493,-3.353 -0.203,-0.484 -0.456,-0.928 -0.804,-1.283 -0.322,-0.377 -0.724,-0.691 -1.2,-0.922 -0.443,-0.27 -0.992,-0.422 -1.539,-0.57 -0.562,-0.124 -1.141,-0.219 -1.754,-0.238 -1.206,-0.089 -2.477,0.035 -3.737,0.186 l -0.02,10e-4 1.163,-1.072 c -1.357,5.47 -3.103,10.75 -5.419,15.895 -0.575,1.285 -1.208,2.55 -1.898,3.794 -0.316,0.632 -0.718,1.23 -1.087,1.841 -0.367,0.613 -0.744,1.22 -1.19,1.796 -0.445,0.575 -0.814,1.19 -1.324,1.729 -0.499,0.545 -0.972,1.105 -1.497,1.631 l -1.74,1.461 -2.039,1.172 -0.024,0.013 -0.663,0.387 -0.799,-0.594 c -1.065,-0.796 -2.304,-1.587 -3.526,-2.284 -1.234,-0.707 -2.501,-1.344 -3.795,-1.931 -1.266,-0.647 -2.633,-1.038 -3.942,-1.573 -1.357,-0.365 -2.71,-0.782 -4.082,-1.061 -1.387,-0.154 -2.765,-0.5 -4.158,-0.513 -1.387,0.046 -2.79,-0.145 -4.16,0.079 -1.361,0.245 -2.768,0.273 -4.098,0.654 l -3.968,1.254 -3.722,1.922 c -1.267,0.596 -2.284,1.631 -3.44,2.421 l -1.693,1.269 c -0.548,0.441 -1.004,1.005 -1.511,1.5 l -2.973,3.068 c -0.957,1.057 -1.726,2.291 -2.6,3.428 -0.829,1.173 -1.734,2.289 -2.534,3.489 l -4.347,7.529 -0.008,0.015 -0.41,0.753 -0.812,0.03 c -16.227,0.587 -32.457,1.001 -48.694,1.233 l -0.01,10e-4 -1.986,0.226 0.675,-2.219 c 0.839,-2.768 1.374,-5.81 1.634,-8.74 0.316,-2.956 0.163,-5.909 -0.146,-8.784 -0.143,-1.441 -0.545,-2.838 -0.792,-4.245 l -1.308,-4.07 -1.82,-3.836 c -0.782,-1.187 -1.574,-2.356 -2.312,-3.556 -1.796,-2.201 -3.598,-4.392 -5.867,-6.188 l -1.602,-1.429 -1.787,-1.246 c -1.201,-0.819 -2.371,-1.675 -3.588,-2.471 -2.648,-1.331 -5.115,-2.838 -7.889,-4.051 -2.836,-1.313 -5.401,-2.247 -8.215,-3.092 -2.76,-0.685 -5.541,-1.301 -8.305,-1.255 -2.768,-0.131 -5.498,0.34 -8.169,1.049 -1.348,0.298 -2.608,0.977 -3.924,1.432 -1.306,0.499 -2.497,1.332 -3.758,1.972 -1.285,0.598 -2.369,1.633 -3.57,2.422 -1.206,0.791 -2.308,1.757 -3.386,2.768 -2.258,1.871 -4.24,4.115 -6.259,6.318 -1.99,2.227 -3.753,4.704 -5.63,7.059 l -5.082,7.579 -4.753,7.857 -0.161,0.264 -0.013,0.018 c -0.928,1.107 -1.051,0.922 -1.487,1.229 -0.458,0.239 -0.582,0.224 -0.867,0.317 l -0.761,0.177 c -0.215,0.027 -0.378,0.029 -0.566,0.041 l -1.104,0.027 -0.9,-0.099 c -1.267,-0.104 -2.182,-0.443 -3.269,-0.676 l -2.901,-0.968 -2.743,-1.122 c -3.609,-1.539 -7.001,-3.322 -10.366,-5.14 -3.312,-1.888 -6.638,-3.749 -9.842,-5.768 -3.25,-1.961 -6.433,-4.006 -9.592,-6.08 -3.173,-2.061 -6.256,-4.239 -9.363,-6.383 -3.119,-2.128 -6.176,-4.337 -9.23,-6.543 -6.166,-4.343 -12.144,-8.933 -18.153,-13.474 l 1.374,0.15 0,0 c -0.352,0.175 -0.878,0.499 -1.287,0.829 -0.422,0.343 -0.852,0.698 -1.21,1.123 -0.386,0.397 -0.707,0.85 -1.02,1.31 -0.333,0.446 -0.538,0.975 -0.819,1.454 l -0.591,1.581 -0.376,1.667 -0.154,1.725 c -0.066,0.573 0.023,1.168 0.026,1.752 -0.03,1.171 0.306,2.349 0.442,3.525 l 0.461,1.746 c 0.173,0.578 0.27,1.173 0.505,1.739 l 0.636,1.71 c 0.227,0.568 0.387,1.154 0.672,1.702 l 1.445,3.087 z m -2.285,1.736 -1.745,-3.718 c -0.296,-0.574 -0.475,-1.208 -0.715,-1.81 l -0.678,-1.829 c -0.247,-0.601 -0.362,-1.259 -0.549,-1.886 l -0.5,-1.906 c -0.166,-1.321 -0.516,-2.603 -0.498,-3.963 -0.006,-0.673 -0.094,-1.339 -0.027,-2.02 l 0.189,-2.035 0.456,-2.018 c 0.224,-0.657 0.469,-1.312 0.729,-1.957 0.343,-0.612 0.618,-1.262 1.028,-1.834 0.396,-0.582 0.807,-1.155 1.3,-1.663 0.459,-0.535 1.001,-0.997 1.556,-1.441 0.578,-0.448 1.113,-0.814 1.898,-1.19 l 0,0 0.658,-0.318 0.716,0.468 c 6.292,4.109 12.495,8.341 18.802,12.403 3.143,2.048 6.283,4.1 9.475,6.062 3.179,1.98 6.339,3.995 9.566,5.88 3.186,1.96 6.386,3.891 9.632,5.719 3.214,1.9 6.505,3.616 9.777,5.357 3.3,1.664 6.621,3.284 9.97,4.596 l 2.507,0.945 2.471,0.746 c 0.756,0.128 1.637,0.408 2.258,0.406 l 0.5,0.054 0.307,-0.027 h 0.134 c -0.029,-0.01 -0.053,-0.008 -0.076,10e-4 -0.064,0.024 0.056,-10e-4 -0.203,0.097 -0.24,0.187 -0.13,-0.08 -0.905,0.841 l -0.176,0.281 4.692,-8.287 c 1.679,-2.706 3.498,-5.341 5.244,-8.013 1.975,-2.542 3.818,-5.172 5.956,-7.611 2.168,-2.421 4.303,-4.87 6.825,-7.022 1.193,-1.133 2.424,-2.228 3.814,-3.177 1.39,-0.943 2.604,-2.088 4.137,-2.856 1.5,-0.799 2.897,-1.76 4.491,-2.407 1.613,-0.602 3.146,-1.401 4.833,-1.814 3.33,-0.936 6.818,-1.54 10.284,-1.426 3.486,-0.063 6.866,0.634 10.144,1.427 3.17,0.895 6.475,2.104 9.308,3.393 2.963,1.237 5.804,3.055 8.7,4.569 1.38,0.919 2.72,1.918 4.08,2.879 l 2.021,1.469 1.83,1.745 c 2.541,2.211 4.636,4.916 6.641,7.65 0.874,1.469 1.69,2.97 2.518,4.451 l 1.868,4.755 c 0.425,1.644 0.846,3.292 1.168,4.943 0.152,1.682 0.442,3.347 0.452,5.016 0.084,3.342 -0.246,6.658 -0.957,9.857 -0.756,3.213 -1.762,6.256 -3.326,9.242 l -1.314,-1.991 h 0.01 c 16.228,-0.59 32.458,-0.998 48.694,-1.234 l -1.223,0.784 0.009,-0.017 4.285,-7.91 c 0.792,-1.276 1.72,-2.481 2.588,-3.715 0.908,-1.206 1.703,-2.498 2.71,-3.635 l 3.149,-3.315 c 0.543,-0.539 1.022,-1.135 1.613,-1.624 l 1.83,-1.408 c 1.257,-0.883 2.355,-1.994 3.754,-2.684 l 4.12,-2.17 c 1.467,-0.518 2.964,-0.974 4.447,-1.456 1.497,-0.43 3.077,-0.516 4.616,-0.769 1.55,-0.218 3.116,-0.004 4.669,-0.017 1.554,0.045 3.069,0.433 4.602,0.64 1.506,0.328 2.974,0.801 4.45,1.228 1.414,0.596 2.89,1.054 4.243,1.767 l 2.055,1.022 1.965,1.183 c 1.299,0.824 2.522,1.672 3.774,2.698 l -1.463,-0.209 0.017,-0.009 1.543,-0.889 1.424,-1.201 c 0.447,-0.447 0.859,-0.947 1.294,-1.413 0.445,-0.461 0.787,-1.038 1.188,-1.552 0.4,-0.514 0.748,-1.076 1.091,-1.647 0.34,-0.57 0.714,-1.115 1.012,-1.718 0.646,-1.17 1.247,-2.369 1.797,-3.6 2.218,-4.903 3.948,-10.138 5.239,-15.362 l 0.242,-0.97 0.924,-0.104 0.023,-0.002 c 1.404,-0.18 2.827,-0.333 4.307,-0.241 0.736,0.022 1.484,0.127 2.241,0.293 0.749,0.192 1.517,0.405 2.236,0.816 0.726,0.357 1.429,0.881 1.985,1.513 0.588,0.61 1.025,1.354 1.344,2.103 0.639,1.519 0.784,3.084 0.751,4.558 -0.102,2.963 -0.852,5.7 -1.776,8.322 -0.951,2.632 -2.063,5.116 -3.415,7.599 l 0.063,-0.127 -2.512,5.044 -1.257,2.522 c -0.44,0.829 -0.792,1.705 -1.311,2.492 l -2.926,4.832 -1.471,2.411 -1.663,2.293 c -1.134,1.509 -2.158,3.103 -3.39,4.542 -1.243,1.432 -2.453,2.889 -3.724,4.3 -1.377,1.32 -2.654,2.731 -4.121,3.973 l -2.215,1.855 c -0.825,0.576 -1.508,1.154 -2.472,1.725 l -2.495,1.476 -0.039,-3.048 v -0.008 c -0.014,-1.311 0.019,-2.629 -0.023,-3.936 -0.229,-1.26 -0.225,-2.598 -0.625,-3.801 l -0.525,-1.83 c -0.224,-0.584 -0.529,-1.13 -0.784,-1.699 -0.23,-0.591 -0.595,-1.089 -0.96,-1.588 -0.358,-0.505 -0.678,-1.038 -1.145,-1.446 -0.456,-0.415 -0.818,-0.934 -1.343,-1.276 -0.508,-0.355 -0.969,-0.774 -1.51,-1.088 -1.072,-0.645 -2.219,-1.176 -3.426,-1.59 -1.218,-0.382 -2.468,-0.701 -3.754,-0.862 -1.257,-0.191 -2.634,-0.248 -3.801,-0.191 l 0.179,-0.026 -2.189,0.664 c -0.758,0.152 -1.396,0.6 -2.085,0.929 -0.685,0.337 -1.373,0.679 -1.956,1.194 -0.595,0.489 -1.268,0.877 -1.809,1.442 l -1.636,1.675 c -0.502,0.601 -0.957,1.254 -1.438,1.878 -0.508,0.605 -0.869,1.328 -1.293,2.003 -0.422,0.677 -0.828,1.366 -1.157,2.105 -0.745,1.425 -1.331,2.936 -1.925,4.445 -0.522,1.542 -1.035,3.084 -1.437,4.671 -0.818,3.145 -1.436,6.427 -1.719,9.61 v 0.001 l -0.064,1.039 -0.998,0.232 -20.874,4.857 c -1.733,0.435 -3.482,0.801 -5.257,1.05 l -5.305,0.866 -10.613,1.735 c -1.779,0.236 -3.583,0.32 -5.375,0.487 l -5.39,0.441 c -1.797,0.114 -3.583,0.368 -5.399,0.366 l -5.455,-0.083 c -1.82,-0.057 -3.635,0.004 -5.465,-0.152 l -5.504,-0.736 c -1.835,-0.137 -3.681,-0.763 -5.527,-1.268 -0.921,-0.251 -1.843,-0.495 -2.783,-0.993 -0.949,-0.475 -1.8,-0.724 -2.999,-1.685 l -1.071,-0.862 0.282,-1.639 0.003,-0.01 1.429,-7.694 c 0.253,-2.574 0.658,-5.151 0.798,-7.721 0.067,-2.566 0.262,-5.147 0.013,-7.67 -0.056,-2.553 -0.512,-5.026 -0.992,-7.464 -0.353,-1.178 -0.601,-2.406 -1.022,-3.545 -0.499,-1.099 -0.822,-2.306 -1.443,-3.32 -1.065,-2.153 -2.527,-4.013 -4.18,-5.6 -0.854,-0.762 -1.757,-1.45 -2.723,-2.001 -0.486,-0.26 -0.968,-0.53 -1.457,-0.714 -0.267,-0.125 -0.428,-0.158 -0.611,-0.232 -0.03,-0.016 -0.143,-0.041 -0.215,-0.062 l -0.06,-0.015 c -0.061,-0.015 0.428,0.091 0.209,0.044 l -0.027,-0.002 -0.113,-0.012 -0.449,-0.047 c -2.398,-0.36 -4.792,-0.3 -7.137,0.017 -2.322,0.435 -4.594,1.143 -6.722,2.232 -2.109,1.131 -4.111,2.509 -5.946,4.148 -3.651,3.31 -6.699,7.411 -9.248,11.839 -2.561,4.428 -4.662,9.18 -6.432,14.058 -0.882,2.441 -1.683,4.918 -2.402,7.416 -0.709,2.481 -1.368,5.064 -1.856,7.489 l -0.392,1.96 -1.699,0.363 h -0.004 c -3.01,0.772 -5.705,0.449 -8.216,0.005 -2.464,-0.552 -4.793,-1.31 -7.012,-2.204 -2.225,-0.894 -4.359,-1.907 -6.459,-2.961 -2.082,-1.081 -4.133,-2.201 -6.136,-3.381 -8.013,-4.713 -15.558,-10.005 -22.926,-15.493 -14.703,-11.031 -28.712,-22.828 -42.295,-35.143 l -0.217,-0.189 z"
             inkscape:connector-curvature="0"
             style="fill:#000000" />
        </g>
      </g>
      <path
         id="path3520"
         d="m 164.194,302.31 c -1.684,15.573 -13.337,27.086 -26.032,25.711 -12.692,-1.371 -21.619,-15.108 -19.936,-30.68 1.684,-15.569 13.336,-27.082 26.032,-25.707 12.695,1.369 21.62,15.108 19.936,30.676 z"
         inkscape:connector-curvature="0"
         style="fill:#ffffff" />
      <path
         id="path3522"
         d="m 158.166,312.471 c 0,5.617 -4.553,10.169 -10.172,10.169 -5.619,0 -10.172,-4.552 -10.172,-10.169 0,-5.622 4.553,-10.174 10.172,-10.174 5.619,0 10.172,4.552 10.172,10.174 z"
         inkscape:connector-curvature="0"
         style="fill:#231f20" />
      <g
         id="g3524">
        <path
           id="path3526"
           d="m 391.201,299.113 c 0,0 42.535,6.168 8.628,77.064 0,0 -8.628,36.371 0.619,81.993 0,0 -35.142,30.823 -99.876,11.714 0,0 -8.013,-26.507 34.527,-40.071 0,0 -11.716,-67.199 19.725,-106.039 10e-4,-10e-4 12.331,-23.429 36.377,-24.661 z"
           inkscape:connector-curvature="0"
           style="fill:#ffffff" />
        <path
           id="path3528"
           d="m 391.591,296.894 c 2.046,0.375 4.03,1.022 5.858,1.838 0.951,0.353 1.809,0.896 2.703,1.372 0.912,0.451 1.739,1.037 2.553,1.648 1.72,1.103 3.106,2.613 4.573,4.025 0.676,0.756 1.243,1.609 1.865,2.413 0.603,0.821 1.264,1.609 1.672,2.542 0.879,1.814 2.003,3.557 2.469,5.512 0.57,1.917 1.336,3.814 1.491,5.79 0.214,1.956 0.732,3.927 0.681,5.879 l -0.003,5.867 c -0.087,1.943 -0.442,3.841 -0.649,5.765 -0.256,1.915 -0.422,3.859 -0.95,5.695 l -1.338,5.591 c -0.233,0.928 -0.422,1.875 -0.696,2.786 l -0.912,2.703 -1.83,5.408 c -0.586,1.815 -1.207,3.614 -1.991,5.334 l -4.413,10.475 0.224,-0.632 c -0.329,1.544 -0.575,3.242 -0.854,4.884 -0.305,1.642 -0.443,3.34 -0.672,5.006 -0.182,1.678 -0.465,3.337 -0.558,5.031 l -0.39,5.056 c -0.12,1.687 -0.303,3.366 -0.307,5.061 l -0.13,5.072 -0.127,5.068 0.175,5.071 0.199,5.066 c 0.099,1.685 0.054,3.378 0.287,5.054 l 1.064,10.069 c 0.214,1.672 0.266,3.365 0.631,5.015 l 0.908,4.973 1.807,9.931 0.479,2.653 -1.945,1.692 -0.004,0.002 c -2.133,1.667 -3.96,2.829 -5.996,4.024 -1.982,1.193 -4.02,2.234 -6.072,3.23 -2.066,0.958 -4.128,1.928 -6.259,2.701 l -3.17,1.22 -3.227,1.03 c -2.136,0.735 -4.317,1.293 -6.508,1.807 l -3.275,0.804 -3.313,0.581 c -2.214,0.36 -4.404,0.839 -6.639,0.99 -2.223,0.212 -4.443,0.468 -6.665,0.634 l -6.675,0.162 c -2.222,0.127 -4.441,-0.093 -6.654,-0.184 -2.214,-0.159 -4.434,-0.134 -6.626,-0.447 l -6.572,-0.853 c -2.201,-0.219 -4.357,-0.686 -6.512,-1.148 l -6.459,-1.346 c -2.141,-0.483 -4.231,-1.18 -6.349,-1.761 l -6.315,-1.822 -0.771,-0.222 -0.176,-0.719 -0.003,-0.007 c -0.37,-1.381 -0.556,-2.6 -0.648,-3.902 -0.106,-1.284 -0.11,-2.574 -0.01,-3.852 0.077,-1.285 0.243,-2.557 0.535,-3.811 0.186,-1.278 0.663,-2.477 1.031,-3.709 0.372,-1.231 1.011,-2.356 1.511,-3.539 0.542,-1.165 1.3,-2.204 1.945,-3.31 0.631,-1.128 1.543,-2.028 2.305,-3.053 0.759,-1.036 1.67,-1.921 2.59,-2.794 0.938,-0.849 1.762,-1.855 2.8,-2.569 l 3,-2.309 c 0.975,-0.82 2.109,-1.355 3.16,-2.045 1.074,-0.645 2.131,-1.333 3.225,-1.94 l 3.365,-1.633 c 1.134,-0.52 2.232,-1.137 3.39,-1.582 l 6.965,-2.652 -1.596,2.631 v -0.008 c -0.712,-4.718 -1.157,-9.31 -1.459,-13.98 -0.323,-4.649 -0.478,-9.31 -0.463,-13.969 -0.041,-2.329 0.027,-4.659 0.12,-6.987 0.06,-2.33 0.154,-4.659 0.35,-6.982 0.199,-2.324 0.253,-4.657 0.566,-6.973 l 0.831,-6.952 1.21,-6.905 c 0.343,-2.314 0.981,-4.573 1.524,-6.85 0.568,-2.272 1.054,-4.563 1.853,-6.775 l 2.206,-6.686 2.766,-6.491 c 0.821,-2.211 2.091,-4.218 3.187,-6.306 1.147,-2.061 2.172,-4.195 3.638,-6.072 l 4.097,-5.801 -0.222,0.337 c 1.024,-1.848 2.071,-3.456 3.25,-5.068 1.151,-1.609 2.398,-3.141 3.702,-4.629 0.641,-0.751 1.35,-1.445 2.022,-2.169 0.663,-0.736 1.431,-1.376 2.142,-2.065 1.451,-1.351 2.996,-2.618 4.616,-3.779 1.6,-1.197 3.31,-2.237 5.061,-3.22 0.851,-0.529 1.803,-0.883 2.703,-1.331 0.907,-0.436 1.817,-0.862 2.783,-1.162 l 2.857,-0.995 2.954,-0.687 c 1.956,-0.539 3.998,-0.553 5.997,-0.842 l 0.19,-0.028 0.317,0.055 z m -0.56,4.497 c -1.682,0.22 -3.4,0.228 -5.043,0.679 l -2.63,0.584 -2.551,0.871 c -0.867,0.254 -1.683,0.633 -2.502,1.02 -0.808,0.399 -1.663,0.696 -2.437,1.173 -1.584,0.877 -3.146,1.803 -4.613,2.884 -1.487,1.048 -2.916,2.196 -4.261,3.433 -0.663,0.633 -1.377,1.21 -1.995,1.891 -0.631,0.668 -1.294,1.302 -1.898,1.998 -1.221,1.373 -2.397,2.791 -3.479,4.277 -1.09,1.454 -2.13,3.054 -2.971,4.533 l -0.074,0.133 -0.149,0.204 -3.924,5.47 c -1.407,1.76 -2.397,3.795 -3.508,5.752 -1.061,1.986 -2.298,3.881 -3.097,6.004 l -2.654,6.238 -2.109,6.458 c -0.769,2.133 -1.231,4.362 -1.776,6.564 -0.519,2.211 -1.138,4.397 -1.466,6.654 l -1.16,6.723 -0.795,6.788 c -0.299,2.259 -0.346,4.545 -0.532,6.817 -0.194,2.272 -0.227,4.555 -0.26,6.837 -0.056,2.28 -0.09,4.56 -0.014,6.843 0.059,4.562 0.277,9.127 0.661,13.672 0.357,4.529 0.881,9.119 1.61,13.51 l 0.003,0.007 0.284,1.984 -1.88,0.647 -6.716,2.314 c -1.12,0.388 -2.161,0.934 -3.247,1.393 l -3.233,1.437 c -1.042,0.535 -2.04,1.145 -3.067,1.715 -0.991,0.612 -2.093,1.082 -3.001,1.807 l -2.836,2.04 c -0.997,0.628 -1.742,1.517 -2.628,2.264 -0.869,0.768 -1.73,1.546 -2.432,2.455 -0.708,0.899 -1.583,1.69 -2.163,2.675 -0.601,0.972 -1.323,1.88 -1.835,2.901 -0.466,1.036 -1.085,2.02 -1.446,3.101 -0.35,1.082 -0.826,2.136 -1.021,3.262 -0.296,1.107 -0.479,2.231 -0.586,3.369 -0.124,1.132 -0.159,2.284 -0.1,3.415 0.029,1.12 0.199,2.312 0.419,3.283 v 0.004 l -0.947,-0.941 6.305,1.409 c 2.106,0.441 4.185,1.002 6.305,1.344 l 6.369,0.928 c 2.121,0.321 4.234,0.648 6.376,0.727 l 6.39,0.438 c 2.128,0.177 4.264,0.017 6.389,0.041 2.129,-0.042 4.257,0.047 6.368,-0.209 l 6.336,-0.537 c 2.096,-0.287 4.177,-0.662 6.26,-0.985 2.099,-0.265 4.131,-0.849 6.183,-1.31 l 3.064,-0.729 3.004,-0.939 c 2.01,-0.6 4.004,-1.238 5.934,-2.042 l 2.919,-1.128 2.838,-1.298 c 1.912,-0.824 3.728,-1.824 5.545,-2.802 1.793,-1.01 3.576,-2.061 5.246,-3.212 1.656,-1.091 3.4,-2.417 4.63,-3.498 l 0.001,-0.002 -1.467,4.344 -1.478,-10.431 -0.734,-5.208 c -0.307,-1.729 -0.297,-3.493 -0.45,-5.236 l -0.685,-10.482 c -0.17,-1.743 -0.06,-3.498 -0.093,-5.245 l 0.004,-5.245 v -5.241 l 0.279,-5.236 0.283,-5.232 c 0.056,-1.746 0.295,-3.482 0.465,-5.22 l 0.551,-5.214 c 0.147,-1.74 0.489,-3.468 0.729,-5.201 0.285,-1.731 0.478,-3.459 0.847,-5.192 0.343,-1.737 0.638,-3.437 1.077,-5.246 l 0.073,-0.302 0.152,-0.331 4.556,-10.02 c 0.808,-1.657 1.463,-3.361 2.051,-5.088 l 1.852,-5.154 0.927,-2.58 c 0.279,-0.864 0.466,-1.75 0.705,-2.625 l 1.364,-5.266 c 0.542,-1.747 0.715,-3.531 0.984,-5.306 0.224,-1.775 0.6,-3.556 0.711,-5.33 l 0.097,-5.319 c 0.094,-1.784 -0.363,-3.475 -0.506,-5.224 -0.089,-1.776 -0.748,-3.372 -1.193,-5.039 -0.352,-1.718 -1.304,-3.147 -1.995,-4.704 -0.316,-0.807 -0.869,-1.452 -1.356,-2.143 -0.508,-0.675 -0.952,-1.405 -1.506,-2.043 -1.213,-1.176 -2.314,-2.478 -3.745,-3.413 -0.671,-0.526 -1.347,-1.037 -2.112,-1.424 -0.745,-0.408 -1.454,-0.895 -2.254,-1.197 -1.495,-0.697 -2.997,-1.207 -4.536,-1.545 z"
           inkscape:connector-curvature="0"
           style="fill:#000000" />
      </g>
      <g
         id="g3530">
        <path
           id="path3532"
           d="m 499.619,313.242 c 0,0 -32.012,3.409 -8.647,57.434 0,0 5.431,27.463 -2.785,61.347 0,0 25.429,24.066 74.421,11.598 0,0 6.746,-19.612 -24.705,-30.968 0,0 10.669,-49.963 -11.761,-79.921 0,-0.001 -8.567,-17.888 -26.523,-19.49 z"
           inkscape:connector-curvature="0"
           style="fill:#ffffff" />
        <path
           id="path3534"
           d="m 499.665,314.54 c -1.213,0.218 -2.399,0.577 -3.569,1.078 -1.188,0.525 -2.375,1.1 -3.406,1.888 -1.125,0.671 -1.983,1.664 -2.926,2.537 -0.771,1.033 -1.657,1.988 -2.244,3.141 -0.559,1.168 -1.267,2.252 -1.547,3.548 -0.345,1.258 -0.842,2.449 -0.918,3.786 -0.116,1.313 -0.465,2.571 -0.402,3.909 l 0.05,3.97 c 0.08,1.321 0.356,2.655 0.521,3.975 0.202,1.321 0.324,2.642 0.726,3.949 l 1.005,3.919 c 0.285,1.31 0.732,2.593 1.197,3.876 0.948,2.555 1.642,5.158 2.785,7.655 l 3.187,7.542 0.156,0.366 0.06,0.331 c 0.519,2.766 0.882,5.318 1.163,7.967 0.131,1.313 0.34,2.629 0.4,3.942 l 0.27,3.945 c 0.234,2.63 0.207,5.262 0.262,7.895 l 0.057,3.952 -0.2,3.944 -0.207,3.945 c -0.093,1.314 -0.083,2.635 -0.277,3.939 l -0.941,7.85 c -0.197,1.303 -0.273,2.623 -0.586,3.908 l -0.795,3.876 -1.634,7.738 -1.074,-3.628 0.004,0.004 c 0.874,0.805 2.151,1.832 3.356,2.671 1.217,0.886 2.52,1.702 3.834,2.485 1.334,0.762 2.658,1.541 4.065,2.189 1.368,0.716 2.783,1.34 4.228,1.912 1.414,0.636 2.881,1.148 4.364,1.634 1.462,0.536 2.95,0.992 4.472,1.354 1.513,0.385 3.006,0.857 4.557,1.095 l 4.624,0.852 4.687,0.523 c 1.559,0.232 3.14,0.207 4.716,0.281 1.576,0.022 3.156,0.185 4.735,0.095 l 4.749,-0.197 c 3.17,-0.078 6.31,-0.669 9.478,-0.975 1.576,-0.212 3.129,-0.588 4.699,-0.874 l 4.7,-0.917 -1.591,1.465 0.003,-0.003 c 0.147,-0.536 0.332,-1.409 0.389,-2.17 0.083,-0.782 0.104,-1.591 0.06,-2.387 -0.03,-0.804 -0.114,-1.6 -0.282,-2.389 -0.087,-0.804 -0.39,-1.564 -0.593,-2.344 -0.209,-0.781 -0.615,-1.5 -0.905,-2.256 -0.32,-0.746 -0.805,-1.422 -1.195,-2.143 -0.373,-0.729 -0.977,-1.331 -1.447,-2.008 -0.469,-0.684 -1.061,-1.28 -1.66,-1.872 -0.616,-0.576 -1.12,-1.252 -1.82,-1.75 l -1.988,-1.604 c -0.635,-0.569 -1.43,-0.957 -2.135,-1.446 -0.728,-0.46 -1.437,-0.949 -2.185,-1.386 l -2.329,-1.19 c -0.782,-0.383 -1.53,-0.83 -2.345,-1.162 l -4.886,-1.988 -1.817,-0.741 0.372,-1.862 v -0.005 c 0.731,-3.219 1.357,-6.627 1.779,-9.995 0.461,-3.379 0.795,-6.779 1.011,-10.186 0.143,-1.703 0.203,-3.409 0.246,-5.116 0.061,-1.707 0.13,-3.417 0.061,-5.122 -0.061,-1.704 -0.017,-3.419 -0.163,-5.118 l -0.356,-5.106 -0.636,-5.074 c -0.163,-1.7 -0.551,-3.36 -0.864,-5.032 -0.332,-1.67 -0.601,-3.358 -1.105,-4.981 l -1.355,-4.92 -1.776,-4.772 c -0.535,-1.621 -1.406,-3.083 -2.142,-4.607 -0.774,-1.504 -1.453,-3.066 -2.458,-4.434 l -2.783,-4.235 -0.089,-0.133 -0.037,-0.076 c -0.598,-1.16 -1.328,-2.388 -2.106,-3.523 -0.772,-1.153 -1.615,-2.259 -2.494,-3.332 -0.894,-1.059 -1.816,-2.096 -2.814,-3.054 -0.98,-0.975 -2.023,-1.888 -3.112,-2.728 -1.078,-0.864 -2.226,-1.613 -3.402,-2.325 -0.57,-0.386 -1.213,-0.64 -1.812,-0.967 -0.606,-0.317 -1.215,-0.632 -1.865,-0.852 l -1.91,-0.74 -1.978,-0.527 c -1.255,-0.398 -2.58,-0.454 -3.867,-0.679 z m 0.064,-2.572 c 1.471,0.268 2.98,0.328 4.41,0.776 l 2.162,0.584 2.088,0.81 c 0.706,0.245 1.367,0.586 2.029,0.932 0.652,0.355 1.346,0.641 1.962,1.055 1.271,0.774 2.511,1.587 3.668,2.516 1.168,0.903 2.282,1.883 3.323,2.923 1.061,1.025 2.038,2.126 2.984,3.252 0.929,1.141 1.819,2.312 2.632,3.537 0.834,1.226 1.571,2.456 2.278,3.839 l -0.127,-0.207 2.901,4.427 c 1.042,1.436 1.75,3.054 2.551,4.62 0.765,1.583 1.662,3.112 2.212,4.784 l 1.922,4.907 1.5,5.041 c 0.551,1.672 0.864,3.396 1.236,5.106 0.357,1.716 0.788,3.42 0.991,5.157 l 0.753,5.194 0.469,5.224 c 0.183,1.74 0.173,3.488 0.269,5.232 0.159,3.49 0.189,6.989 0.086,10.479 -0.08,3.494 -0.283,6.985 -0.615,10.468 -0.33,3.5 -0.689,6.936 -1.294,10.494 l -0.004,0.006 -1.444,-2.601 5.211,2.115 c 0.867,0.355 1.69,0.838 2.538,1.252 l 2.521,1.295 c 0.821,0.478 1.613,1.017 2.419,1.524 0.788,0.545 1.64,0.972 2.37,1.612 l 2.255,1.817 c 0.782,0.565 1.401,1.351 2.106,2.02 0.692,0.688 1.377,1.385 1.948,2.2 0.575,0.805 1.26,1.519 1.736,2.405 0.482,0.87 1.05,1.694 1.456,2.613 0.372,0.931 0.845,1.824 1.12,2.796 0.268,0.972 0.618,1.923 0.745,2.931 0.206,0.993 0.316,1.999 0.353,3.016 0.056,1.012 0.03,2.031 -0.076,3.05 -0.102,1.052 -0.253,1.973 -0.609,3.179 l -0.003,0.011 -0.359,1.173 -1.231,0.292 -4.842,1.142 c -1.617,0.359 -3.219,0.808 -4.853,1.092 -3.292,0.453 -6.552,1.187 -9.884,1.403 l -4.995,0.4 c -1.665,0.154 -3.346,0.054 -5.018,0.093 -1.676,-0.014 -3.355,0.07 -5.032,-0.108 l -5.029,-0.37 -5.005,-0.723 c -1.679,-0.198 -3.314,-0.638 -4.969,-0.991 -1.659,-0.334 -3.296,-0.767 -4.913,-1.288 -1.633,-0.468 -3.257,-0.968 -4.839,-1.601 -1.606,-0.569 -3.189,-1.197 -4.736,-1.928 -1.579,-0.661 -3.093,-1.466 -4.617,-2.264 -1.506,-0.826 -3.001,-1.684 -4.456,-2.654 -1.489,-0.977 -2.816,-1.913 -4.383,-3.26 l -0.004,-0.005 -1.506,-1.344 0.433,-2.284 1.401,-7.409 0.721,-3.696 c 0.289,-1.225 0.34,-2.491 0.515,-3.734 l 0.952,-7.481 c 0.205,-1.243 0.197,-2.507 0.297,-3.76 l 0.229,-3.766 0.224,-3.767 0.043,-3.772 c 0.019,-2.514 0.12,-5.037 -0.036,-7.544 l -0.147,-3.769 c -0.02,-1.261 -0.186,-2.499 -0.273,-3.749 -0.183,-2.479 -0.485,-5.035 -0.844,-7.344 l 0.216,0.696 -2.946,-8.053 c -1.04,-2.652 -1.584,-5.527 -2.397,-8.269 -0.4,-1.376 -0.732,-2.773 -0.928,-4.22 l -0.706,-4.284 c -0.296,-1.406 -0.322,-2.885 -0.41,-4.339 -0.056,-1.462 -0.219,-2.901 -0.18,-4.366 l 0.29,-4.406 c 0.059,-1.462 0.545,-2.92 0.802,-4.368 0.213,-1.465 0.879,-2.847 1.396,-4.241 0.439,-1.431 1.377,-2.663 2.088,-3.974 0.754,-1.291 1.837,-2.386 2.803,-3.518 1.135,-0.987 2.218,-2.03 3.509,-2.794 1.22,-0.869 2.587,-1.497 3.958,-2.059 1.371,-0.547 2.841,-0.957 4.344,-1.172 l 0.18,-0.026 0.105,0.018 z"
           inkscape:connector-curvature="0"
           style="fill:#000000" />
      </g>
      <g
         id="g3536">
        <ellipse
           id="ellipse3538"
           ry="26.014999"
           rx="25.610001"
           cy="200.644"
           cx="490.90399"
           sodipodi:cx="490.90399"
           sodipodi:cy="200.644"
           sodipodi:rx="25.610001"
           sodipodi:ry="26.014999"
           style="fill:#ffffff"
           d="m 516.51399,200.644 c 0,14.36768 -11.46599,26.015 -25.61,26.015 -14.14401,0 -25.61,-11.64732 -25.61,-26.015 0,-14.36769 11.46599,-26.015 25.61,-26.015 14.14401,0 25.61,11.64731 25.61,26.015 z" />
        <g
           id="g3540">
          <path
             id="path3542"
             d="m 518.643,200.749 c 0,0 -0.017,0.633 -0.053,1.82 0.011,0.564 -0.074,1.367 -0.209,2.344 -0.093,0.983 -0.313,2.045 -0.583,3.212 -0.568,2.334 -1.48,5.171 -3.199,8.118 -1.7,2.941 -4.177,6.014 -7.583,8.614 -3.408,2.569 -7.812,4.589 -12.768,5.262 -1.294,0.137 -2.364,0.253 -3.914,0.244 -1.141,-0.07 -2.144,-0.044 -3.631,-0.3 -2.82,-0.355 -5.255,-1.162 -7.797,-2.254 -4.951,-2.309 -9.33,-6.139 -12.33,-10.948 -1.506,-2.402 -2.613,-5.049 -3.412,-7.781 -0.756,-2.821 -1.064,-5.445 -1.064,-8.597 0.071,-2.307 0.478,-5.606 1.31,-8.208 0.875,-2.682 2.051,-5.256 3.598,-7.572 3.097,-4.627 7.456,-8.241 12.296,-10.358 4.783,-2.127 10.194,-2.764 14.706,-2.136 5.002,0.693 9.097,2.517 12.529,4.918 3.365,2.437 5.878,5.354 7.644,8.185 1.78,2.837 2.783,5.605 3.43,7.9 0.325,1.156 0.556,2.198 0.663,3.124 0.154,0.919 0.257,1.703 0.266,2.344 0.067,1.281 0.102,1.964 0.102,1.964 l -10e-4,0.105 z m -4.26,-0.105 c 0,0 -0.027,-0.583 -0.08,-1.675 0,-0.548 -0.09,-1.216 -0.216,-1.998 -0.08,-0.79 -0.278,-1.677 -0.543,-2.662 -0.518,-1.96 -1.376,-4.331 -2.994,-6.669 -1.564,-2.355 -3.771,-4.742 -6.665,-6.643 -2.85,-1.864 -6.582,-3.225 -10.237,-3.589 -4.122,-0.361 -8.151,0.242 -12.02,2.051 -3.827,1.794 -7.224,4.779 -9.586,8.514 -1.181,1.87 -2.042,3.934 -2.684,6.059 -0.599,2.249 -0.812,4.011 -0.867,6.769 0.123,1.913 0.436,4.351 1.113,6.377 0.716,2.078 1.643,4.072 2.868,5.854 2.461,3.551 5.83,6.322 9.549,7.923 1.8,0.801 3.854,1.466 5.577,1.68 0.759,0.194 2.032,0.211 3.117,0.28 0.681,0.005 1.825,-0.014 2.691,-0.08 3.702,-0.384 7.126,-1.549 10,-3.246 2.851,-1.735 5.095,-3.968 6.727,-6.21 1.682,-2.23 2.628,-4.529 3.229,-6.452 0.317,-0.973 0.526,-1.841 0.622,-2.573 0.143,-0.726 0.257,-1.371 0.273,-1.999 0.084,-1.187 0.13,-1.817 0.13,-1.817 l -0.004,0.106 z"
             inkscape:connector-curvature="0"
             style="fill:#000000" />
        </g>
      </g>
      <g
         id="g3544">
        <ellipse
           id="ellipse3546"
           ry="33.299"
           rx="32.779999"
           cy="167.864"
           cx="416.90302"
           sodipodi:cx="416.90302"
           sodipodi:cy="167.864"
           sodipodi:rx="32.779999"
           sodipodi:ry="33.299"
           style="fill:#ffffff"
           d="m 449.68301,167.864 c 0,18.39053 -14.6761,33.299 -32.77999,33.299 -18.1039,0 -32.78,-14.90847 -32.78,-33.299 0,-18.39053 14.6761,-33.299 32.78,-33.299 18.10389,0 32.77999,14.90847 32.77999,33.299 z" />
        <g
           id="g3548">
          <path
             id="path3550"
             d="m 451.809,167.969 c 0,0 -0.023,0.811 -0.076,2.332 0.011,0.729 -0.101,1.735 -0.276,2.949 -0.122,1.225 -0.398,2.557 -0.755,4.022 -0.729,2.931 -1.903,6.487 -4.097,10.159 -2.165,3.668 -5.301,7.481 -9.586,10.69 -4.286,3.164 -9.789,5.63 -15.955,6.452 -0.765,0.136 -1.55,0.133 -2.334,0.201 -0.845,0.025 -1.437,0.163 -2.507,0.089 -1.451,-0.09 -2.77,-0.063 -4.574,-0.382 -3.455,-0.433 -6.516,-1.446 -9.668,-2.802 -6.164,-2.858 -11.631,-7.61 -15.393,-13.592 -1.889,-2.986 -3.283,-6.283 -4.291,-9.688 -0.426,-1.728 -0.861,-3.453 -1.034,-5.226 -0.123,-0.88 -0.25,-1.76 -0.25,-2.65 l -0.084,-2.818 c 0.087,-3.015 0.581,-7.022 1.615,-10.304 1.087,-3.356 2.545,-6.581 4.476,-9.481 3.862,-5.796 9.305,-10.335 15.359,-13 5.994,-2.679 12.728,-3.488 18.449,-2.723 6.21,0.842 11.404,3.112 15.716,6.108 4.243,3.047 7.413,6.705 9.648,10.26 2.254,3.561 3.518,7.047 4.331,9.939 0.403,1.456 0.695,2.768 0.831,3.936 0.19,1.156 0.326,2.144 0.333,2.953 0.083,1.612 0.127,2.472 0.127,2.472 l -0.005,0.104 z m -4.257,-0.105 c 0,0 -0.039,-0.76 -0.109,-2.184 0.003,-0.715 -0.114,-1.586 -0.28,-2.605 -0.109,-1.031 -0.363,-2.188 -0.715,-3.473 -0.679,-2.556 -1.799,-5.645 -3.891,-8.709 -2.029,-3.079 -4.9,-6.211 -8.67,-8.717 -3.726,-2.463 -8.558,-4.27 -13.424,-4.783 -5.328,-0.498 -10.682,0.277 -15.761,2.638 -5.04,2.342 -9.522,6.252 -12.651,11.157 -1.563,2.454 -2.711,5.169 -3.562,7.968 -0.802,2.929 -1.101,5.399 -1.171,8.865 0.139,2.622 0.539,5.767 1.417,8.474 0.93,2.751 2.139,5.393 3.745,7.762 3.227,4.722 7.683,8.416 12.615,10.567 2.407,1.065 5.089,1.936 7.451,2.228 1.071,0.26 2.662,0.275 4.061,0.363 0.991,0.007 2.445,-0.032 3.615,-0.124 4.91,-0.533 9.43,-2.145 13.185,-4.438 3.727,-2.342 6.634,-5.318 8.733,-8.285 2.155,-2.955 3.362,-5.973 4.127,-8.49 0.397,-1.274 0.668,-2.412 0.789,-3.385 0.183,-0.962 0.325,-1.812 0.343,-2.607 0.097,-1.517 0.153,-2.326 0.153,-2.326 l 0,0.104 z"
             inkscape:connector-curvature="0"
             style="fill:#000000" />
        </g>
      </g>
      <g
         id="g3552">
        <path
           id="path3554"
           d="m 366.955,218.457 c 0,22.768 -18.173,41.228 -40.583,41.228 -22.417,0 -40.587,-18.46 -40.587,-41.228 0,-22.769 18.17,-41.229 40.587,-41.229 22.41,0 40.583,18.46 40.583,41.229 z"
           inkscape:connector-curvature="0"
           style="fill:#ffffff" />
        <g
           id="g3556">
          <path
             id="path3558"
             d="m 369.083,218.563 c 0,0 -0.03,1.004 -0.09,2.885 0.013,0.912 -0.123,2.141 -0.337,3.616 -0.104,0.727 -0.183,1.527 -0.335,2.348 -0.186,0.804 -0.388,1.658 -0.601,2.56 -0.93,3.576 -2.404,7.905 -5.106,12.368 -2.674,4.459 -6.529,9.081 -11.768,12.95 -5.235,3.848 -11.96,6.696 -19.427,7.727 -0.928,0.169 -1.88,0.163 -2.828,0.25 -1.012,0.03 -1.777,0.203 -3.013,0.111 -1.792,-0.111 -3.456,-0.082 -5.604,-0.472 -4.147,-0.52 -7.892,-1.756 -11.708,-3.4 -3.768,-1.684 -7.231,-4.087 -10.456,-6.796 -3.196,-2.767 -5.921,-6.089 -8.271,-9.671 -2.305,-3.624 -4.005,-7.629 -5.248,-11.766 -0.518,-2.099 -1.058,-4.198 -1.273,-6.355 -0.156,-1.071 -0.313,-2.141 -0.315,-3.224 l -0.113,-3.397 c 0.107,-3.787 0.696,-8.565 1.948,-12.586 1.318,-4.087 3.084,-8.02 5.432,-11.557 2.391,-3.496 5.151,-6.708 8.332,-9.381 3.213,-2.608 6.649,-4.907 10.36,-6.496 7.313,-3.277 15.486,-4.277 22.523,-3.361 7.53,1.004 13.915,3.76 19.183,7.406 5.198,3.707 9.089,8.173 11.831,12.519 2.774,4.351 4.32,8.619 5.309,12.159 0.229,0.894 0.442,1.74 0.645,2.537 0.164,0.805 0.256,1.571 0.37,2.279 0.236,1.415 0.398,2.623 0.409,3.614 0.102,1.974 0.153,3.026 0.153,3.026 l -0.002,0.107 z m -4.259,-0.106 c 0,0 -0.047,-0.951 -0.134,-2.737 10e-4,-0.898 -0.149,-1.988 -0.358,-3.267 -0.101,-0.639 -0.174,-1.333 -0.32,-2.061 -0.18,-0.721 -0.373,-1.486 -0.576,-2.293 -0.858,-3.206 -2.259,-7.077 -4.87,-10.929 -2.54,-3.872 -6.127,-7.81 -10.849,-10.977 -4.687,-3.113 -10.71,-5.406 -16.898,-6.079 -6.642,-0.648 -13.433,0.316 -19.833,3.277 -3.203,1.427 -6.144,3.488 -8.903,5.789 -2.72,2.363 -5.056,5.193 -7.081,8.243 -1.979,3.093 -3.436,6.514 -4.519,10.046 -1.018,3.669 -1.411,6.91 -1.503,11.147 0.159,3.393 0.655,7.31 1.749,10.757 1.161,3.483 2.68,6.834 4.704,9.837 2.066,2.966 4.43,5.685 7.141,7.953 2.744,2.202 5.657,4.158 8.805,5.49 3.069,1.353 6.433,2.45 9.488,2.828 1.417,0.327 3.353,0.342 5.092,0.451 1.33,0.012 3.122,-0.035 4.621,-0.152 6.252,-0.646 11.936,-2.846 16.655,-5.756 4.682,-3.004 8.308,-6.787 10.912,-10.544 2.68,-3.741 4.158,-7.549 5.075,-10.721 0.219,-0.799 0.428,-1.556 0.622,-2.269 0.156,-0.71 0.242,-1.373 0.356,-1.993 0.232,-1.219 0.406,-2.289 0.43,-3.265 0.126,-1.879 0.194,-2.881 0.194,-2.881 l 0,0.106 z"
             inkscape:connector-curvature="0"
             style="fill:#000000" />
        </g>
      </g>
      <g
         id="g3560">
        <path
           id="path3562"
           d="m 478.678,259.099 c 0,18.202 -14.528,32.959 -32.445,32.959 -17.92,0 -32.45,-14.757 -32.45,-32.959 0,-18.204 14.53,-32.961 32.45,-32.961 17.917,0 32.445,14.758 32.445,32.961 z"
           inkscape:connector-curvature="0"
           style="fill:#ffffff" />
        <g
           id="g3564">
          <path
             id="path3566"
             d="m 480.807,259.205 c 0,0 -0.024,0.803 -0.074,2.306 0.008,0.722 -0.102,1.719 -0.276,2.922 -0.119,1.213 -0.393,2.533 -0.744,3.985 -0.724,2.902 -1.885,6.424 -4.057,10.062 -2.145,3.634 -5.251,7.413 -9.495,10.594 -4.245,3.137 -9.696,5.582 -15.811,6.397 -0.757,0.134 -1.531,0.131 -2.308,0.199 -0.837,0.025 -1.426,0.162 -2.485,0.087 -1.437,-0.087 -2.74,-0.06 -4.53,-0.379 -3.425,-0.43 -6.459,-1.433 -9.582,-2.776 -6.109,-2.832 -11.525,-7.542 -15.252,-13.469 -1.87,-2.959 -3.249,-6.225 -4.251,-9.599 -0.419,-1.712 -0.852,-3.42 -1.022,-5.178 -0.123,-0.872 -0.247,-1.745 -0.247,-2.626 l -0.086,-2.793 c 0.089,-2.983 0.579,-6.956 1.603,-10.206 1.077,-3.324 2.522,-6.519 4.437,-9.39 3.825,-5.743 9.217,-10.239 15.216,-12.877 5.937,-2.652 12.609,-3.455 18.272,-2.695 6.157,0.834 11.297,3.084 15.569,6.053 4.203,3.017 7.346,6.641 9.556,10.163 2.235,3.528 3.485,6.981 4.29,9.846 0.399,1.441 0.689,2.74 0.821,3.897 0.193,1.145 0.325,2.123 0.335,2.924 0.08,1.597 0.124,2.449 0.124,2.449 l -0.003,0.104 z m -4.26,-0.106 c 0,0 -0.034,-0.751 -0.103,-2.159 0,-0.708 -0.116,-1.569 -0.282,-2.578 -0.106,-1.019 -0.359,-2.164 -0.706,-3.434 -0.672,-2.53 -1.779,-5.583 -3.851,-8.614 -2.008,-3.047 -4.846,-6.142 -8.575,-8.621 -3.686,-2.434 -8.465,-4.22 -13.276,-4.727 -5.275,-0.492 -10.562,0.275 -15.589,2.612 -4.982,2.316 -9.415,6.181 -12.505,11.032 -1.547,2.427 -2.684,5.111 -3.525,7.88 -0.791,2.896 -1.087,5.334 -1.158,8.766 0.14,2.589 0.536,5.702 1.404,8.375 0.92,2.721 2.116,5.334 3.709,7.674 3.189,4.668 7.593,8.319 12.469,10.444 2.379,1.053 5.03,1.915 7.361,2.204 1.058,0.255 2.635,0.272 4.021,0.36 0.975,0.006 2.415,-0.031 3.571,-0.124 4.858,-0.525 9.325,-2.116 13.037,-4.382 3.689,-2.315 6.563,-5.254 8.638,-8.189 2.135,-2.921 3.33,-5.904 4.087,-8.396 0.396,-1.258 0.664,-2.384 0.785,-3.347 0.182,-0.95 0.317,-1.79 0.337,-2.578 0.099,-1.501 0.154,-2.301 0.154,-2.301 l -0.003,0.103 z"
             inkscape:connector-curvature="0"
             style="fill:#000000" />
        </g>
      </g>
    </g>
  </g>
  <g
     inkscape:groupmode="layer"
     id="layer2"
     inkscape:label="Cut"
     style="display:inline">
    <rect
       y="63.824097"
       x="241.446"
       height="92.85714"
       width="444.28571"
       id="rect3315"
       style="fill:none;stroke:#00ff00;stroke-width:0.03543307;stroke-miterlimit:4;stroke-dasharray:none" />
    <rect
       y="165.96695"
       x="241.446"
       height="92.85714"
       width="444.28571"
       id="rect3323"
       style="fill:none;stroke:#00ff00;stroke-width:0.03543307;stroke-miterlimit:4;stroke-dasharray:none;display:inline" />
    <rect
       y="268.1098"
       x="241.446"
       height="92.85714"
       width="444.28571"
       id="rect3331"
       style="fill:none;stroke:#00ff00;stroke-width:0.03543307;stroke-miterlimit:4;stroke-dasharray:none;display:inline" />
    <rect
       y="370.25266"
       x="241.446"
       height="92.85714"
       width="444.28571"
       id="rect3339"
       style="fill:none;stroke:#00ff00;stroke-width:0.03543307;stroke-miterlimit:4;stroke-dasharray:none;display:inline" />
    <rect
       y="472.39551"
       x="241.446"
       height="92.85714"
       width="444.28571"
       id="rect3347"
       style="fill:none;stroke:#00ff00;stroke-width:0.03543307;stroke-miterlimit:4;stroke-dasharray:none" />
    <rect
       y="574.53839"
       x="241.446"
       height="92.85714"
       width="444.28571"
       id="rect3355"
       style="fill:none;stroke:#00ff00;stroke-width:0.03543307;stroke-miterlimit:4;stroke-dasharray:none;display:inline" />
    <rect
       y="676.68121"
       x="241.446"
       height="92.85714"
       width="444.28571"
       id="rect3363"
       style="fill:none;stroke:#00ff00;stroke-width:0.03543307;stroke-miterlimit:4;stroke-dasharray:none;display:inline" />
    <path
       sodipodi:type="arc"
       style="fill:none;stroke:#00ff00;stroke-width:0.03543307;stroke-miterlimit:4;stroke-dasharray:none;display:inline"
       id="path3457"
       sodipodi:cx="102.02541"
       sodipodi:cy="807.90527"
       sodipodi:rx="103.03556"
       sodipodi:ry="103.03556"
       d="m 205.06097,807.90527 a 103.03556,103.03556 0 1 1 -206.0711171,0 103.03556,103.03556 0 1 1 206.0711171,0 z"
       transform="translate(263.64981,75.256365)" />
    <path
       transform="translate(479.82245,70.710678)"
       d="m 205.06097,807.90527 a 103.03556,103.03556 0 1 1 -206.0711171,0 103.03556,103.03556 0 1 1 206.0711171,0 z"
       sodipodi:ry="103.03556"
       sodipodi:rx="103.03556"
       sodipodi:cy="807.90527"
       sodipodi:cx="102.02541"
       id="path3619"
       style="fill:none;stroke:#00ff00;stroke-width:0.03543307;stroke-miterlimit:4;stroke-dasharray:none;display:inline"
       sodipodi:type="arc" />
    <rect
       y="39.505039"
       x="60"
       height="962.85712"
       width="645.71429"
       id="rect3621"
       style="fill:none;stroke:#0000ff;stroke-width:0.03543307;stroke-miterlimit:4;stroke-dasharray:none;display:inline" />
    <g
       style="fill:none;stroke:#00ff00;stroke-width:0.02445473;stroke-miterlimit:4;stroke-dasharray:none;display:inline"
       id="g3797-2"
       transform="matrix(1.4383065,0,0,1.4596223,66.246504,785.55596)">
      <path
         inkscape:connector-curvature="0"
         id="path3788-4"
         style="fill:none;stroke:#00ff00;stroke-width:0.02445473;stroke-linejoin:round;stroke-miterlimit:4;stroke-dasharray:none"
         d="m 64.812,11.75 c -1.784,0 -3.419,0.672 -4.75,1.844 -0.84,-0.738 -1.919,-1.188 -3.124,-1.188 -2.635,0 -4.782,2.147 -4.782,4.782 0,0.191 -0.022,0.376 0,0.562 -0.686,0.143 -1.346,0.358 -2,0.625 -1.716,-2.153 -4.125,-3.469 -6.812,-3.469 -4.862,0 -8.881,4.397 -9.375,10.032 -2.242,1.192 -3.781,3.857 -3.781,6.968 0,3.579 2.053,6.608 4.843,7.438 0.255,0.738 0.607,1.396 1,2.031 -4.926,0.91 -9.9,2.92 -14.437,6.063 -6.706,4.644 -16.444,12.666 -17.438,25.968 8.847,2.552 18.108,0.966 26.032,-3.156 -1.307,9.958 -0.666,19.431 2.656,26.188 15.561,31.652 54.171,23.592 63.812,-1.188 2.505,-6.437 2.535,-16.951 0.469,-28.062 9.185,3.281 19.575,3.467 28.535,-1.126 -3.54,-12.906 -14.69,-18.936 -22.19,-22.218 -2.32,-1.015 -4.667,-1.783 -7.032,-2.313 0,-0.564 -0.071,-1.091 -0.25,-1.593 2.288,-1.461 3.842,-4.345 3.842,-7.657 0,-2.011 -0.595,-3.838 -1.561,-5.312 0.483,-0.746 0.781,-1.64 0.781,-2.594 0,-2.635 -2.146,-4.781 -4.781,-4.781 -0.359,0 -0.695,0.049 -1.031,0.125 -1.206,-3.204 -4.28,-5.5 -7.907,-5.5 -2.491,0 -4.73,1.099 -6.281,2.812 -1.34,-0.878 -2.894,-1.406 -4.531,-1.406 -1.061,0 -2.08,0.239 -3.031,0.625 -1.444,-2.707 -3.99,-4.5 -6.876,-4.5 z" />
      <path
         style="fill:none;stroke:#00ff00;stroke-width:0.03543307;stroke-miterlimit:4;stroke-dasharray:none"
         d="m 162,793.59375 c -2.56738,0 -4.92936,1.00953 -6.84375,2.71875 -1.20818,-1.07574 -2.76684,-1.71875 -4.5,-1.71875 -3.78994,0 -6.875,3.0914 -6.875,6.9375 0,0.27879 -3.9e-4,0.57226 0.0312,0.84375 -0.98668,0.20873 -1.93579,0.54632 -2.875,0.9375 -2.46813,-3.14257 -5.98046,-5.0625 -9.84375,-5.0625 -6.99305,0 -12.72698,6.37024 -13.4375,14.59375 -3.22468,1.74133 -5.5,5.67787 -5.5,10.21875 0,5.22399 2.98712,9.60101 7,10.8125 0.36506,1.07123 0.8452,2.07776 1.40625,3 -7.06475,1.33289 -14.24328,4.27075 -20.75,8.84375 -9.645283,6.77995 -23.63268,18.48889 -25.0625,37.90625 12.725632,3.72564 26.04075,1.39321 37.4375,-4.625 -1.87722,14.53071 -0.93323,28.39045 3.84375,38.25 22.38149,46.18975 77.88185,34.41798 91.75,-1.75 3.60215,-9.39437 3.65784,-24.75237 0.6875,-40.96875 13.20396,4.78815 28.14986,5.04683 41.03125,-1.65625 -5.09161,-18.83935 -21.11895,-27.64556 -31.90625,-32.4375 -3.32181,-1.47615 -6.70185,-2.57115 -10.09375,-3.34375 0,-0.82323 -0.1161,-1.61102 -0.375,-2.34375 3.29228,-2.13251 5.53125,-6.32198 5.53125,-11.15625 0,-2.93676 -0.8606,-5.62977 -2.25,-7.78125 0.69326,-1.08888 1.09375,-2.35752 1.09375,-3.75 0,-3.8461 -3.05381,-7 -6.84375,-7 -0.51635,0 -1.01673,0.078 -1.5,0.1875 -1.73316,-4.67517 -6.15826,-8 -11.375,-8 -3.58282,0 -6.80044,1.56071 -9.03125,4.0625 -1.92733,-1.28155 -4.14549,-2.03125 -6.5,-2.03125 -1.52604,0 -2.97448,0.34284 -4.34375,0.90625 -2.07691,-3.9512 -5.7553,-6.59375 -9.90625,-6.59375 z"
         transform="matrix(0.6952621,0,0,0.68510874,-47.814485,-531.96268)"
         id="path3697-1"
         inkscape:connector-curvature="0" />
      <g
         id="g3518-4"
         transform="matrix(1.4381,0.64705,-0.64705,1.4381,-42.089,-43.474)"
         style="fill:none;stroke:#00ff00;stroke-width:0.0155075;stroke-miterlimit:4;stroke-dasharray:none">
        <path
           transform="translate(10.649,-9.4991)"
           style="fill:none;stroke:#00ff00;stroke-width:0.0155075;stroke-miterlimit:4;stroke-dasharray:none"
           d="m 76,48 c 0,2.209139 -1.790861,4 -4,4 -2.209139,0 -4,-1.790861 -4,-4 0,-2.209139 1.790861,-4 4,-4 2.209139,0 4,1.790861 4,4 z"
           id="path3183-5"
           inkscape:connector-curvature="0" />
        <path
           transform="translate(25.61,-16.267)"
           style="fill:none;stroke:#00ff00;stroke-width:0.0155075;stroke-miterlimit:4;stroke-dasharray:none"
           d="m 76,48 c 0,2.209139 -1.790861,4 -4,4 -2.209139,0 -4,-1.790861 -4,-4 0,-2.209139 1.790861,-4 4,-4 2.209139,0 4,1.790861 4,4 z"
           id="path3195-9"
           inkscape:connector-curvature="0" />
      </g>
      <g
         id="g3780-0"
         inkscape:transform-center-x="3.2997387"
         inkscape:transform-center-y="3.9241956"
         transform="matrix(0.7778,0.62851,-0.62851,0.7778,77.013,-10.361)"
         style="fill:none;stroke:#00ff00;stroke-width:0.02445476;stroke-miterlimit:4;stroke-dasharray:none">
        <path
           style="fill:none;stroke:#00ff00;stroke-width:0.03543307;stroke-linecap:round;stroke-linejoin:round;stroke-miterlimit:4;stroke-dasharray:none"
           d="m 148.0625,915.21875 c -0.46194,0.0161 -0.89671,0.12314 -1.28125,0.375 -1.53817,1.00745 -1.6516,3.63973 -0.25,5.84375 1.3998,2.20629 3.80558,3.1637 5.34375,2.15625 1.01866,-0.66719 1.38303,-2.04303 1.125,-3.53125 3.1241,3.16319 5.29689,7.01205 6.4375,10.9375 0.37494,-4.38403 -1.42135,-7.17372 -3.46875,-10.125 -1.3654,-1.96708 -2.81711,-3.04111 -4.34375,-3.75 -1.02435,-1.24902 -2.37088,-1.94786 -3.5625,-1.90625 z"
           transform="matrix(0.54077613,-0.43698021,0.4305987,0.53287883,-424.92368,-327.24723)"
           id="path3771-7"
           inkscape:connector-curvature="0" />
      </g>
      <g
         id="g3784-8"
         transform="matrix(0.79935,-0.60086,0.60086,0.79935,-45.783,68.703)"
         style="fill:none;stroke:#00ff00;stroke-width:0.02445481;stroke-miterlimit:4;stroke-dasharray:none">
        <path
           style="fill:none;stroke:#00ff00;stroke-width:0.03543307;stroke-linecap:round;stroke-linejoin:round;stroke-miterlimit:4;stroke-dasharray:none"
           d="m 180.0625,913.96875 c -1.30157,-1.4e-4 -2.78669,0.89615 -3.78125,2.40625 -1.62584,0.82631 -3.17504,2.05129 -4.5625,4.25 -2.04298,3.23471 -3.78559,6.2919 -3.1875,10.9375 1.07329,-4.39177 3.33347,-8.75518 6.71875,-12.34375 -0.12641,1.39184 0.33292,2.65628 1.3125,3.25 1.56732,0.94996 3.89646,-0.13012 5.21875,-2.375 1.32143,-2.24605 1.12982,-4.83129 -0.4375,-5.78125 -0.39183,-0.23749 -0.82044,-0.3437 -1.28125,-0.34375 z"
           transform="matrix(0.55576156,0.41775804,-0.41165725,0.54764542,359.29457,-481.36604)"
           id="path3773-9"
           inkscape:connector-curvature="0" />
      </g>
    </g>
  </g>
</svg>
