<?xml version="1.0" encoding="UTF-8" standalone="no"?>
<!-- Created with Inkscape (http://www.inkscape.org/) -->

<svg
   xmlns:dc="http://purl.org/dc/elements/1.1/"
   xmlns:cc="http://creativecommons.org/ns#"
   xmlns:rdf="http://www.w3.org/1999/02/22-rdf-syntax-ns#"
   xmlns:svg="http://www.w3.org/2000/svg"
   xmlns="http://www.w3.org/2000/svg"
   xmlns:sodipodi="http://sodipodi.sourceforge.net/DTD/sodipodi-0.dtd"
   xmlns:inkscape="http://www.inkscape.org/namespaces/inkscape"
   width="744.09448"
   height="1052.3622"
   id="svg3796"
   version="1.1"
   inkscape:version="0.48.4 r9939"
   sodipodi:docname="standing_v2.svg">
  <defs
     id="defs3798" />
  <sodipodi:namedview
     id="base"
     pagecolor="#ffffff"
     bordercolor="#666666"
     borderopacity="1.0"
     inkscape:pageopacity="0.0"
     inkscape:pageshadow="2"
     inkscape:zoom="1.4142136"
     inkscape:cx="251.25564"
     inkscape:cy="526.66871"
     inkscape:document-units="mm"
     inkscape:current-layer="layer1"
     showgrid="false"
     showguides="true"
     inkscape:guide-bbox="true"
     units="mm"
     inkscape:window-width="1883"
     inkscape:window-height="1176"
     inkscape:window-x="37"
     inkscape:window-y="24"
     inkscape:window-maximized="1"
     inkscape:snap-global="true"
     inkscape:snap-bbox="true">
    <sodipodi:guide
       orientation="0,1"
       position="0,354.33071"
       id="guide3804" />
    <sodipodi:guide
       orientation="0,1"
       position="0,708.66142"
       id="guide3806" />
    <sodipodi:guide
       orientation="1,0"
       position="88.582677,0"
       id="guide3808" />
    <sodipodi:guide
       orientation="1,0"
       position="177.16535,0"
       id="guide3814" />
    <sodipodi:guide
       orientation="0,1"
       position="0,336.61417"
       id="guide3818" />
    <sodipodi:guide
       orientation="1,0"
       position="53.149606,0"
       id="guide3820" />
    <sodipodi:guide
       orientation="1,0"
       position="212.59843,0"
       id="guide3822" />
    <sodipodi:guide
       orientation="1,0"
       position="132.87402,616.14446"
       id="guide3824" />
    <sodipodi:guide
       orientation="1,0"
       position="124.01575,437.26535"
       id="guide3826" />
    <sodipodi:guide
       orientation="1,0"
       position="141.73228,0"
       id="guide3828" />
    <sodipodi:guide
       orientation="0,1"
       position="0,442.91339"
       id="guide3841" />
    <sodipodi:guide
       orientation="0,1"
       position="0,478.34646"
       id="guide3843" />
    <sodipodi:guide
       orientation="0,1"
       position="0,549.2126"
       id="guide3845" />
    <sodipodi:guide
       orientation="1,0"
       position="354.33071,0"
       id="guide3853" />
    <sodipodi:guide
       orientation="1,0"
       position="602.3622,0"
       id="guide3855" />
    <sodipodi:guide
       orientation="1,0"
       position="336.74582,460.64461"
       id="guide3857" />
    <sodipodi:guide
       orientation="1,0"
       position="620.07874,0"
       id="guide3859" />
    <sodipodi:guide
       orientation="1,0"
       position="478.34646,0"
       id="guide3863" />
    <sodipodi:guide
       orientation="0,1"
       position="0,283.46457"
       id="guide3872" />
    <sodipodi:guide
       orientation="0,1"
       position="0,177.16535"
       id="guide3874" />
    <sodipodi:guide
       orientation="0,1"
       position="0,221.45669"
       id="guide3876" />
    <sodipodi:guide
       orientation="0,1"
       position="0,239.17323"
       id="guide3878" />
    <sodipodi:guide
       orientation="1,0"
       position="318.89764,0"
       id="guide4862" />
    <sodipodi:guide
       orientation="1,0"
       position="637.79528,0"
       id="guide4864" />
    <sodipodi:guide
       orientation="0,1"
       position="0,460.62992"
       id="guide4866" />
    <sodipodi:guide
       orientation="0,1"
       position="0,566.92913"
       id="guide4868" />
  </sodipodi:namedview>
  <metadata
     id="metadata3801">
    <rdf:RDF>
      <cc:Work
         rdf:about="">
        <dc:format>image/svg+xml</dc:format>
        <dc:type
           rdf:resource="http://purl.org/dc/dcmitype/StillImage" />
        <dc:title />
      </cc:Work>
    </rdf:RDF>
  </metadata>
  <g
     inkscape:label="Layer 1"
     inkscape:groupmode="layer"
     id="layer1"
     transform="translate(0,-2.5390623e-6)">
    <path
       sodipodi:type="inkscape:offset"
       inkscape:radius="0"
       inkscape:original="M 88.59375 343.6875 C 88.59375 343.6875 94.952686 370.13542 100.28125 409.3125 C 106.97194 414.13831 111.3125 421.99537 111.3125 430.875 C 111.3125 445.55186 99.426858 457.46875 84.75 457.46875 C 71.00097 457.46875 59.687569 447.01075 58.3125 433.625 L 49.8125 433.625 C 50.023042 434.85742 52.788357 469.29303 72.3125 488.21875 C 98.909705 514.00073 105.09077 541.59463 106.15625 547.5625 C 102.09999 604.64655 87.841377 661.11239 53.15625 698.03125 L 88.59375 698.03125 L 88.59375 715.75 L 124.03125 715.75 L 124.03125 698.03125 L 141.71875 698.03125 L 141.71875 715.75 L 177.15625 715.75 L 177.15625 698.03125 L 212.59375 698.03125 C 189.65533 673.61559 175.68298 640.63394 167.65625 604.59375 C 166.89461 597.97301 166.24806 574.00058 191.78125 549.25 C 211.1173 530.50661 213.96067 496.50687 214.21875 494.65625 L 203.875 494.65625 C 200.87179 506.04006 190.51487 514.4375 178.1875 514.4375 C 163.51064 514.4375 151.59375 502.52061 151.59375 487.84375 C 151.59375 480.41054 154.64348 473.69801 159.5625 468.875 C 163.7918 399.30103 177.15625 343.6875 177.15625 343.6875 L 153.8125 343.6875 C 153.9015 344.4941 153.96875 345.32592 153.96875 346.15625 C 153.96875 358.38696 144.04321 368.28125 131.8125 368.28125 C 119.58179 368.28125 109.6875 358.38696 109.6875 346.15625 C 109.6875 345.32609 109.7235 344.49395 109.8125 343.6875 L 88.59375 343.6875 z M 124.03125 503.15625 L 141.71875 503.15625 L 141.71875 574.03125 L 124.03125 574.03125 L 124.03125 503.15625 z "
       style="fill:#e9afaf;stroke:#00ff00;stroke-width:0.1;stroke-linecap:butt;stroke-linejoin:miter;stroke-miterlimit:4;stroke-opacity:1;stroke-dasharray:none"
       id="path4884"
       d="m 88.59375,343.6875 c 0,0 6.358936,26.44792 11.6875,65.625 6.69069,4.82581 11.03125,12.68287 11.03125,21.5625 0,14.67686 -11.885642,26.59375 -26.5625,26.59375 -13.74903,0 -25.062431,-10.458 -26.4375,-23.84375 l -8.5,0 c 0.210542,1.23242 2.975857,35.66803 22.5,54.59375 26.597205,25.78198 32.77827,53.37588 33.84375,59.34375 -4.05626,57.08405 -18.314873,113.54989 -53,150.46875 l 35.4375,0 0,17.71875 35.4375,0 0,-17.71875 17.6875,0 0,17.71875 35.4375,0 0,-17.71875 35.4375,0 c -22.93842,-24.41566 -36.91077,-57.39731 -44.9375,-93.4375 -0.76164,-6.62074 -1.40819,-30.59317 24.125,-55.34375 19.33605,-18.74339 22.17942,-52.74313 22.4375,-54.59375 l -10.34375,0 c -3.00321,11.38381 -13.36013,19.78125 -25.6875,19.78125 -14.67686,0 -26.59375,-11.91689 -26.59375,-26.59375 0,-7.43321 3.04973,-14.14574 7.96875,-18.96875 4.2293,-69.57397 17.59375,-125.1875 17.59375,-125.1875 l -23.34375,0 c 0.089,0.8066 0.15625,1.63842 0.15625,2.46875 0,12.23071 -9.92554,22.125 -22.15625,22.125 -12.23071,0 -22.125,-9.89429 -22.125,-22.125 0,-0.83016 0.036,-1.6623 0.125,-2.46875 l -21.21875,0 z m 35.4375,159.46875 17.6875,0 0,70.875 -17.6875,0 0,-70.875 z"
       transform="translate(0,2.5390623e-6)" />
    <path
       style="fill:#ffd5d5;stroke:#00ff00;stroke-width:0.1;stroke-linecap:butt;stroke-linejoin:miter;stroke-miterlimit:4;stroke-opacity:1;stroke-dasharray:none"
       d="m 449.18776,495.07823 c -25.01208,0.24306 -60.39861,8.03125 -94.875,8.03125 -33.25012,0 -40.13657,11.57958 -32.5625,35.4375 7.57407,23.85792 -8.78279,35.40625 0.375,35.40625 l 14.46875,0 0,-35.40625 17.85364,0 0,35.40625 c 0,0 123.86782,-29.06943 123.86511,-14.9375 0.003,-14.13401 88.83981,6.66897 124.04944,15 l 0,-35.46875 17.71875,0 0.0756,35.40625 14.46875,0 c 9.15779,0 -7.19907,-11.54833 0.375,-35.40625 7.57407,-23.85792 0.68762,-35.4375 -32.5625,-35.4375 -52.53545,0 -107.22276,-18.06065 -124,0 -0.0207,0.0222 -0.0419,0.0403 -0.0625,0.0625 -0.0206,-0.0222 -0.0418,-0.0403 -0.0625,-0.0625 -5.76718,-6.20835 -16.02344,-8.15857 -29.125,-8.03125 z"
       id="path3865"
       inkscape:connector-curvature="0"
       sodipodi:nodetypes="sssscccccccccssscccs" />
    <path
       style="fill:#ffd5d5;stroke:#00ff00;stroke-width:0.1;stroke-miterlimit:4;stroke-dasharray:none"
       d="M 76.8125 768.90625 C 63.699199 768.90625 53.15625 779.4492 53.15625 792.5625 L 53.15625 851.53125 C 53.15625 864.64455 63.699199 875.1875 76.8125 875.1875 L 188.9375 875.1875 C 202.0508 875.1875 212.59375 864.64455 212.59375 851.53125 L 212.59375 792.5625 C 212.59375 779.4492 202.0508 768.90625 188.9375 768.90625 L 76.8125 768.90625 z M 88.59375 813.1875 L 124.03125 813.1875 L 124.03125 830.90625 L 88.59375 830.90625 L 88.59375 813.1875 z M 141.71875 813.1875 L 177.15625 813.1875 L 177.15625 830.90625 L 141.71875 830.90625 L 141.71875 813.1875 z "
       transform="translate(0,2.5390623e-6)"
       id="rect3880" />
    <g
       style="font-size:40px;font-style:italic;font-variant:normal;font-weight:bold;font-stretch:normal;line-height:125%;letter-spacing:0px;word-spacing:0px;fill:#ffd5d5;fill-opacity:1;stroke:#0000ff;stroke-width:0.1;stroke-miterlimit:4;stroke-dasharray:none;font-family:URW Chancery L;-inkscape-font-specification:URW Chancery L Bold Italic"
       id="text3888"
       transform="translate(1.3935103,-159.47668)">
      <path
         d="m 399.90643,698.03149 5.08,0 c 6.59999,0 8.2,-0.12 10.32,-0.88 3.2,-1.07999 6.48,-3.16 8.04,-5.08 2.04,-2.51999 3.48,-6.72 3.48,-10.12 0,-2.75999 -1.44,-4.84 -4.16,-6.04 -1.72,-0.76 -3.76,-1.08 -7.64,-1.32 l 0.28,-1.12 -2.88,1.2 c -3.28,0.56 -5.36,1.28001 -7.48,2.64 -3.4,2.2 -5.04,4.88001 -5.04,8.28 0,0.76 0.04,1.24001 0.28,2.28 l 3.28,-1.48 c -0.24,-1.03999 -0.28,-1.52 -0.28,-2.24 0,-4.75999 2.96001,-7.56 8.56,-8.12 l -3,11.92 c -1.56,6.68 -2.6,7.92 -6.92,8.24 l -1.92,1.84 m 14.8,-22.2 c 2.92,0.12 4.28,0.36 5.52,1 1.96,1.04 3.12,3.24001 3.12,5.92 0,3.44 -1.32,7.72001 -3.12,10 -1.96,2.52 -4.32,3.48 -8.44,3.48 l -0.6,0 -5.12,-0.16 c 4.64,-4.31999 4.64,-4.32 6.44,-11.56 l 2.2,-8.68"
         style="fill:#ffd5d5;stroke:#0000ff;stroke-width:0.1;stroke-miterlimit:4;stroke-dasharray:none"
         id="path3893"
         inkscape:connector-curvature="0" />
      <path
         d="m 444.11518,692.83149 c -3,2 -3.6,2.36 -4,2.36 -0.28,0 -0.48,-0.32 -0.48,-0.8 0,-1.03999 0.96,-5.44 2.4,-10.76 0.44,-0.6 0.52,-0.72 1.16,-1.44 -1.92,-0.44 -3.32,-0.6 -5.04,-0.6 -1.64,0 -2.4,0.16 -3.44,0.8 -1.44,0.84 -3.12,2.08 -3.64,2.64 -1.48,1.68 -3.16,7.08001 -3.16,10.32 0,1.92 0.64,3.2 1.64,3.2 0.88,0 2.20001,-0.8 7.2,-4.4 -0.4,1.84 -0.6,3.08 -0.6,3.56 0,0.52 0.24,0.84 0.64,0.84 0.48,0 0.48,0 3.68,-2.04 1.16,-0.76 2.08,-1.4 3.6,-2.52 l 0.04,-1.16 m -7.8,0.24 c -2.36,1.72 -3.56,2.4 -4.28,2.4 -0.64,0 -1.04,-0.72 -1.04,-2 0,-1.99999 0.64,-4.72 1.64,-7 0.96,-2.19999 1.84,-3.04 3.2,-3.04 0.72,0 1.96,0.2 3.4,0.52 -0.8,3.04 -1.08,3.96 -1.12,4.16 -0.24,1 -0.44,2.00001 -0.68,3.04 -0.04,0.2 -0.16,0.68 -0.36,1.4 l -0.76,0.52"
         style="fill:#ffd5d5;stroke:#0000ff;stroke-width:0.1;stroke-miterlimit:4;stroke-dasharray:none"
         id="path3895"
         inkscape:connector-curvature="0" />
      <path
         d="m 444.83206,698.43149 3.08,-1.16 3,-11.4 c 1.35999,-0.99999 2.28,-1.4 3.36,-1.4 0.87999,0 1.4,0.32001 2.12,1.24 l 1.2,-3.8 c -0.76,-0.24 -1.08,-0.32 -1.48,-0.32 -0.72,0 -1.56001,0.36 -2.64,1.12 l -2.36,1.72 c 0.04,-0.32 0.12,-0.52 0.12,-0.64 0.32,-1.31999 0.36,-1.56 0.36,-1.76 0,-0.24 -0.24,-0.44 -0.52,-0.44 -0.52,0 -4.04001,1.72001 -6.48,3.2 l -0.12,1.08 c 2.15999,-1.11999 2.4,-1.2 2.88,-1.2 0.52,0 0.76,0.28 0.76,0.84 0,0.56 -0.4,2.44001 -0.88,4.16 l -2.4,8.76"
         style="fill:#ffd5d5;stroke:#0000ff;stroke-width:0.1;stroke-miterlimit:4;stroke-dasharray:none"
         id="path3897"
         inkscape:connector-curvature="0" />
      <path
         d="m 456.74331,698.47149 c 0.44,-0.16 0.84,-0.32 0.96,-0.36 0.24,-0.08 0.64,-0.2 1.08,-0.36 0.12,-0.04 0.48,-0.16 0.88,-0.28 l 1.56,-7.12 0.92,-0.56 2.24,5.2 c 1.71999,4.08 2.76,5.72001 4.4,7 1.71999,1.32 4.2,2.16 6.32,2.16 1.83999,0 3.16,-0.4 4.36,-1.4 l -0.8,-2.88 c -1.28,2.16 -2.44001,3 -4.12,3 -1.72,0 -3.44001,-1.36 -4.8,-3.8 -0.8,-1.51999 -0.80001,-1.52001 -5.36,-11.16 l 2.68,-2.44 c 1.55999,-1.39999 2.04,-1.68 2.8,-1.68 0.67999,0 1.16,0.32 1.8,1.16 l 2.04,-3.04 c -0.76,-0.6 -1.36001,-0.8 -2.24,-0.8 -1.04,0 -1.76001,0.36001 -2.96,1.48 -1.28,1.2 -1.32,1.28 -1.72,1.64 l -5.16,4.6 1.52,-6.12 c 1.27999,-5.27999 1.72,-6.56 2.4,-7.68 0.71999,-1.15999 1.76,-1.72 3.12,-1.72 0.4,0 0.68,0.04 1.4,0.16 l 1.6,-2.32 c -0.52,-0.08 -0.8,-0.12 -1.16,-0.12 -1.44,0 -2.40001,0.32001 -3.64,1.24 -2.56,1.8 -4.36,3.56001 -4.88,4.72 -0.4,0.88 -1.16,3.52001 -1.68,5.84 l -3.56,15.64"
         style="fill:#ffd5d5;stroke:#0000ff;stroke-width:0.1;stroke-miterlimit:4;stroke-dasharray:none"
         id="path3899"
         inkscape:connector-curvature="0" />
      <path
         d="m 474.44143,697.99149 c 1.04,0 1.08,0 2.32,0.04 l 1.36,0 1.4,0 c 2.8,0.08 2.8,0.08 3.44,0.08 2.72,0 4.8,-0.52 7.48,-1.88 3.6,-1.79999 5.36,-4.12 5.36,-7 0,-1.23999 -0.6,-2.4 -1.6,-3.16 -0.84,-0.64 -1.72,-0.88 -3.64,-1.08 3.96,-1.79999 5.96,-4 5.96,-6.56 0,-2.63999 -2.16,-3.8 -7.08,-3.8 l -0.64,0 0.32,-1.24 -3.24,1.4 c -3.44,0.52 -5.36,1.12001 -7.2,2.2 -3.2,1.96 -4.84,4.76001 -4.84,8.28 0,0.8 0.08,1.40001 0.28,2.6 l 3.2,-1.48 c -0.36,-1.75999 -0.4,-2.2 -0.4,-2.96 0,-2.71999 0.84,-4.4 2.88,-5.72 1.6,-1.03999 3.2,-1.52 5.72,-1.68 l -2.96,11.84 c -1.68,6.92 -2.36,7.8 -6.24,8.2 l -1.88,1.92 m 11.44,-11.64 c 0.8,-0.08 1.16,-0.08 1.56,-0.08 3.08,0 4.88,1.40001 4.88,3.88 0,1.52 -0.64,3.28001 -1.64,4.4 -1.08,1.24 -2.68,1.88 -4.68,1.88 -1,0 -2.16,-0.12 -5.92,-0.52 3.92,-3.47999 4.56,-4.44 5.4,-8.04 l 0.4,-1.52 m 2.64,-10.6 c 1.96,0.04 2.4,0.12 2.96,0.4 0.96,0.48 1.56,1.64001 1.56,2.92 0,1.88 -0.92,3.80001 -2.32,4.84 -1.2,0.92 -2.4,1.28 -4.56,1.32 l 2.36,-9.48"
         style="fill:#ffd5d5;stroke:#0000ff;stroke-width:0.1;stroke-miterlimit:4;stroke-dasharray:none"
         id="path3901"
         inkscape:connector-curvature="0" />
      <path
         d="m 498.42581,698.43149 3.08,-1.16 3,-11.4 c 1.35999,-0.99999 2.28,-1.4 3.36,-1.4 0.87999,0 1.4,0.32001 2.12,1.24 l 1.2,-3.8 c -0.76,-0.24 -1.08,-0.32 -1.48,-0.32 -0.72,0 -1.56001,0.36 -2.64,1.12 l -2.36,1.72 c 0.04,-0.32 0.12,-0.52 0.12,-0.64 0.32,-1.31999 0.36,-1.56 0.36,-1.76 0,-0.24 -0.24,-0.44 -0.52,-0.44 -0.52,0 -4.04001,1.72001 -6.48,3.2 l -0.12,1.08 c 2.15999,-1.11999 2.4,-1.2 2.88,-1.2 0.52,0 0.76,0.28 0.76,0.84 0,0.56 -0.4,2.44001 -0.88,4.16 l -2.4,8.76"
         style="fill:#ffd5d5;stroke:#0000ff;stroke-width:0.1;stroke-miterlimit:4;stroke-dasharray:none"
         id="path3903"
         inkscape:connector-curvature="0" />
      <path
         d="m 510.13706,686.03149 c 1.67999,-0.84 2.44,-1.16 2.92,-1.16 0.32,0 0.56,0.32 0.56,0.76 0,0.52 -0.40001,2.24001 -1.12,4.96 -1,3.72 -1.24,4.84001 -1.24,6 0,1.12 0.48,1.96 1.12,1.96 0.6,0 1.32,-0.36 3.32,-1.68 l 4.12,-2.68 c -0.32,1.28 -0.56,2.72 -0.56,3.44 0,0.52 0.32,0.92 0.72,0.92 0.79999,0 4.6,-2.24 7.32,-4.28 l 0.28,-1.2 c -3.12,1.84 -4.16,2.4 -4.6,2.4 -0.28,0 -0.44,-0.32 -0.44,-0.96 0,-2.03999 1.48,-8 3.2,-13.08 -0.52,0.28 -0.88,0.48 -1.04,0.56 -0.48,0.24 -0.96,0.48 -1.48,0.72 -0.12,0.04 -0.36,0.16 -0.8,0.4 -0.24,0.92 -1.04001,4.12001 -2.36,9.64 -3.08,2.12 -4.48,2.92 -4.96,2.92 -0.44,0 -0.76,-0.56 -0.76,-1.32 0,-0.91999 0.32,-2.52 1,-5.08 0.44,-1.59999 0.72,-2.72 0.84,-3.28 0.36,-1.47999 0.64,-2.52 0.72,-2.8 0.12,-0.44 0.2,-0.8 0.2,-1.08 0,-0.32 -0.2,-0.52 -0.48,-0.52 -0.4,0 -3.32001,1.56001 -6.2,3.36 l -0.28,1.08"
         style="fill:#ffd5d5;stroke:#0000ff;stroke-width:0.1;stroke-miterlimit:4;stroke-dasharray:none"
         id="path3905"
         inkscape:connector-curvature="0" />
      <path
         d="m 540.61456,692.95149 c -3.08,2.2 -5.20001,3.32 -6.48,3.32 -1.44,0 -2.28,-1.12 -2.28,-3.04 0,-1.91999 0.48,-4.48 1.24,-6.36 0.79999,-2.11999 1.84,-3.2 3,-3.2 0.95999,0 1.48,0.76001 1.68,2.52 l 2.32,-1.36 c 0.04,-0.2 0.04,-0.4 0.04,-0.44 0,-1.71999 -0.88001,-2.8 -2.28,-2.8 -0.72,0 -1.16001,0.16001 -2.6,1.12 -3,1.88 -3.64001,2.48001 -4.52,4.12 -1.12,2.16 -1.96,5.56001 -1.96,8.04 0,2.32 1.08,3.68 2.92,3.68 1.91999,0 5.2,-1.6 8.84,-4.32 l 0.08,-1.28"
         style="fill:#ffd5d5;stroke:#0000ff;stroke-width:0.1;stroke-miterlimit:4;stroke-dasharray:none"
         id="path3907"
         inkscape:connector-curvature="0" />
      <path
         d="m 554.08831,692.55149 c -3,2.6 -4.92001,3.72 -6.44,3.72 -1,0 -1.84,-0.68 -2.12,-1.72 -0.16,-0.64 -0.2,-1.08 -0.2,-2.24 1.79999,-1.11999 3,-1.96 5.36,-3.72 2.15999,-1.63999 3,-2.96 3,-4.76 0,-1.39999 -0.88001,-2.24 -2.28,-2.24 -0.88,0 -1.52001,0.2 -2.44,0.72 -1.52,0.88 -2.88001,1.96001 -3.72,2.92 -1.52,1.84 -2.88,6.24001 -2.88,9.48 0,2.36 1.24,3.84 3.28,3.84 2.35999,0 5.28,-1.68 8.44,-4.84 l 0,-1.16 m -8.64,-1.68 c 0.67999,-4.27999 2.52,-7.6 4.24,-7.6 0.67999,0 1.12,0.68001 1.12,1.64 0,2 -1.08001,3.20001 -5.36,5.96"
         style="fill:#ffd5d5;stroke:#0000ff;stroke-width:0.1;stroke-miterlimit:4;stroke-dasharray:none"
         id="path3909"
         inkscape:connector-curvature="0" />
    </g>
  </g>
</svg>
