<?xml version="1.0" encoding="UTF-8" standalone="no"?>
<!-- Created with Inkscape (http://www.inkscape.org/) -->

<svg
   xmlns:dc="http://purl.org/dc/elements/1.1/"
   xmlns:cc="http://creativecommons.org/ns#"
   xmlns:rdf="http://www.w3.org/1999/02/22-rdf-syntax-ns#"
   xmlns:svg="http://www.w3.org/2000/svg"
   xmlns="http://www.w3.org/2000/svg"
   xmlns:sodipodi="http://sodipodi.sourceforge.net/DTD/sodipodi-0.dtd"
   xmlns:inkscape="http://www.inkscape.org/namespaces/inkscape"
   width="420mm"
   height="297mm"
   viewBox="0 0 1488.189 1052.3622"
   id="svg4565"
   version="1.1"
   inkscape:version="0.91 r13725"
   sodipodi:docname="support_laptop2_print.svg">
  <defs
     id="defs4567" />
  <sodipodi:namedview
     id="base"
     pagecolor="#ffffff"
     bordercolor="#666666"
     borderopacity="1.0"
     inkscape:pageopacity="0.0"
     inkscape:pageshadow="2"
     inkscape:zoom="0.35"
     inkscape:cx="1225.2469"
     inkscape:cy="465.71429"
     inkscape:document-units="px"
     inkscape:current-layer="layer1"
     showgrid="false"
     inkscape:window-width="1920"
     inkscape:window-height="1018"
     inkscape:window-x="-8"
     inkscape:window-y="236"
     inkscape:window-maximized="1" />
  <metadata
     id="metadata4570">
    <rdf:RDF>
      <cc:Work
         rdf:about="">
        <dc:format>image/svg+xml</dc:format>
        <dc:type
           rdf:resource="http://purl.org/dc/dcmitype/StillImage" />
        <dc:title></dc:title>
      </cc:Work>
    </rdf:RDF>
  </metadata>
  <g
     inkscape:label="Calque 1"
     inkscape:groupmode="layer"
     id="layer1"
     transform="translate(0,-1.6535434e-6)">
    <path
       inkscape:connector-curvature="0"
       style="fill:none;stroke:#ff0000;stroke-width:3.54330707;stroke-miterlimit:4;stroke-dasharray:none;stroke-opacity:1"
       d="m 1016.0625,60.888002 c 0,-20.57714 -16.56543,-37.14258 -37.14263,-37.14258 l -917.839832,0 c -20.57714,0 -37.14257,16.56544 -37.14257,37.14258 l 0,634.375018 c 0,20.5771 16.56543,37.1445 37.14257,37.1445 l 917.839832,0 c 20.5772,0 37.14263,-16.5674 37.14263,-37.1445 l 0,-634.375018 z m -124.78519,22.789061 0,91.429687 -10.62891,0 0,-91.429687 10.62891,0 z m 0,237.144537 0,91.42772 -10.62891,0 0,-91.42772 10.62891,0 z m 0,250.00002 0,100 -10.62891,0 0,-100 10.62891,0 z m -57.37305,-158.5723 0,10.6289 -139.85742,0 0,-10.6289 139.85742,0 z m 0,258.5723 0,10.6289 -139.85742,0 0,-10.6289 139.85742,0 z M 647.3027,83.677063 l 0,91.429687 -10.62891,0 0,-91.429687 10.62891,0 z m 0,237.144537 0,91.42772 -10.62891,0 0,-91.42772 10.62891,0 z m 0,250.00002 0,100 -10.62891,0 0,-100 10.62891,0 z m -57.37305,-260.63088 0,10.63086 -139.85742,0 0,-10.63086 139.85742,0 z m 0,250.00198 0,10.6289 -139.85742,0 0,-10.6289 139.85742,0 z M 403.32614,83.677063 l 0,91.429687 -10.62891,0 0,-91.429687 10.62891,0 z m 0,237.144537 0,91.42772 -10.62891,0 0,-91.42772 10.62891,0 z m 0,250.00002 0,100 -10.62891,0 0,-100 10.62891,0 z m -57.37305,-158.5723 0,10.6289 -139.85742,0 0,-10.6289 139.85742,0 z m 0,258.5723 0,10.6289 -139.85742,0 0,-10.6289 139.85742,0 z M 159.35153,83.677063 l 0,91.429687 -10.62891,0 0,-91.429687 10.62891,0 z m 0,237.144537 0,91.42772 -10.62891,0 0,-91.42772 10.62891,0 z m 0,250.00002 0,100 -10.62891,0 0,-100 10.62891,0 z"
       id="rect4184" />
    <path
       inkscape:connector-curvature="0"
       style="fill:none;stroke:#ff0000;stroke-width:3.54330707;stroke-miterlimit:4;stroke-dasharray:none;stroke-opacity:1"
       d="m 20.090943,767.91662 0,10.63086 0,80.6289 a 60.23621,36.043621 0 0 1 60.236297,36.04296 60.23621,36.043621 0 0 1 -60.236297,36.04492 l 0,80.62894 0,10.6289 60.236297,0 0,-10.6289 27.2852,0 62.457,0 0,10.6289 58.5703,0 0,-10.6289 34.9317,0 110.8516,0 0,-46.74417 10.6289,0 0,-139.85741 -10.6289,0 0,-46.74414 -110.8516,0 -34.9317,0 0,-10.63086 -58.5703,0 0,10.63086 -62.457,0 -27.2852,0 0,-10.63086 -60.236297,0 z"
       id="path4388" />
    <text
       xml:space="preserve"
       style="font-style:normal;font-weight:normal;font-size:60px;line-height:125%;font-family:Sans;letter-spacing:0px;word-spacing:0px;fill:#000000;fill-opacity:1;stroke:none;stroke-width:1px;stroke-linecap:butt;stroke-linejoin:miter;stroke-opacity:1"
       x="171.09177"
       y="878.51685"
       id="text4501"
       sodipodi:linespacing="125%"><tspan
         sodipodi:role="line"
         id="tspan4503"
         x="171.09177"
         y="878.51685">2</tspan></text>
    <path
       style="fill:none;stroke:#ff0000;stroke-width:3.54330707;stroke-miterlimit:4;stroke-dasharray:none;stroke-opacity:1"
       d="m 668.31491,1025.3792 0,-10.6308 0,-53.28913 -10.6289,0 0,-126.76558 10.6289,0 0,-63.9199 -10.6309,0 -53.289,0 0,10.6289 -141.36143,0 0,-10.6289 -63.9199,0 0,10.6289 0,53.291 10.6309,0 0,126.76558 -10.6309,0 0,63.91993 63.9199,0 0,-10.6308 141.36143,0 0,10.6308 53.289,0 10.6309,0 z"
       id="rect4467"
       inkscape:connector-curvature="0" />
    <text
       xml:space="preserve"
       style="font-style:normal;font-weight:normal;font-size:60px;line-height:125%;font-family:Sans;letter-spacing:0px;word-spacing:0px;fill:#000000;fill-opacity:1;stroke:none;stroke-width:1px;stroke-linecap:butt;stroke-linejoin:miter;stroke-opacity:1"
       x="451.49286"
       y="890.25299"
       id="text4505"
       sodipodi:linespacing="125%"><tspan
         sodipodi:role="line"
         id="tspan4507"
         x="451.49286"
         y="890.25299">F</tspan></text>
    <text
       xml:space="preserve"
       style="font-style:normal;font-weight:normal;font-size:60px;line-height:125%;font-family:Sans;letter-spacing:0px;word-spacing:0px;fill:#000000;fill-opacity:1;stroke:none;stroke-width:1px;stroke-linecap:butt;stroke-linejoin:miter;stroke-opacity:1"
       x="615.77863"
       y="888.8244"
       id="text4509"
       sodipodi:linespacing="125%"><tspan
         sodipodi:role="line"
         id="tspan4511"
         x="615.77863"
         y="888.8244">B</tspan></text>
    <text
       xml:space="preserve"
       style="font-style:normal;font-weight:normal;font-size:60px;line-height:125%;font-family:Sans;letter-spacing:0px;word-spacing:0px;fill:#000000;fill-opacity:1;stroke:none;stroke-width:1px;stroke-linecap:butt;stroke-linejoin:miter;stroke-opacity:1"
       x="501.49286"
       y="968.00391"
       id="text4513"
       sodipodi:linespacing="125%"><tspan
         sodipodi:role="line"
         id="tspan4515"
         x="501.49286"
         y="968.00391">2</tspan></text>
    <path
       style="fill:none;stroke:#ff0000;stroke-width:3.54330707;stroke-miterlimit:4;stroke-dasharray:none;stroke-opacity:1"
       d="m 1229.6883,782.20233 0,10.63086 0,80.62889 a 60.23621,36.043621 0 0 1 60.2364,36.04297 60.23621,36.043621 0 0 1 -60.2364,36.04493 l 0,80.62892 0,10.6289 60.2364,0 0,-10.6289 89.7422,0 0,10.6289 58.5703,0 0,-10.6289 34.9316,0 0,-233.34571 -34.9316,0 0,-10.63086 -58.5703,0 0,10.63086 -89.7422,0 0,-10.63086 -60.2364,0 z"
       id="rect4310"
       inkscape:connector-curvature="0" />
    <text
       xml:space="preserve"
       style="font-style:normal;font-weight:normal;font-size:60px;line-height:125%;font-family:Sans;letter-spacing:0px;word-spacing:0px;fill:#000000;fill-opacity:1;stroke:none;stroke-width:1px;stroke-linecap:butt;stroke-linejoin:miter;stroke-opacity:1"
       x="1371.7582"
       y="868.36713"
       id="text4364"
       sodipodi:linespacing="125%"><tspan
         sodipodi:role="line"
         id="tspan4366"
         x="1371.7582"
         y="868.36713">2</tspan></text>
    <path
       inkscape:connector-curvature="0"
       style="fill:none;stroke:#ff0000;stroke-width:3.54330707;stroke-miterlimit:4;stroke-dasharray:none;stroke-opacity:1"
       d="m 700.37673,970.86134 10.6289,0 0,46.74416 68.3165,0 0,-53.28906 10.6308,0 0,53.28906 31.9043,0 34.9317,0 0,10.6308 58.5703,0 0,-10.6308 62.457,0 27.28517,0 0,10.6308 60.2363,0 0,-10.6308 0,-80.62886 a 60.23621,36.043621 0 0 1 -60.2363,-36.043 60.23621,36.043621 0 0 1 60.2363,-36.0449 l 0,-80.62891 0,-10.6289 -60.2363,0 0,10.6289 -27.28517,0 -62.457,0 0,-10.6289 -58.5703,0 0,10.6289 -34.9317,0 -31.9043,0 0,38.69531 0,14.5957 -10.6308,0 0,-14.5957 0,-38.69531 -68.3165,0 0,46.74411 -10.6289,0 0,139.8574 z"
       id="path4431" />
    <text
       xml:space="preserve"
       style="font-style:normal;font-weight:normal;font-size:60px;line-height:125%;font-family:Sans;letter-spacing:0px;word-spacing:0px;fill:#000000;fill-opacity:1;stroke:none;stroke-width:1px;stroke-linecap:butt;stroke-linejoin:miter;stroke-opacity:1"
       x="856.22064"
       y="883.43488"
       id="text4517"
       sodipodi:linespacing="125%"><tspan
         sodipodi:role="line"
         id="tspan4519"
         x="856.22064"
         y="883.43488">4</tspan></text>
    <path
       inkscape:connector-curvature="0"
       style="fill:none;fill-rule:evenodd;stroke:#000000;stroke-width:3.54330707;stroke-linecap:butt;stroke-linejoin:miter;stroke-miterlimit:4;stroke-dasharray:none;stroke-opacity:1"
       d="m 1082.091,848.30756 c 0,36.3827 130.588,-95.3927 254.1387,-121.6387 13.4619,-2.8597 26.8402,-4.4668 39.957,-4.4668 l 10.6289,0 0,-10.6308 60.2363,0 0,-275.8145 -60.2363,0 0,-10.6289 60.2363,0 0,-91.4297 -60.2363,0 0,-10.6289 60.2363,0 0,-137.3145 -60.2363,0 0,-10.6289 60.2363,0 0,-100.000003 -60.2363,0 0,-10.6289 60.2363,0 0,-50.957 -354.3301,0 0,61.5859 -10.6308,0 0,100.000003 10.6308,0 0,158.5723 -10.6308,0 0,91.4277 10.6308,0 0,145.7149 -10.6308,0 0,91.4297 10.6308,0 0,59.9316 59.9317,-59.9316 173.4219,-173.4239 50.1113,50.1114 c -114.4159,114.4159 -225.4778,225.4778 -283.4649,283.4648 -8.4865,8.4866 -10.6308,9.8016 -10.6308,25.8848 z m 78.9473,-514.6094 0,-63.9199 10.6308,0 0,63.9199 -10.6308,0 z m 0,-205.2812 0,-63.920003 10.6308,0 0,63.920003 -10.6308,0 z m 77.4648,593.7851 0,-10.6289 58.5723,0 0,10.6289 -58.5723,0 z m 0,-286.4453 0,-10.6289 58.5723,0 0,10.6289 -58.5723,0 z m 0,-102.0586 0,-10.6289 58.5723,0 0,10.6289 -58.5723,0 z m 0,-147.9434 0,-10.6289 58.5723,0 0,10.6289 -58.5723,0 z m 0,-110.628903 0,-10.6289 58.5723,0 0,10.6289 -58.5723,0 z m 79.0996,304.287103 a 24.342409,39.243557 0 0 1 24.3438,-39.2441 24.342409,39.243557 0 0 1 24.3418,39.2441 24.342409,39.243557 0 0 1 -24.3418,39.2442 24.342409,39.243557 0 0 1 -24.3438,-39.2442 z"
       id="path4158" />
    <text
       xml:space="preserve"
       style="font-style:normal;font-weight:normal;font-size:60px;line-height:125%;font-family:Sans;letter-spacing:0px;word-spacing:0px;fill:#000000;fill-opacity:1;stroke:none;stroke-width:1px;stroke-linecap:butt;stroke-linejoin:miter;stroke-opacity:1"
       x="-517.69824"
       y="1165.0393"
       id="text4521"
       sodipodi:linespacing="125%"
       transform="matrix(0,-1,1,0,0,0)"><tspan
         sodipodi:role="line"
         id="tspan4523"
         x="-517.69824"
         y="1165.0393">4</tspan></text>
  </g>
</svg>
