<?xml version="1.0" encoding="UTF-8" standalone="no"?>
<!-- Created with Inkscape (http://www.inkscape.org/) -->

<svg
   xmlns:dc="http://purl.org/dc/elements/1.1/"
   xmlns:cc="http://creativecommons.org/ns#"
   xmlns:rdf="http://www.w3.org/1999/02/22-rdf-syntax-ns#"
   xmlns:svg="http://www.w3.org/2000/svg"
   xmlns="http://www.w3.org/2000/svg"
   xmlns:sodipodi="http://sodipodi.sourceforge.net/DTD/sodipodi-0.dtd"
   xmlns:inkscape="http://www.inkscape.org/namespaces/inkscape"
   width="594mm"
   height="420mm"
   viewBox="0 0 2104.7244 1488.189"
   id="svg2"
   version="1.1"
   inkscape:version="0.91 r13725"
   sodipodi:docname="support_borah.svg">
  <defs
     id="defs4" />
  <sodipodi:namedview
     id="base"
     pagecolor="#ffffff"
     bordercolor="#666666"
     borderopacity="1.0"
     inkscape:pageopacity="0.0"
     inkscape:pageshadow="2"
     inkscape:zoom="0.25"
     inkscape:cx="1108.7683"
     inkscape:cy="1316.5689"
     inkscape:document-units="cm"
     inkscape:current-layer="layer1"
     showgrid="false"
     showguides="true"
     inkscape:guide-bbox="true"
     inkscape:snap-bbox="false"
     inkscape:object-nodes="true"
     inkscape:snap-intersection-paths="true"
     inkscape:window-width="1920"
     inkscape:window-height="1018"
     inkscape:window-x="1192"
     inkscape:window-y="254"
     inkscape:window-maximized="1"
     inkscape:snap-smooth-nodes="true"
     inkscape:object-paths="true">
    <sodipodi:guide
       position="70.866143,0"
       orientation="1,0"
       id="guide3336"
       inkscape:label=""
       inkscape:color="rgb(0,0,255)" />
    <sodipodi:guide
       position="921.25986,0"
       orientation="1,0"
       id="guide3338"
       inkscape:label=""
       inkscape:color="rgb(0,0,255)" />
    <sodipodi:guide
       position="0,70.866143"
       orientation="0,1"
       id="guide3340"
       inkscape:label=""
       inkscape:color="rgb(0,0,255)" />
    <sodipodi:guide
       position="0,496.063"
       orientation="0,1"
       id="guide3342"
       inkscape:label=""
       inkscape:color="rgb(0,0,255)" />
    <sodipodi:guide
       position="0,921.25986"
       orientation="0,1"
       id="guide3344"
       inkscape:label=""
       inkscape:color="rgb(0,0,255)" />
    <sodipodi:guide
       position="496.063,0"
       orientation="1,0"
       id="guide3346"
       inkscape:label=""
       inkscape:color="rgb(0,0,255)" />
    <sodipodi:guide
       position="354.33071,0"
       orientation="1,0"
       id="guide3350"
       inkscape:label=""
       inkscape:color="rgb(0,0,255)" />
    <sodipodi:guide
       position="343.70079,0"
       orientation="1,0"
       id="guide3354"
       inkscape:label=""
       inkscape:color="rgb(0,0,255)" />
    <sodipodi:guide
       position="0,797.24411"
       orientation="0,1"
       id="guide3358"
       inkscape:label=""
       inkscape:color="rgb(0,0,255)" />
    <sodipodi:guide
       position="343.69794,882.3931"
       orientation="0,1"
       id="guide3360"
       inkscape:label=""
       inkscape:color="rgb(0,0,255)" />
    <sodipodi:guide
       position="343.69794,109.73292"
       orientation="0,1"
       id="guide3362"
       inkscape:label=""
       inkscape:color="rgb(0,0,255)" />
    <sodipodi:guide
       position="343.69794,99.103003"
       orientation="0,1"
       id="guide3364" />
    <sodipodi:guide
       position="343.69794,893.02302"
       orientation="0,1"
       id="guide3366" />
    <sodipodi:guide
       orientation="1,0"
       position="1062.9921,0"
       id="guide3313" />
    <sodipodi:guide
       orientation="1,0"
       position="1052.3622,0"
       id="guide3315" />
    <sodipodi:guide
       orientation="0,1"
       position="0,786.61419"
       id="guide3317" />
    <sodipodi:guide
       orientation="1,0"
       position="1417.3228,0"
       id="guide3323" />
    <sodipodi:guide
       orientation="1,0"
       position="1346.4567,0"
       id="guide3325" />
    <sodipodi:guide
       orientation="0,1"
       position="0,673.22835"
       id="guide3337" />
    <sodipodi:guide
       orientation="0,1"
       position="0,683.85827"
       id="guide3339" />
    <sodipodi:guide
       orientation="1,0"
       position="1240.2653,579.82756"
       id="guide3341" />
    <sodipodi:guide
       orientation="1,0"
       position="420.02143,608.11183"
       id="guide3347" />
    <sodipodi:guide
       orientation="1,0"
       position="280.01429,601.04076"
       id="guide3351" />
    <sodipodi:guide
       orientation="0,1"
       position="883.88348,733.97684"
       id="guide3355" />
    <sodipodi:guide
       orientation="0,1"
       position="0,283.46457"
       id="guide3361" />
    <sodipodi:guide
       orientation="0,1"
       position="0,294.09449"
       id="guide3363" />
    <sodipodi:guide
       orientation="0,1"
       position="970.1505,579.82756"
       id="guide3368" />
    <sodipodi:guide
       orientation="0,1"
       position="981.46421,403.05087"
       id="guide3370" />
    <sodipodi:guide
       orientation="1,0"
       position="199.40411,579.82756"
       id="guide3379" />
    <sodipodi:guide
       orientation="1,0"
       position="127.76852,283.44699"
       id="guide3385" />
    <sodipodi:guide
       orientation="0,1"
       position="0,1062.9921"
       id="guide3387" />
    <sodipodi:guide
       orientation="0,1"
       position="0,1417.3228"
       id="guide3389" />
    <sodipodi:guide
       orientation="0,1"
       position="0,1427.9528"
       id="guide3391" />
    <sodipodi:guide
       orientation="0,1"
       position="1116.2599,1240.1716"
       id="guide3412" />
    <sodipodi:guide
       orientation="0,1"
       position="343.70077,344.21311"
       id="guide3432" />
    <sodipodi:guide
       orientation="0,1"
       position="343.70077,190.06382"
       id="guide3434" />
    <sodipodi:guide
       position="0,1073.6221"
       orientation="0,1"
       id="guide4256"
       inkscape:label=""
       inkscape:color="rgb(0,0,255)" />
    <sodipodi:guide
       position="1406.6929,0"
       orientation="1,0"
       id="guide4263"
       inkscape:label=""
       inkscape:color="rgb(0,0,255)" />
    <sodipodi:guide
       position="712.11177,673.2284"
       orientation="1,0"
       id="guide4279" />
    <sodipodi:guide
       position="637.79493,344.21238"
       orientation="1,0"
       id="guide4394" />
    <sodipodi:guide
       position="648.42579,344.21238"
       orientation="1,0"
       id="guide4396" />
  </sodipodi:namedview>
  <metadata
     id="metadata7">
    <rdf:RDF>
      <cc:Work
         rdf:about="">
        <dc:format>image/svg+xml</dc:format>
        <dc:type
           rdf:resource="http://purl.org/dc/dcmitype/StillImage" />
        <dc:title />
      </cc:Work>
    </rdf:RDF>
  </metadata>
  <g
     inkscape:label="Layer 1"
     inkscape:groupmode="layer"
     id="layer1"
     transform="translate(0,435.82677)">
    <path
       style="fill:#ffd5d5;stroke:#ff0000;stroke-width:1px;stroke-linecap:butt;stroke-linejoin:miter;stroke-opacity:1"
       d="M 70.875 566.9375 L 70.875 992.125 C 70.875 1065.2248 89.323457 1134.0132 121.81445 1194.0938 L 199.4043 1194.0938 L 199.4043 1204.7246 L 127.76562 1204.7246 C 201.28235 1331.8098 338.68237 1417.3125 496.0625 1417.3125 C 653.44263 1417.3125 790.84265 1331.8098 864.35938 1204.7246 L 792.72266 1204.7246 L 792.72266 1194.0938 L 870.31055 1194.0938 C 902.80156 1134.0128 921.25 1065.2248 921.25 992.125 L 921.25 566.9375 L 820.66016 566.9375 A 35.817795 71.309113 0 0 1 784.8418 638.24609 A 35.817795 71.309113 0 0 1 749.02539 566.9375 L 496.0625 566.9375 L 243.10156 566.9375 A 35.817795 71.309113 0 0 1 207.2832 638.24609 A 35.817795 71.309113 0 0 1 171.46484 566.9375 L 70.875 566.9375 z M 343.70117 595.16602 L 354.33008 595.16602 L 354.33008 701.57422 L 343.70117 701.57422 L 343.70117 595.16602 z M 637.79492 595.16602 L 648.42578 595.16602 L 648.42578 701.57422 L 637.79492 701.57422 L 637.79492 595.16602 z M 343.70117 754.21289 L 354.33008 754.21289 L 354.33008 804.33008 L 420.02148 804.33008 L 420.02148 814.96094 L 354.33008 814.96094 L 354.33008 908.36133 L 343.70117 908.36133 L 343.70117 814.96094 L 280.01367 814.96094 L 280.01367 804.33008 L 343.70117 804.33008 L 343.70117 754.21289 z M 637.79492 754.21289 L 648.42578 754.21289 L 648.42578 804.33008 L 712.11133 804.33008 L 712.11133 814.96094 L 648.42578 814.96094 L 648.42578 908.36133 L 637.79492 908.36133 L 637.79492 814.96094 L 572.10547 814.96094 L 572.10547 804.33008 L 637.79492 804.33008 L 637.79492 754.21289 z M 127.76758 804.33008 L 199.4043 804.33008 L 199.4043 814.96094 L 127.76758 814.96094 L 127.76758 804.33008 z M 792.72266 804.33008 L 864.35742 804.33008 L 864.35742 814.96094 L 792.72266 814.96094 L 792.72266 804.33008 z M 343.70117 1085.1387 L 354.33008 1085.1387 L 354.33008 1143.9766 L 354.33008 1194.0938 L 420.02148 1194.0938 L 420.02148 1204.7246 L 354.33008 1204.7246 L 354.33008 1298.125 L 343.70117 1298.125 L 343.70117 1204.7246 L 280.01367 1204.7246 L 280.01367 1194.0938 L 343.70117 1194.0938 L 343.70117 1143.9766 L 343.70117 1085.1387 z M 637.79492 1085.1387 L 648.42578 1085.1387 L 648.42578 1143.9766 L 648.42578 1194.0938 L 712.11133 1194.0938 L 712.11133 1204.7246 L 648.42578 1204.7246 L 648.42578 1298.125 L 637.79492 1298.125 L 637.79492 1204.7246 L 572.10547 1204.7246 L 572.10547 1194.0938 L 637.79492 1194.0938 L 637.79492 1143.9766 L 637.79492 1085.1387 z "
       transform="translate(0,-435.82677)"
       id="path3348" />
    <path
       style="fill:#ffe6d5;fill-rule:nonzero;stroke:#00ff00;stroke-width:0.35433072;stroke-miterlimit:4;stroke-opacity:1;stroke-dasharray:none"
       d="M 1063 566.9375 L 1063 595.15625 L 1052.375 595.15625 L 1052.375 701.5625 L 1063 701.5625 L 1063 754.21875 L 1052.375 754.21875 L 1052.375 804.34375 L 1240.1562 804.34375 L 1240.1562 814.96875 L 1052.375 814.96875 L 1052.375 908.375 L 1063 908.375 L 1063 1085.125 L 1052.375 1085.125 L 1052.375 1194.0938 L 1240.1562 1194.0938 L 1240.1562 1204.7188 L 1052.375 1204.7188 L 1052.375 1298.125 L 1063 1298.125 L 1063 1389.0938 L 1190.7812 1389.0938 L 1346.4688 1389.0938 L 1417.3125 1389.0938 L 1417.3125 1194.0938 L 1417.3223 1194.0938 L 1417.3223 1085.1387 L 1406.6934 1085.1387 L 1406.6934 908.36133 L 1417.3125 908.36133 L 1417.3125 690.9375 L 1346.4688 690.9375 L 1346.4688 566.9375 L 1270.666 566.9375 A 35.817795 71.309113 0 0 1 1234.8477 638.24609 A 35.817795 71.309113 0 0 1 1199.0312 566.9375 L 1063 566.9375 z "
       transform="translate(0,-435.82677)"
       id="rect3327" />
    <path
       style="fill:#ffe6d5;fill-rule:nonzero;stroke:#00ff00;stroke-width:0.35433072;stroke-miterlimit:4;stroke-opacity:1;stroke-dasharray:none"
       d="M 127.78125 60.25 L 127.78125 70.875 L 70.875 70.875 L 70.875 425.1875 L 343.6875 425.1875 L 343.6875 248.03125 L 354.34375 248.03125 L 354.34375 425.1875 L 420.02148 425.1875 L 420.02148 414.56641 L 496.0625 414.56641 L 496.0625 70.875 L 420.03125 70.875 L 420.03125 60.25 L 280 60.25 L 280 70.875 L 199.40625 70.875 L 199.40625 60.25 L 127.78125 60.25 z "
       transform="translate(0,-435.82677)"
       id="rect3399" />
    <path
       style="fill:none;stroke:#000000;stroke-width:1px;stroke-linecap:butt;stroke-linejoin:miter;stroke-opacity:1"
       d="m 496.063,131.10235 -10e-6,921.25985"
       id="path3438"
       inkscape:connector-curvature="0"
       sodipodi:nodetypes="cc" />
    <text
       xml:space="preserve"
       style="font-size:40px;font-style:normal;font-weight:normal;line-height:125%;letter-spacing:0px;word-spacing:0px;fill:#000000;fill-opacity:1;stroke:none;font-family:Sans"
       x="1149.7556"
       y="942.30255"
       id="text3443"
       sodipodi:linespacing="125%"
       transform="translate(-7.4776783e-6,-435.82677)"><tspan
         sodipodi:role="line"
         id="tspan3445"
         x="1149.7556"
         y="942.30255">2</tspan></text>
    <text
       xml:space="preserve"
       style="font-size:40px;font-style:normal;font-weight:normal;line-height:125%;letter-spacing:0px;word-spacing:0px;fill:#000000;fill-opacity:1;stroke:none;font-family:Sans"
       x="659.0235"
       y="165.89928"
       id="text3447"
       sodipodi:linespacing="125%"
       transform="translate(-7.4776783e-6,-435.82677)"><tspan
         sodipodi:role="line"
         id="tspan3449"
         x="659.0235"
         y="165.89928">1</tspan></text>
    <path
       sodipodi:type="arc"
       style="fill:#ffd5d5;fill-rule:nonzero;stroke:#00ff00;stroke-width:0.35433071999999999;stroke-miterlimit:4;stroke-opacity:1;stroke-dasharray:none"
       id="path3454"
       sodipodi:cx="203.8914"
       sodipodi:cy="334.1907"
       sodipodi:rx="76.122887"
       sodipodi:ry="48.08326"
       d="M 280.01429,334.1907 A 76.122887,48.08326 0 0 1 203.8914,382.27396 76.122887,48.08326 0 0 1 127.76852,334.1907 76.122887,48.08326 0 0 1 203.8914,286.10744 76.122887,48.08326 0 0 1 280.01429,334.1907 Z"
       transform="translate(31.843239,-446.90313)" />
    <path
       transform="translate(31.843239,-597.06891)"
       d="M 280.01429,334.1907 A 76.122887,48.08326 0 0 1 203.8914,382.27396 76.122887,48.08326 0 0 1 127.76852,334.1907 76.122887,48.08326 0 0 1 203.8914,286.10744 76.122887,48.08326 0 0 1 280.01429,334.1907 Z"
       sodipodi:ry="48.08326"
       sodipodi:rx="76.122887"
       sodipodi:cy="334.1907"
       sodipodi:cx="203.8914"
       id="path3458"
       style="fill:#ffd5d5;fill-rule:nonzero;stroke:#00ff00;stroke-width:0.35433071999999999;stroke-miterlimit:4;stroke-opacity:1;stroke-dasharray:none"
       sodipodi:type="arc" />
    <path
       sodipodi:nodetypes="cc"
       inkscape:connector-curvature="0"
       id="path3500"
       d="m 496.06301,131.10235 10e-6,921.25985"
       style="fill:none;stroke:#000000;stroke-width:1px;stroke-linecap:butt;stroke-linejoin:miter;stroke-opacity:1" />
    <path
       transform="translate(292.1716,-446.90313)"
       d="M 280.01429,334.1907 A 76.122887,48.08326 0 0 1 203.8914,382.27396 76.122887,48.08326 0 0 1 127.76852,334.1907 76.122887,48.08326 0 0 1 203.8914,286.10744 76.122887,48.08326 0 0 1 280.01429,334.1907 Z"
       sodipodi:ry="48.08326"
       sodipodi:rx="76.122887"
       sodipodi:cy="334.1907"
       sodipodi:cx="203.8914"
       id="path3526"
       style="fill:#ffd5d5;fill-rule:nonzero;stroke:#00ff00;stroke-width:0.35433071999999999;stroke-miterlimit:4;stroke-opacity:1;stroke-dasharray:none"
       sodipodi:type="arc" />
    <ellipse
       style="fill:#ffd5d5;fill-rule:nonzero;stroke:#00ff00;stroke-width:0.35433072;stroke-miterlimit:4;stroke-dasharray:none;stroke-opacity:1"
       id="path4196"
       cx="496.06299"
       cy="-262.8782"
       rx="76.122887"
       ry="48.08326" />
    <g
       id="g4315"
       transform="translate(1201.2531,-2.9771803e-4)">
      <path
         id="path4284"
         transform="translate(0,-435.82677)"
         d="m 496.0625,754.21289 c -91.22143,6.2354 -129.4915,25.07691 -141.73242,50.11719 l 65.6914,0 0,10.63086 -65.6914,0 0,53.80273 0,39.59766 -10.62891,0 0,-43.83985 c -36.64088,8.62856 -64.5065,36.56518 -63.6875,127.60547 -0.819,91.04025 27.04662,143.77765 63.6875,152.40625 l 0,-59.3945 10.62891,0 0,55.1523 0,53.8028 65.6914,0 0,10.6308 -65.6914,0 c 12.24092,25.0403 50.51099,43.8818 141.73242,50.1172 91.22143,-6.2354 129.4915,-25.0769 141.73242,-50.1172 l -65.68945,0 0,-10.6308 65.68945,0 0,-53.8028 0,-55.1523 10.63086,0 0,59.3945 c 36.64088,-8.6286 64.50455,-61.366 63.68555,-152.40625 0.819,-91.04029 -27.04467,-118.97691 -63.68555,-127.60547 l 0,43.83985 -10.63086,0 0,-39.59766 0,-53.80273 -65.68945,0 0,-10.63086 65.68945,0 C 625.554,779.2898 587.28393,760.44829 496.0625,754.21289 Z m 0,68.32617 c 3.05491,0.23434 5.7142,0.53766 8.59961,0.80469 a 68.055053,68.055053 0 0 0 65.08398,59.54687 l 0,25.47071 a 68.055053,68.055053 0 0 0 68.04883,68.04883 l 5.99219,0 c 0.20432,4.6611 0.32867,9.61658 0.2793,15.10546 a 68.055053,68.055053 0 0 0 0,1.22266 c 0.0786,8.73832 -0.22755,16.81162 -0.75782,24.35152 l -5.51367,0 a 68.055053,68.055053 0 0 0 -68.04883,68.0489 l 0,40.9902 a 68.055053,68.055053 0 0 0 -65.10742,59.584 c -2.87801,0.2662 -5.52958,0.569 -8.57617,0.8027 -3.05422,-0.2343 -5.71286,-0.5377 -8.59766,-0.8047 a 68.055053,68.055053 0 0 0 -65.08593,-59.5468 l 0,-41.0254 a 68.055053,68.055053 0 0 0 -68.04883,-68.0489 l -5.51367,0 c -0.53029,-7.5398 -0.83643,-15.6133 -0.75782,-24.35152 a 68.055053,68.055053 0 0 0 0,-1.22266 c -0.0494,-5.48881 0.075,-10.44444 0.2793,-15.10546 l 5.99219,0 a 68.055053,68.055053 0 0 0 68.04883,-68.04883 l 0,-25.43555 a 68.055053,68.055053 0 0 0 65.10937,-59.58398 c 2.8774,-0.26616 5.52832,-0.56909 8.57422,-0.80274 z"
         style="fill:#ffd5d5;fill-rule:evenodd;stroke:#000000;stroke-width:1px;stroke-linecap:butt;stroke-linejoin:miter;stroke-opacity:1"
         inkscape:connector-curvature="0" />
      <text
         sodipodi:linespacing="125%"
         id="text4311"
         y="744.85596"
         x="375.85486"
         style="font-style:normal;font-weight:normal;font-size:60px;line-height:125%;font-family:Sans;letter-spacing:0px;word-spacing:0px;fill:#000000;fill-opacity:1;stroke:none;stroke-width:1px;stroke-linecap:butt;stroke-linejoin:miter;stroke-opacity:1"
         xml:space="preserve"><tspan
           y="744.85596"
           x="375.85486"
           id="tspan4313"
           sodipodi:role="line">F</tspan></text>
    </g>
    <text
       xml:space="preserve"
       style="font-style:normal;font-weight:normal;font-size:60px;line-height:125%;font-family:Sans;letter-spacing:0px;word-spacing:0px;fill:#000000;fill-opacity:1;stroke:none;stroke-width:1px;stroke-linecap:butt;stroke-linejoin:miter;stroke-opacity:1"
       x="1134.1993"
       y="895.38452"
       id="text4320"
       sodipodi:linespacing="125%"><tspan
         sodipodi:role="line"
         id="tspan4322"
         x="1134.1993"
         y="895.38452">F</tspan></text>
    <path
       style="fill:#ffe6d5;fill-rule:nonzero;stroke:#00ff00;stroke-width:0.35433072;stroke-miterlimit:4;stroke-dasharray:none;stroke-opacity:1"
       d="M 127.77148 -413.75 L 127.77148 -403.125 L 70.865234 -403.125 L 70.865234 -48.8125 L 343.67773 -48.8125 L 343.67773 -225.96875 L 354.33398 -225.96875 L 354.33398 -48.8125 L 420.01172 -48.8125 L 420.01172 -59.433594 L 496.05273 -59.433594 L 572.09375 -59.433594 L 572.09375 -48.8125 L 637.77148 -48.8125 L 637.77148 -225.96875 L 648.42773 -225.96875 L 648.42773 -48.8125 L 921.24023 -48.8125 L 921.24023 -403.125 L 864.33398 -403.125 L 864.33398 -413.75 L 792.70898 -413.75 L 792.70898 -403.125 L 712.11523 -403.125 L 712.11523 -413.75 L 572.08398 -413.75 L 572.08398 -403.125 L 496.05273 -403.125 L 420.02148 -403.125 L 420.02148 -413.75 L 279.99023 -413.75 L 279.99023 -403.125 L 199.39648 -403.125 L 199.39648 -413.75 L 127.77148 -413.75 z M 235.72656 -349.13477 A 76.122887 48.08326 0 0 1 311.84961 -301.05078 A 76.122887 48.08326 0 0 1 235.72656 -252.96875 A 76.122887 48.08326 0 0 1 159.60352 -301.05078 A 76.122887 48.08326 0 0 1 235.72656 -349.13477 z M 496.05469 -349.13477 A 76.122887 48.08326 0 0 1 572.17773 -301.05078 A 76.122887 48.08326 0 0 1 496.05469 -252.96875 A 76.122887 48.08326 0 0 1 419.93164 -301.05078 A 76.122887 48.08326 0 0 1 496.05469 -349.13477 z M 756.37891 -349.13477 A 76.122887 48.08326 0 0 1 832.50195 -301.05078 A 76.122887 48.08326 0 0 1 756.37891 -252.96875 A 76.122887 48.08326 0 0 1 680.25586 -301.05078 A 76.122887 48.08326 0 0 1 756.37891 -349.13477 z M 235.72656 -198.96875 A 76.122887 48.08326 0 0 1 311.84961 -150.88477 A 76.122887 48.08326 0 0 1 235.72656 -102.80273 A 76.122887 48.08326 0 0 1 159.60352 -150.88477 A 76.122887 48.08326 0 0 1 235.72656 -198.96875 z M 496.05469 -198.96875 A 76.122887 48.08326 0 0 1 572.17773 -150.88477 A 76.122887 48.08326 0 0 1 496.05469 -102.80273 A 76.122887 48.08326 0 0 1 419.93164 -150.88477 A 76.122887 48.08326 0 0 1 496.05469 -198.96875 z M 756.37891 -198.96875 A 76.122887 48.08326 0 0 1 832.50195 -150.88477 A 76.122887 48.08326 0 0 1 756.37891 -102.80273 A 76.122887 48.08326 0 0 1 680.25586 -150.88477 A 76.122887 48.08326 0 0 1 756.37891 -198.96875 z "
       transform="translate(0,-435.82677)"
       id="path4329" />
    <path
       style="fill:#ffe6d5;fill-rule:nonzero;stroke:#00ff00;stroke-width:0.35433072;stroke-miterlimit:4;stroke-dasharray:none;stroke-opacity:1"
       d="M 127.77148 -835.75 L 127.77148 -825.125 L 127.76758 -825.125 L 127.76758 -470.8125 L 343.67773 -470.8125 L 343.67773 -647.96875 L 354.33398 -647.96875 L 354.33398 -470.8125 L 420.01172 -470.8125 L 420.01172 -481.43359 L 496.05273 -481.43359 L 572.09375 -481.43359 L 572.09375 -470.8125 L 637.77148 -470.8125 L 637.77148 -647.96875 L 648.42773 -647.96875 L 648.42773 -470.8125 L 864.33789 -470.8125 L 864.33789 -825.125 L 864.33398 -825.125 L 864.33398 -835.75 L 792.70898 -835.75 L 792.70898 -825.125 L 712.11523 -825.125 L 712.11523 -835.75 L 572.08398 -835.75 L 572.08398 -825.125 L 496.05273 -825.125 L 420.02148 -825.125 L 420.02148 -835.75 L 279.99023 -835.75 L 279.99023 -825.125 L 199.39648 -825.125 L 199.39648 -835.75 L 127.77148 -835.75 z M 235.72656 -771.13477 A 76.122887 48.08326 0 0 1 311.84961 -723.05078 A 76.122887 48.08326 0 0 1 235.72656 -674.96875 A 76.122887 48.08326 0 0 1 159.60352 -723.05078 A 76.122887 48.08326 0 0 1 235.72656 -771.13477 z M 496.05469 -771.13477 A 76.122887 48.08326 0 0 1 572.17773 -723.05078 A 76.122887 48.08326 0 0 1 496.05469 -674.96875 A 76.122887 48.08326 0 0 1 419.93164 -723.05078 A 76.122887 48.08326 0 0 1 496.05469 -771.13477 z M 756.37891 -771.13477 A 76.122887 48.08326 0 0 1 832.50195 -723.05078 A 76.122887 48.08326 0 0 1 756.37891 -674.96875 A 76.122887 48.08326 0 0 1 680.25586 -723.05078 A 76.122887 48.08326 0 0 1 756.37891 -771.13477 z M 235.72656 -620.96875 A 76.122887 48.08326 0 0 1 311.84961 -572.88477 A 76.122887 48.08326 0 0 1 235.72656 -524.80273 A 76.122887 48.08326 0 0 1 159.60352 -572.88477 A 76.122887 48.08326 0 0 1 235.72656 -620.96875 z M 496.05469 -620.96875 A 76.122887 48.08326 0 0 1 572.17773 -572.88477 A 76.122887 48.08326 0 0 1 496.05469 -524.80273 A 76.122887 48.08326 0 0 1 419.93164 -572.88477 A 76.122887 48.08326 0 0 1 496.05469 -620.96875 z M 756.37891 -620.96875 A 76.122887 48.08326 0 0 1 832.50195 -572.88477 A 76.122887 48.08326 0 0 1 756.37891 -524.80273 A 76.122887 48.08326 0 0 1 680.25586 -572.88477 A 76.122887 48.08326 0 0 1 756.37891 -620.96875 z "
       transform="translate(0,-435.82677)"
       id="path4339" />
  </g>
</svg>
