<?xml version="1.0" encoding="UTF-8" standalone="no"?>
<!-- Created with Inkscape (http://www.inkscape.org/) -->

<svg
   xmlns:dc="http://purl.org/dc/elements/1.1/"
   xmlns:cc="http://creativecommons.org/ns#"
   xmlns:rdf="http://www.w3.org/1999/02/22-rdf-syntax-ns#"
   xmlns:svg="http://www.w3.org/2000/svg"
   xmlns="http://www.w3.org/2000/svg"
   xmlns:sodipodi="http://sodipodi.sourceforge.net/DTD/sodipodi-0.dtd"
   xmlns:inkscape="http://www.inkscape.org/namespaces/inkscape"
   width="594mm"
   height="420mm"
   viewBox="0 0 2104.7244 1488.189"
   id="svg2"
   version="1.1"
   inkscape:version="0.91 r13725"
   sodipodi:docname="support_laptop2.svg">
  <defs
     id="defs4" />
  <sodipodi:namedview
     id="base"
     pagecolor="#ffffff"
     bordercolor="#666666"
     borderopacity="1.0"
     inkscape:pageopacity="0.0"
     inkscape:pageshadow="2"
     inkscape:zoom="0.24748737"
     inkscape:cx="962.78289"
     inkscape:cy="1200.6791"
     inkscape:document-units="cm"
     inkscape:current-layer="layer1"
     showgrid="false"
     showguides="true"
     inkscape:guide-bbox="true"
     inkscape:snap-smooth-nodes="true"
     inkscape:snap-intersection-paths="true"
     inkscape:object-nodes="true"
     inkscape:window-width="1920"
     inkscape:window-height="1018"
     inkscape:window-x="-8"
     inkscape:window-y="236"
     inkscape:window-maximized="1">
    <sodipodi:guide
       position="0,177.16536"
       orientation="0,1"
       id="guide4136"
       inkscape:label=""
       inkscape:color="rgb(0,0,255)" />
    <sodipodi:guide
       position="0,248.0315"
       orientation="0,1"
       id="guide4138"
       inkscape:label=""
       inkscape:color="rgb(0,0,255)" />
    <sodipodi:guide
       position="0,237.40158"
       orientation="0,1"
       id="guide4140"
       inkscape:label=""
       inkscape:color="rgb(0,0,255)" />
    <sodipodi:guide
       position="531.49607,0"
       orientation="1,0"
       id="guide4142"
       inkscape:label=""
       inkscape:color="rgb(0,0,255)" />
    <sodipodi:guide
       position="0,531.49608"
       orientation="0,1"
       id="guide4144"
       inkscape:label=""
       inkscape:color="rgb(0,0,255)" />
    <sodipodi:guide
       position="0,542.126"
       orientation="0,1"
       id="guide4146"
       inkscape:label=""
       inkscape:color="rgb(0,0,255)" />
    <sodipodi:guide
       position="1240.1575,0"
       orientation="1,0"
       id="guide4148"
       inkscape:label=""
       inkscape:color="rgb(0,0,255)" />
    <sodipodi:guide
       position="531.49607,531.49608"
       orientation="0.70710678,0.70710678"
       id="guide4150"
       inkscape:label=""
       inkscape:color="rgb(0,0,255)" />
    <sodipodi:guide
       position="120.2806,842.49169"
       orientation="0.70710678,0.70710678"
       id="guide4154"
       inkscape:label=""
       inkscape:color="rgb(0,0,255)" />
    <sodipodi:guide
       position="714.74079,248.0315"
       orientation="-0.70710678,0.70710678"
       id="guide4156"
       inkscape:label=""
       inkscape:color="rgb(0,0,255)" />
    <sodipodi:guide
       position="591.42858,542.126"
       orientation="1,0"
       id="guide4160" />
    <sodipodi:guide
       position="682.85715,542.126"
       orientation="1,0"
       id="guide4162" />
    <sodipodi:guide
       position="828.57144,542.126"
       orientation="1,0"
       id="guide4164" />
    <sodipodi:guide
       position="920.00002,542.126"
       orientation="1,0"
       id="guide4166" />
    <sodipodi:guide
       position="1078.5714,542.126"
       orientation="1,0"
       id="guide4168" />
    <sodipodi:guide
       position="1178.5714,542.126"
       orientation="1,0"
       id="guide4170" />
    <sodipodi:guide
       position="0,708.66143"
       orientation="0,1"
       id="guide4180"
       inkscape:label=""
       inkscape:color="rgb(0,0,255)" />
    <sodipodi:guide
       position="0,1700.7874"
       orientation="0,1"
       id="guide4182"
       inkscape:label=""
       inkscape:color="rgb(0,0,255)" />
    <sodipodi:guide
       position="1734.3307,1576.0024"
       orientation="0,1"
       id="guide4200" />
    <sodipodi:guide
       position="1734.3307,1565.3725"
       orientation="0,1"
       id="guide4202" />
    <sodipodi:guide
       position="1734.3307,1332.0271"
       orientation="0,1"
       id="guide4204" />
    <sodipodi:guide
       position="1734.3307,1321.3972"
       orientation="0,1"
       id="guide4206" />
    <sodipodi:guide
       position="1734.3307,1088.0517"
       orientation="0,1"
       id="guide4208" />
    <sodipodi:guide
       position="1734.3307,1077.4217"
       orientation="0,1"
       id="guide4210" />
    <sodipodi:guide
       position="1734.3307,844.07629"
       orientation="0,1"
       id="guide4212" />
    <sodipodi:guide
       position="1734.3307,833.44636"
       orientation="0,1"
       id="guide4214" />
    <sodipodi:guide
       position="682.85715,452.54835"
       orientation="0,1"
       id="guide4231" />
    <sodipodi:guide
       position="542.12599,0"
       orientation="1,0"
       id="guide4235"
       inkscape:label=""
       inkscape:color="rgb(0,0,255)" />
    <sodipodi:guide
       position="542.12599,420.645"
       orientation="0,1"
       id="guide4237" />
    <sodipodi:guide
       position="542.12599,385.7143"
       orientation="0,1"
       id="guide4241" />
    <sodipodi:guide
       position="542.12599,327.14287"
       orientation="0,1"
       id="guide4243" />
    <sodipodi:guide
       position="106.42857,1565.3725"
       orientation="1,0"
       id="guide4260" />
    <sodipodi:guide
       position="166.66478,667.966"
       orientation="1,0"
       id="guide4304" />
    <sodipodi:guide
       position="256.40599,667.966"
       orientation="1,0"
       id="guide4306" />
    <sodipodi:guide
       position="314.97741,667.966"
       orientation="1,0"
       id="guide4308" />
    <sodipodi:guide
       position="349.90819,667.966"
       orientation="1,0"
       id="guide4314" />
    <sodipodi:guide
       position="460.75884,344.04908"
       orientation="1,0"
       id="guide4360" />
    <sodipodi:guide
       position="471.38921,297.5821"
       orientation="1,0"
       id="guide4362" />
    <sodipodi:guide
       position="-436.3859,1274.6533"
       orientation="0,1"
       id="guide4376" />
    <sodipodi:guide
       position="-436.3859,1134.7956"
       orientation="0,1"
       id="guide4378" />
    <sodipodi:guide
       position="817.94152,1224.3049"
       orientation="1,0"
       id="guide4380"
       inkscape:label=""
       inkscape:color="rgb(0,0,255)" />
    <sodipodi:guide
       position="1067.9425,385.7143"
       orientation="1,0"
       id="guide4382" />
    <sodipodi:guide
       position="930.62893,327.14287"
       orientation="1,0"
       id="guide4384" />
    <sodipodi:guide
       position="1189.2003,327.14287"
       orientation="1,0"
       id="guide4386" />
    <sodipodi:guide
       position="460.7605,1518.6284"
       orientation="0,1"
       id="guide4399" />
    <sodipodi:guide
       position="460.7605,1378.7709"
       orientation="0,1"
       id="guide4401" />
    <sodipodi:guide
       position="460.7605,1030.6779"
       orientation="0,1"
       id="guide4403" />
    <sodipodi:guide
       position="460.7605,890.82044"
       orientation="0,1"
       id="guide4405" />
    <sodipodi:guide
       position="1394.0105,463.17827"
       orientation="0,1"
       id="guide4433"
       inkscape:label=""
       inkscape:color="rgb(0,0,255)" />
    <sodipodi:guide
       position="1790.0466,208.57174"
       orientation="0,1"
       id="guide4439" />
    <sodipodi:guide
       position="1343.2539,452.54836"
       orientation="1,0"
       id="guide4441" />
    <sodipodi:guide
       position="983.92013,385.7143"
       orientation="1,0"
       id="guide4451" />
    <sodipodi:guide
       position="1125.2811,420.645"
       orientation="1,0"
       id="guide4453" />
    <sodipodi:guide
       position="1456.4771,327.14287"
       orientation="1,0"
       id="guide4459" />
    <sodipodi:guide
       position="1711.082,385.71237"
       orientation="1,0"
       id="guide4479" />
    <sodipodi:guide
       position="1353.8838,833.44637"
       orientation="1,0"
       id="guide4484" />
  </sodipodi:namedview>
  <metadata
     id="metadata7">
    <rdf:RDF>
      <cc:Work
         rdf:about="">
        <dc:format>image/svg+xml</dc:format>
        <dc:type
           rdf:resource="http://purl.org/dc/dcmitype/StillImage" />
        <dc:title></dc:title>
      </cc:Work>
    </rdf:RDF>
  </metadata>
  <g
     inkscape:label="Calque 1"
     inkscape:groupmode="layer"
     id="layer1"
     transform="translate(0,435.82677)">
    <path
       style="fill:none;fill-rule:evenodd;stroke:#000000;stroke-width:3.54330707;stroke-linecap:butt;stroke-linejoin:miter;stroke-miterlimit:4;stroke-dasharray:none;stroke-opacity:1"
       d="M 405.39062 946.0625 C 369.00786 946.0625 500.78332 1076.6505 527.0293 1200.2012 C 529.88903 1213.6631 531.49609 1227.0414 531.49609 1240.1582 L 531.49609 1250.7871 L 542.12695 1250.7871 L 542.12695 1311.0234 L 817.94141 1311.0234 L 817.94141 1250.7871 L 828.57031 1250.7871 L 828.57031 1311.0234 L 920 1311.0234 L 920 1250.7871 L 930.62891 1250.7871 L 930.62891 1311.0234 L 1067.9434 1311.0234 L 1067.9434 1250.7871 L 1078.5723 1250.7871 L 1078.5723 1311.0234 L 1178.5723 1311.0234 L 1178.5723 1250.7871 L 1189.2012 1250.7871 L 1189.2012 1311.0234 L 1240.1582 1311.0234 L 1240.1582 956.69336 L 1178.5723 956.69336 L 1178.5723 946.0625 L 1078.5723 946.0625 L 1078.5723 956.69336 L 920 956.69336 L 920 946.0625 L 828.57227 946.0625 L 828.57227 956.69336 L 682.85742 956.69336 L 682.85742 946.0625 L 591.42773 946.0625 L 591.42773 956.69336 L 531.49609 956.69336 L 591.42773 1016.625 L 764.85156 1190.0469 L 714.74023 1240.1582 C 600.32431 1125.7423 489.26239 1014.6804 431.27539 956.69336 C 422.78882 948.20679 421.47379 946.0625 405.39062 946.0625 z M 920 1025.0098 L 983.91992 1025.0098 L 983.91992 1035.6406 L 920 1035.6406 L 920 1025.0098 z M 1125.2812 1025.0098 L 1189.2012 1025.0098 L 1189.2012 1035.6406 L 1125.2812 1035.6406 L 1125.2812 1025.0098 z M 531.49609 1102.4746 L 542.125 1102.4746 L 542.125 1161.0469 L 531.49609 1161.0469 L 531.49609 1102.4746 z M 817.94141 1102.4746 L 828.57031 1102.4746 L 828.57031 1161.0469 L 817.94141 1161.0469 L 817.94141 1102.4746 z M 920 1102.4746 L 930.62891 1102.4746 L 930.62891 1161.0469 L 920 1161.0469 L 920 1102.4746 z M 1067.9434 1102.4746 L 1078.5723 1102.4746 L 1078.5723 1161.0469 L 1067.9434 1161.0469 L 1067.9434 1102.4746 z M 1178.5723 1102.4746 L 1189.2012 1102.4746 L 1189.2012 1161.0469 L 1178.5723 1161.0469 L 1178.5723 1102.4746 z M 874.28516 1181.5742 A 39.243557 24.342409 0 0 1 913.5293 1205.918 A 39.243557 24.342409 0 0 1 874.28516 1230.2598 A 39.243557 24.342409 0 0 1 835.04102 1205.918 A 39.243557 24.342409 0 0 1 874.28516 1181.5742 z "
       transform="translate(0,-435.82677)"
       id="path4158" />
    <path
       style="fill:none;stroke:#ff0000;stroke-width:3.54330707;stroke-miterlimit:4;stroke-dasharray:none;stroke-opacity:1"
       d="M 568.63867 -212.59766 C 548.06153 -212.59766 531.49609 -196.03222 531.49609 -175.45508 L 531.49609 742.38477 C 531.49609 762.96191 548.06153 779.52734 568.63867 779.52734 L 1203.0137 779.52734 C 1223.5908 779.52734 1240.1582 762.96191 1240.1582 742.38477 L 1240.1582 -175.45508 C 1240.1582 -196.03222 1223.5908 -212.59766 1203.0137 -212.59766 L 568.63867 -212.59766 z M 591.42773 -87.8125 L 682.85742 -87.8125 L 682.85742 -77.183594 L 591.42773 -77.183594 L 591.42773 -87.8125 z M 828.57227 -87.8125 L 920 -87.8125 L 920 -77.183594 L 828.57227 -77.183594 L 828.57227 -87.8125 z M 1078.5723 -87.8125 L 1178.5723 -87.8125 L 1178.5723 -77.183594 L 1078.5723 -77.183594 L 1078.5723 -87.8125 z M 591.42773 156.16211 L 682.85742 156.16211 L 682.85742 166.79102 L 591.42773 166.79102 L 591.42773 156.16211 z M 828.57227 156.16211 L 920 156.16211 L 920 166.79102 L 828.57227 166.79102 L 828.57227 156.16211 z M 1078.5723 156.16211 L 1178.5723 156.16211 L 1178.5723 166.79102 L 1078.5723 166.79102 L 1078.5723 156.16211 z M 591.42773 400.13867 L 682.85742 400.13867 L 682.85742 410.76758 L 591.42773 410.76758 L 591.42773 400.13867 z M 828.57227 400.13867 L 920 400.13867 L 920 410.76758 L 828.57227 410.76758 L 828.57227 400.13867 z M 1078.5723 400.13867 L 1178.5723 400.13867 L 1178.5723 410.76758 L 1078.5723 410.76758 L 1078.5723 400.13867 z M 591.42773 644.11328 L 682.85742 644.11328 L 682.85742 654.74219 L 591.42773 654.74219 L 591.42773 644.11328 z M 828.57227 644.11328 L 920 644.11328 L 920 654.74219 L 828.57227 654.74219 L 828.57227 644.11328 z M 1078.5723 644.11328 L 1178.5723 644.11328 L 1178.5723 654.74219 L 1078.5723 654.74219 L 1078.5723 644.11328 z "
       transform="translate(0,-435.82677)"
       id="rect4184" />
    <path
       style="fill:none;stroke:#ff0000;stroke-width:3.54330707;stroke-miterlimit:4;stroke-dasharray:none;stroke-opacity:1"
       d="m -675.43034,44.938265 0,10.63086 0,80.628895 a 60.23621,36.043621 0 0 1 60.23633,36.04297 60.23621,36.043621 0 0 1 -60.23633,36.04493 l 0,80.6289 0,10.62891 60.23633,0 0,-10.62891 89.74219,0 0,10.62891 58.57031,0 0,-10.62891 34.93164,0 0,-233.345695 -34.93164,0 0,-10.63086 -58.57031,0 0,10.63086 -89.74219,0 0,-10.63086 -60.23633,0 z"
       id="rect4310"
       inkscape:connector-curvature="0" />
    <text
       xml:space="preserve"
       style="font-style:normal;font-weight:normal;font-size:60px;line-height:125%;font-family:Sans;letter-spacing:0px;word-spacing:0px;fill:#000000;fill-opacity:1;stroke:none;stroke-width:1px;stroke-linecap:butt;stroke-linejoin:miter;stroke-opacity:1"
       x="-533.36053"
       y="131.10304"
       id="text4364"
       sodipodi:linespacing="125%"><tspan
         sodipodi:role="line"
         id="tspan4366"
         x="-533.36053"
         y="131.10304">2</tspan></text>
    <path
       style="fill:none;stroke:#ff0000;stroke-width:3.54330707;stroke-miterlimit:4;stroke-dasharray:none;stroke-opacity:1"
       d="M 106.42773 156.16016 L 106.42773 166.79102 L 106.42773 247.41992 A 60.23621 36.043621 0 0 1 166.66406 283.46289 A 60.23621 36.043621 0 0 1 106.42773 319.50781 L 106.42773 400.13672 L 106.42773 410.76562 L 166.66406 410.76562 L 166.66406 400.13672 L 193.94922 400.13672 L 256.40625 400.13672 L 256.40625 410.76562 L 314.97656 410.76562 L 314.97656 400.13672 L 349.9082 400.13672 L 460.75977 400.13672 L 460.75977 353.39258 L 471.38867 353.39258 L 471.38867 213.53516 L 460.75977 213.53516 L 460.75977 166.79102 L 349.9082 166.79102 L 314.97656 166.79102 L 314.97656 156.16016 L 256.40625 156.16016 L 256.40625 166.79102 L 193.94922 166.79102 L 166.66406 166.79102 L 166.66406 156.16016 L 106.42773 156.16016 z "
       transform="translate(0,-435.82677)"
       id="path4388" />
    <rect
       style="fill:none;stroke:#ff0000;stroke-width:3.54330707;stroke-miterlimit:4;stroke-dasharray:none;stroke-opacity:1"
       id="rect4395"
       width="10.62992"
       height="139.8577"
       x="817.94153"
       y="-222.29108" />
    <rect
       style="fill:none;stroke:#ff0000;stroke-width:3.54330707;stroke-miterlimit:4;stroke-dasharray:none;stroke-opacity:1"
       id="rect4407"
       width="10.62891"
       height="139.8575"
       x="920"
       y="-466.26617" />
    <rect
       style="fill:none;stroke:#ff0000;stroke-width:3.54330707;stroke-miterlimit:4;stroke-dasharray:none;stroke-opacity:1"
       id="rect4409"
       width="10.6289"
       height="139.8577"
       x="1067.9425"
       y="-222.29108" />
    <rect
       style="fill:none;stroke:#ff0000;stroke-width:3.54330707;stroke-miterlimit:4;stroke-dasharray:none;stroke-opacity:1"
       id="rect4411"
       width="10.6289"
       height="139.8575"
       x="1178.5714"
       y="-466.26617" />
    <rect
       style="fill:none;stroke:#ff0000;stroke-width:3.54330707;stroke-miterlimit:4;stroke-dasharray:none;stroke-opacity:1"
       id="rect4413"
       width="10.6289"
       height="139.85745"
       x="1178.5714"
       y="21.684307" />
    <rect
       style="fill:none;stroke:#ff0000;stroke-width:3.54330707;stroke-miterlimit:4;stroke-dasharray:none;stroke-opacity:1"
       id="rect4415"
       width="10.62891"
       height="139.85745"
       x="920"
       y="21.684307" />
    <path
       style="fill:none;stroke:#ff0000;stroke-width:3.54330707;stroke-miterlimit:4;stroke-dasharray:none;stroke-opacity:1"
       d="M 1513.8516 946.06445 L 1513.8516 956.69336 L 1467.1074 956.69336 L 1467.1074 1025.0098 L 1520.3965 1025.0098 L 1520.3965 1035.6406 L 1467.1074 1035.6406 L 1467.1074 1067.5449 L 1467.1074 1102.4766 L 1456.4766 1102.4766 L 1456.4766 1161.0469 L 1467.1074 1161.0469 L 1467.1074 1223.5039 L 1467.1074 1250.7891 L 1456.4766 1250.7891 L 1456.4766 1311.0254 L 1467.1074 1311.0254 L 1547.7363 1311.0254 A 36.043621 60.23621 0 0 1 1583.7793 1250.7891 A 36.043621 60.23621 0 0 1 1619.8242 1311.0254 L 1700.4531 1311.0254 L 1711.082 1311.0254 L 1711.082 1250.7891 L 1700.4531 1250.7891 L 1700.4531 1223.5039 L 1700.4531 1161.0469 L 1711.082 1161.0469 L 1711.082 1102.4766 L 1700.4531 1102.4766 L 1700.4531 1067.5449 L 1700.4531 1035.6406 L 1661.7578 1035.6406 L 1647.1621 1035.6406 L 1647.1621 1025.0098 L 1661.7578 1025.0098 L 1700.4531 1025.0098 L 1700.4531 956.69336 L 1653.709 956.69336 L 1653.709 946.06445 L 1513.8516 946.06445 z "
       transform="translate(0,-435.82677)"
       id="path4431" />
    <path
       style="fill:none;stroke:#ff0000;stroke-width:3.54330707;stroke-miterlimit:4;stroke-dasharray:none;stroke-opacity:1"
       d="m 1798.2506,218.91702 0,-10.6308 0,-53.2891 -10.6289,0 0,-126.7656 10.6289,0 0,-63.9199 -10.6309,0 -53.289,0 0,10.6289 -141.3614,0 0,-10.6289 -63.9199,0 0,10.6289 0,53.291 10.6309,0 0,126.7656 -10.6309,0 0,63.9199 63.9199,0 0,-10.6308 141.3614,0 0,10.6308 53.289,0 10.6309,0 z"
       id="rect4467"
       inkscape:connector-curvature="0" />
    <text
       xml:space="preserve"
       style="font-style:normal;font-weight:normal;font-size:60px;line-height:125%;font-family:Sans;letter-spacing:0px;word-spacing:0px;fill:#000000;fill-opacity:1;stroke:none;stroke-width:1px;stroke-linecap:butt;stroke-linejoin:miter;stroke-opacity:1"
       x="211.42857"
       y="-169.06639"
       id="text4501"
       sodipodi:linespacing="125%"><tspan
         sodipodi:role="line"
         id="tspan4503"
         x="211.42857"
         y="-169.06639">2</tspan></text>
    <text
       xml:space="preserve"
       style="font-style:normal;font-weight:normal;font-size:60px;line-height:125%;font-family:Sans;letter-spacing:0px;word-spacing:0px;fill:#000000;fill-opacity:1;stroke:none;stroke-width:1px;stroke-linecap:butt;stroke-linejoin:miter;stroke-opacity:1"
       x="1581.4286"
       y="83.790787"
       id="text4505"
       sodipodi:linespacing="125%"><tspan
         sodipodi:role="line"
         id="tspan4507"
         x="1581.4286"
         y="83.790787">F</tspan></text>
    <text
       xml:space="preserve"
       style="font-style:normal;font-weight:normal;font-size:60px;line-height:125%;font-family:Sans;letter-spacing:0px;word-spacing:0px;fill:#000000;fill-opacity:1;stroke:none;stroke-width:1px;stroke-linecap:butt;stroke-linejoin:miter;stroke-opacity:1"
       x="1745.7144"
       y="82.362198"
       id="text4509"
       sodipodi:linespacing="125%"><tspan
         sodipodi:role="line"
         id="tspan4511"
         x="1745.7144"
         y="82.362198">B</tspan></text>
    <text
       xml:space="preserve"
       style="font-style:normal;font-weight:normal;font-size:60px;line-height:125%;font-family:Sans;letter-spacing:0px;word-spacing:0px;fill:#000000;fill-opacity:1;stroke:none;stroke-width:1px;stroke-linecap:butt;stroke-linejoin:miter;stroke-opacity:1"
       x="1631.4286"
       y="161.54176"
       id="text4513"
       sodipodi:linespacing="125%"><tspan
         sodipodi:role="line"
         id="tspan4515"
         x="1631.4286"
         y="161.54176">2</tspan></text>
    <text
       xml:space="preserve"
       style="font-style:normal;font-weight:normal;font-size:60px;line-height:125%;font-family:Sans;letter-spacing:0px;word-spacing:0px;fill:#000000;fill-opacity:1;stroke:none;stroke-width:1px;stroke-linecap:butt;stroke-linejoin:miter;stroke-opacity:1"
       x="1574.2856"
       y="666.64795"
       id="text4517"
       sodipodi:linespacing="125%"><tspan
         sodipodi:role="line"
         id="tspan4519"
         x="1574.2856"
         y="666.64795">4</tspan></text>
    <text
       xml:space="preserve"
       style="font-style:normal;font-weight:normal;font-size:60px;line-height:125%;font-family:Sans;letter-spacing:0px;word-spacing:0px;fill:#000000;fill-opacity:1;stroke:none;stroke-width:1px;stroke-linecap:butt;stroke-linejoin:miter;stroke-opacity:1"
       x="760"
       y="589.18396"
       id="text4521"
       sodipodi:linespacing="125%"><tspan
         sodipodi:role="line"
         id="tspan4523"
         x="760"
         y="589.18396">4</tspan></text>
    <text
       xml:space="preserve"
       style="font-style:normal;font-weight:normal;font-size:60px;line-height:125%;font-family:Sans;letter-spacing:0px;word-spacing:0px;fill:#000000;fill-opacity:1;stroke:none;stroke-width:1px;stroke-linecap:butt;stroke-linejoin:miter;stroke-opacity:1"
       x="682.85712"
       y="122.3622"
       id="text4525"
       sodipodi:linespacing="125%"><tspan
         sodipodi:role="line"
         id="tspan4527"
         x="682.85712"
         y="122.3622">1</tspan></text>
  </g>
</svg>
