<?xml version="1.0" encoding="UTF-8" standalone="no"?>
<!-- Created with Inkscape (http://www.inkscape.org/) -->

<svg
   xmlns:dc="http://purl.org/dc/elements/1.1/"
   xmlns:cc="http://creativecommons.org/ns#"
   xmlns:rdf="http://www.w3.org/1999/02/22-rdf-syntax-ns#"
   xmlns:svg="http://www.w3.org/2000/svg"
   xmlns="http://www.w3.org/2000/svg"
   xmlns:sodipodi="http://sodipodi.sourceforge.net/DTD/sodipodi-0.dtd"
   xmlns:inkscape="http://www.inkscape.org/namespaces/inkscape"
   width="744.09448819"
   height="1052.3622047"
   id="svg2"
   version="1.1"
   inkscape:version="0.91 r13725"
   sodipodi:docname="tangram_8_8_print.svg">
  <defs
     id="defs4" />
  <sodipodi:namedview
     id="base"
     pagecolor="#ffffff"
     bordercolor="#666666"
     borderopacity="1.0"
     inkscape:pageopacity="0.0"
     inkscape:pageshadow="2"
     inkscape:zoom="0.7"
     inkscape:cx="470.29732"
     inkscape:cy="524.58615"
     inkscape:document-units="cm"
     inkscape:current-layer="layer1"
     showgrid="false"
     showguides="true"
     inkscape:guide-bbox="true"
     inkscape:window-width="1920"
     inkscape:window-height="1017"
     inkscape:window-x="1192"
     inkscape:window-y="228"
     inkscape:window-maximized="1">
    <sodipodi:guide
       orientation="1,0"
       position="141.73228,0"
       id="guide2985" />
    <sodipodi:guide
       orientation="1,0"
       position="425.19685,0"
       id="guide2987" />
    <sodipodi:guide
       orientation="1,0"
       position="283.46457,0"
       id="guide2989" />
    <sodipodi:guide
       orientation="1,0"
       position="566.92913,0"
       id="guide2991" />
    <sodipodi:guide
       orientation="0,1"
       position="0,141.73228"
       id="guide2993" />
    <sodipodi:guide
       orientation="0,1"
       position="0,283.46457"
       id="guide2995" />
    <sodipodi:guide
       orientation="0,1"
       position="0,425.19685"
       id="guide2997" />
    <sodipodi:guide
       orientation="0,1"
       position="0,354.33071"
       id="guide3003" />
    <sodipodi:guide
       orientation="1,0"
       position="212.59843,0"
       id="guide3005" />
    <sodipodi:guide
       orientation="1,0"
       position="354.33071,0"
       id="guide3007" />
    <sodipodi:guide
       orientation="0,1"
       position="0,212.59843"
       id="guide3011" />
    <sodipodi:guide
       orientation="1,0"
       position="106.29921,0"
       id="guide3019" />
    <sodipodi:guide
       orientation="1,0"
       position="460.62992,0"
       id="guide3021" />
    <sodipodi:guide
       orientation="0,1"
       position="0,106.29921"
       id="guide3023" />
    <sodipodi:guide
       orientation="0,1"
       position="0,460.62992"
       id="guide3025" />
  </sodipodi:namedview>
  <metadata
     id="metadata7">
    <rdf:RDF>
      <cc:Work
         rdf:about="">
        <dc:format>image/svg+xml</dc:format>
        <dc:type
           rdf:resource="http://purl.org/dc/dcmitype/StillImage" />
        <dc:title />
      </cc:Work>
    </rdf:RDF>
  </metadata>
  <g
     inkscape:label="Layer 1"
     inkscape:groupmode="layer"
     id="layer1">
    <path
       style="fill:none;stroke:#000000;stroke-width:0.35433071;stroke-linecap:butt;stroke-linejoin:miter;stroke-opacity:1;stroke-miterlimit:4;stroke-dasharray:none"
       d="m 141.73228,627.16533 283.46457,283.46457 -283.46457,0 z"
       id="path2999"
       inkscape:connector-curvature="0" />
    <path
       style="fill:none;stroke:#000000;stroke-width:0.35433071;stroke-linecap:butt;stroke-linejoin:miter;stroke-opacity:1;stroke-miterlimit:4;stroke-dasharray:none"
       d="M 425.19685,768.89761 283.46457,627.16533"
       id="path3001"
       inkscape:connector-curvature="0" />
    <path
       style="fill:none;stroke:#000000;stroke-width:0.35433071;stroke-linecap:butt;stroke-linejoin:miter;stroke-opacity:1;stroke-miterlimit:4;stroke-dasharray:none"
       d="m 141.73228,627.16533 283.46457,0 0,283.46457"
       id="path3009"
       inkscape:connector-curvature="0" />
    <path
       style="fill:none;stroke:#000000;stroke-width:0.35433071;stroke-linecap:butt;stroke-linejoin:miter;stroke-opacity:1;stroke-miterlimit:4;stroke-dasharray:none"
       d="m 425.19685,768.89761 -70.86614,70.86614"
       id="path3013"
       inkscape:connector-curvature="0" />
    <path
       style="fill:none;stroke:#000000;stroke-width:0.35433071;stroke-linecap:butt;stroke-linejoin:miter;stroke-opacity:1;stroke-miterlimit:4;stroke-dasharray:none"
       d="m 212.59843,698.03147 141.73228,0"
       id="path3017"
       inkscape:connector-curvature="0" />
    <rect
       style="fill:none;stroke:#ff00ff;stroke-width:0.35433071;stroke-miterlimit:4;stroke-dasharray:none"
       id="rect3027"
       width="354.33072"
       height="354.33072"
       x="106.29921"
       y="591.73224"
       ry="35.433094" />
    <path
       style="fill:none;stroke:#000000;stroke-width:0.35433071;stroke-linecap:butt;stroke-linejoin:miter;stroke-opacity:1;stroke-miterlimit:4;stroke-dasharray:none"
       d="M 354.33071,698.03147 141.73228,910.6299"
       id="path3147"
       inkscape:connector-curvature="0" />
    <path
       inkscape:connector-curvature="0"
       id="path3149"
       d="m 141.73228,268.35813 283.46457,283.46457 -283.46457,0 z"
       style="fill:none;stroke:#ff0000;stroke-width:0.35433072;stroke-linecap:butt;stroke-linejoin:miter;stroke-miterlimit:4;stroke-dasharray:none;stroke-opacity:1" />
    <path
       inkscape:connector-curvature="0"
       id="path3151"
       d="M 425.19685,410.09041 283.46457,268.35813"
       style="fill:none;stroke:#ff0000;stroke-width:0.35433072;stroke-linecap:butt;stroke-linejoin:miter;stroke-miterlimit:4;stroke-dasharray:none;stroke-opacity:1" />
    <path
       inkscape:connector-curvature="0"
       id="path3153"
       d="m 141.73228,268.35813 283.46457,0 0,283.46457"
       style="fill:none;stroke:#ff0000;stroke-width:0.35433072;stroke-linecap:butt;stroke-linejoin:miter;stroke-miterlimit:4;stroke-dasharray:none;stroke-opacity:1" />
    <path
       inkscape:connector-curvature="0"
       id="path3155"
       d="m 425.19685,410.09041 -70.86614,70.86614"
       style="fill:none;stroke:#ff0000;stroke-width:0.35433072;stroke-linecap:butt;stroke-linejoin:miter;stroke-miterlimit:4;stroke-dasharray:none;stroke-opacity:1" />
    <path
       inkscape:connector-curvature="0"
       id="path3157"
       d="m 212.59843,339.22427 141.73228,0"
       style="fill:none;stroke:#ff0000;stroke-width:0.35433072;stroke-linecap:butt;stroke-linejoin:miter;stroke-miterlimit:4;stroke-dasharray:none;stroke-opacity:1" />
    <rect
       ry="35.433094"
       y="232.92503"
       x="106.29921"
       height="354.33072"
       width="354.33072"
       id="rect3159"
       style="fill:none;stroke:#ff00ff;stroke-width:0.35433072;stroke-miterlimit:4;stroke-dasharray:none" />
    <path
       inkscape:connector-curvature="0"
       id="path3163"
       d="M 354.33071,339.22427 141.73228,551.8227"
       style="fill:none;stroke:#ff0000;stroke-width:0.35433072;stroke-linecap:butt;stroke-linejoin:miter;stroke-miterlimit:4;stroke-dasharray:none;stroke-opacity:1" />
    <rect
       style="fill:none;stroke:#0000ff;stroke-width:0.35831195;stroke-miterlimit:4;stroke-dasharray:none;stroke-dashoffset:0"
       id="rect4193"
       width="286.64957"
       height="286.64957"
       x="140.13979"
       y="625.57281" />
    <g
       style="font-style:normal;font-variant:normal;font-weight:bold;font-stretch:normal;font-size:40px;line-height:125%;font-family:sans-serif;-inkscape-font-specification:'sans-serif Bold';letter-spacing:0px;word-spacing:0px;fill:none;fill-opacity:1;stroke:#00ff00;stroke-width:1px;stroke-linecap:butt;stroke-linejoin:miter;stroke-opacity:1"
       id="text4195"
       transform="translate(0,20)">
      <path
         d="m 199.32272,524.38348 -18.40576,0 0,-25.44677 18.40576,0 0,4.92187 -11.87744,0 0,4.39209 11.02295,0 0,4.92188 -11.02295,0 0,6.28906 11.87744,0 0,4.92187 z m -2.87109,-35.01709 0,0.3418 -6.01563,6.37451 -4.2041,0 4.22119,-6.71631 5.99854,0 z"
         style="font-size:35px;fill:none;stroke:#00ff00"
         id="path4260"
         inkscape:connector-curvature="0" />
      <path
         d="m 223.19724,524.38348 -18.3545,0 0,-25.44677 6.5625,0 0,20.5249 11.792,0 0,4.92187 z"
         style="font-size:35px;fill:none;stroke:#00ff00"
         id="path4262"
         inkscape:connector-curvature="0" />
      <path
         d="m 245.53366,524.38348 -18.40576,0 0,-25.44677 18.40576,0 0,4.92187 -11.87744,0 0,4.39209 11.02295,0 0,4.92188 -11.02295,0 0,6.28906 11.87744,0 0,4.92187 z m -2.87109,-35.01709 0,0.3418 -6.01563,6.37451 -4.2041,0 4.22119,-6.71631 5.99854,0 z"
         style="font-size:35px;fill:none;stroke:#00ff00"
         id="path4264"
         inkscape:connector-curvature="0" />
      <path
         d="m 275.79977,511.66864 q 0,6.08398 -3.48632,9.67285 -3.48633,3.57178 -9.63868,3.57178 -6.13525,0 -9.62158,-3.57178 -3.48633,-3.58887 -3.48633,-9.67285 0,-6.13525 3.48633,-9.68994 3.48633,-3.57178 9.62158,-3.57178 6.11817,0 9.62159,3.57178 3.50341,3.55469 3.50341,9.68994 z m -8.69873,6.44287 q 0.95703,-1.16211 1.41846,-2.73437 0.46143,-1.58936 0.46143,-3.72559 0,-2.29004 -0.52979,-3.89648 -0.52978,-1.60645 -1.38428,-2.59766 -0.87158,-1.02539 -2.0166,-1.48682 -1.12793,-0.46142 -2.3584,-0.46142 -1.24755,0 -2.35839,0.44433 -1.09375,0.44434 -2.01661,1.46973 -0.85449,0.95703 -1.40136,2.64893 -0.52979,1.6748 -0.52979,3.89648 0,2.27295 0.5127,3.87939 0.52978,1.58936 1.38427,2.59766 0.8545,1.0083 1.99952,1.48682 1.14502,0.47851 2.40966,0.47851 1.26465,0 2.40967,-0.47851 1.14502,-0.49561 1.99951,-1.521 z"
         style="font-size:35px;fill:none;stroke:#00ff00"
         id="path4266"
         inkscape:connector-curvature="0" />
      <path
         d="m 303.92966,524.38348 -6.32325,0 -10.80078,-17.46582 0,17.46582 -6.01562,0 0,-25.44677 7.84424,0 9.27978,14.57763 0,-14.57763 6.01563,0 0,25.44677 z"
         style="font-size:35px;fill:none;stroke:#00ff00"
         id="path4268"
         inkscape:connector-curvature="0" />
      <path
         d="m 335.20407,511.66864 q 0,6.08398 -3.48633,9.67285 -3.48633,3.57178 -9.63867,3.57178 -6.13525,0 -9.62158,-3.57178 -3.48633,-3.58887 -3.48633,-9.67285 0,-6.13525 3.48633,-9.68994 3.48633,-3.57178 9.62158,-3.57178 6.11817,0 9.62158,3.57178 3.50342,3.55469 3.50342,9.68994 z m -8.69873,6.44287 q 0.95703,-1.16211 1.41846,-2.73437 0.46142,-1.58936 0.46142,-3.72559 0,-2.29004 -0.52978,-3.89648 -0.52979,-1.60645 -1.38428,-2.59766 -0.87158,-1.02539 -2.0166,-1.48682 -1.12793,-0.46142 -2.3584,-0.46142 -1.24756,0 -2.3584,0.44433 -1.09375,0.44434 -2.0166,1.46973 -0.85449,0.95703 -1.40137,2.64893 -0.52978,1.6748 -0.52978,3.89648 0,2.27295 0.51269,3.87939 0.52979,1.58936 1.38428,2.59766 0.85449,1.0083 1.99951,1.48682 1.14502,0.47851 2.40967,0.47851 1.26465,0 2.40967,-0.47851 1.14502,-0.49561 1.99951,-1.521 z"
         style="font-size:35px;fill:none;stroke:#00ff00"
         id="path4270"
         inkscape:connector-curvature="0" />
      <path
         d="m 354.46432,506.72968 q 0,-0.95704 -0.39306,-1.64063 -0.39307,-0.68359 -1.3501,-1.07666 -0.6665,-0.27344 -1.55517,-0.32471 -0.88868,-0.0684 -2.06788,-0.0684 l -2.37548,0 0,6.85303 2.0166,0 q 1.57226,0 2.63183,-0.15381 1.05957,-0.15381 1.77735,-0.70068 0.68359,-0.52979 0.99121,-1.16211 0.3247,-0.64941 0.3247,-1.72607 z m 10.23682,17.6538 -8.01514,0 -6.93847,-9.33105 -3.0249,0 0,9.33105 -6.52832,0 0,-25.44677 11.00585,0 q 2.25586,0 3.8794,0.25634 1.62353,0.25635 3.04199,1.11084 1.43555,0.8545 2.27295,2.22168 0.85449,1.3501 0.85449,3.40088 0,2.81983 -1.31592,4.59717 -1.29882,1.77734 -3.72558,2.95654 l 8.49365,10.90332 z"
         style="font-size:35px;fill:none;stroke:#00ff00"
         id="path4272"
         inkscape:connector-curvature="0" />
      <path
         d="m 386.01218,524.38348 -18.40577,0 0,-25.44677 18.40577,0 0,4.92187 -11.87744,0 0,4.39209 11.02294,0 0,4.92188 -11.02294,0 0,6.28906 11.87744,0 0,4.92187 z"
         style="font-size:35px;fill:none;stroke:#00ff00"
         id="path4274"
         inkscape:connector-curvature="0" />
    </g>
    <g
       transform="matrix(0,1,-1,0,0,20)"
       style="font-style:normal;font-variant:normal;font-weight:bold;font-stretch:normal;font-size:40px;line-height:125%;font-family:sans-serif;-inkscape-font-specification:'sans-serif Bold';letter-spacing:0px;word-spacing:0px;fill:none;fill-opacity:1;stroke:#00ff00;stroke-width:1px;stroke-linecap:butt;stroke-linejoin:miter;stroke-opacity:1"
       id="text4199">
      <path
         d="m 311.72491,-149.17151 -6.78466,0 -1.76026,-5.14404 -9.43359,0 -1.76025,5.14404 -6.61377,0 9.39941,-25.44678 7.55371,0 9.39941,25.44678 z m -10.13427,-9.80957 -3.12744,-9.12598 -3.12745,9.12598 6.25489,0 z"
         style="font-size:35px;fill:none;stroke:#00ff00"
         id="path4243"
         inkscape:connector-curvature="0" />
      <path
         d="m 342.09357,-149.17151 -6.52832,0 0,-17.03857 -4.7168,11.05713 -4.52881,0 -4.7168,-11.05713 0,17.03857 -6.18652,0 0,-25.44678 7.62207,0 5.7251,12.76612 5.70801,-12.76612 7.62207,0 0,25.44678 z"
         style="font-size:35px;fill:none;stroke:#00ff00"
         id="path4245"
         inkscape:connector-curvature="0" />
      <path
         d="m 370.34308,-156.96448 q 0,1.84571 -0.75195,3.29834 -0.73487,1.45264 -2.0337,2.40967 -1.5039,1.12793 -3.31543,1.60645 -1.79443,0.47851 -4.56298,0.47851 l -11.1084,0 0,-25.44678 9.87793,0 q 3.07617,0 4.49463,0.20508 1.43554,0.20508 2.83691,0.90576 1.45264,0.73487 2.15332,1.98243 0.71777,1.23046 0.71777,2.81982 0,1.8457 -0.97412,3.26416 -0.97412,1.40137 -2.75146,2.1875 l 0,0.13672 q 2.49512,0.4956 3.94775,2.05078 1.46973,1.55518 1.46973,4.10156 z m -8.4082,-10.45898 q 0,-0.63233 -0.32471,-1.26465 -0.30762,-0.63232 -1.11084,-0.93994 -0.71777,-0.27344 -1.79443,-0.29053 -1.05958,-0.0342 -2.99073,-0.0342 l -0.61523,0 0,5.3833 1.02539,0 q 1.55517,0 2.64892,-0.0513 1.09375,-0.0513 1.72608,-0.34179 0.88867,-0.39307 1.16211,-1.00831 0.27344,-0.63232 0.27344,-1.45263 z m 1.60644,10.35644 q 0,-1.21338 -0.47851,-1.86279 -0.46143,-0.6665 -1.58936,-0.99121 -0.76904,-0.22217 -2.11914,-0.23926 -1.3501,-0.0171 -2.81983,-0.0171 l -1.43554,0 0,6.34033 0.47851,0 q 2.76856,0 3.96485,-0.0171 1.19629,-0.0171 2.20459,-0.44433 1.02539,-0.42725 1.40136,-1.12793 0.39307,-0.71778 0.39307,-1.64063 z"
         style="font-size:35px;fill:none;stroke:#00ff00"
         id="path4247"
         inkscape:connector-curvature="0" />
      <path
         d="m 389.50079,-166.82532 q 0,-0.95703 -0.39306,-1.64062 -0.39307,-0.6836 -1.3501,-1.07666 -0.6665,-0.27344 -1.55518,-0.32471 -0.88867,-0.0684 -2.06787,-0.0684 l -2.37549,0 0,6.85303 2.01661,0 q 1.57226,0 2.63183,-0.15381 1.05957,-0.15381 1.77735,-0.70068 0.68359,-0.52979 0.99121,-1.16211 0.3247,-0.64942 0.3247,-1.72608 z m 10.23682,17.65381 -8.01514,0 -6.93847,-9.33105 -3.02491,0 0,9.33105 -6.52832,0 0,-25.44678 11.00586,0 q 2.25586,0 3.8794,0.25635 1.62353,0.25635 3.04199,1.11084 1.43555,0.85449 2.27295,2.22168 0.85449,1.3501 0.85449,3.40088 0,2.81982 -1.31592,4.59717 -1.29882,1.77734 -3.72558,2.95654 l 8.49365,10.90332 z"
         style="font-size:35px;fill:none;stroke:#00ff00"
         id="path4249"
         inkscape:connector-curvature="0" />
      <path
         d="m 427.38898,-161.88635 q 0,6.08398 -3.48633,9.67285 -3.48633,3.57178 -9.63867,3.57178 -6.13526,0 -9.62158,-3.57178 -3.48633,-3.58887 -3.48633,-9.67285 0,-6.13526 3.48633,-9.68994 3.48632,-3.57178 9.62158,-3.57178 6.11816,0 9.62158,3.57178 3.50342,3.55468 3.50342,9.68994 z m -8.69873,6.44287 q 0.95703,-1.16211 1.41845,-2.73438 0.46143,-1.58935 0.46143,-3.72558 0,-2.29004 -0.52979,-3.89649 -0.52978,-1.60644 -1.38427,-2.59765 -0.87159,-1.02539 -2.0166,-1.48682 -1.12793,-0.46143 -2.3584,-0.46143 -1.24756,0 -2.3584,0.44434 -1.09375,0.44434 -2.0166,1.46973 -0.8545,0.95703 -1.40137,2.64892 -0.52979,1.67481 -0.52979,3.89649 0,2.27295 0.5127,3.87939 0.52979,1.58936 1.38428,2.59766 0.85449,1.0083 1.99951,1.48681 1.14502,0.47852 2.40967,0.47852 1.26465,0 2.40966,-0.47852 1.14502,-0.4956 1.99952,-1.52099 z"
         style="font-size:35px;fill:none;stroke:#00ff00"
         id="path4251"
         inkscape:connector-curvature="0" />
      <path
         d="m 446.13654,-149.17151 -14.90235,0 0,-4.51172 4.16992,0 0,-16.42334 -4.16992,0 0,-4.51172 14.90235,0 0,4.51172 -4.16993,0 0,16.42334 4.16993,0 0,4.51172 z"
         style="font-size:35px;fill:none;stroke:#00ff00"
         id="path4253"
         inkscape:connector-curvature="0" />
      <path
         d="m 471.89093,-157.16956 q 0,3.75977 -3.1958,6.11817 -3.17871,2.34131 -8.64746,2.34131 -3.16162,0 -5.52002,-0.54688 -2.34131,-0.56396 -4.39209,-1.41846 l 0,-6.10107 0.71777,0 q 2.03369,1.62354 4.5459,2.49512 2.5293,0.87158 4.85352,0.87158 0.59814,0 1.57226,-0.10254 0.97412,-0.10254 1.58936,-0.3418 0.75195,-0.30761 1.23047,-0.76904 0.4956,-0.46142 0.4956,-1.36719 0,-0.8374 -0.71777,-1.43554 -0.70069,-0.61524 -2.06787,-0.93994 -1.43555,-0.3418 -3.04199,-0.63233 -1.58936,-0.30762 -2.99073,-0.76904 -3.21289,-1.04248 -4.63135,-2.81983 -1.40136,-1.79443 -1.40136,-4.44336 0,-3.55468 3.17871,-5.79345 3.1958,-2.25586 8.20312,-2.25586 2.51221,0 4.95606,0.4956 2.46094,0.47852 4.25537,1.21338 l 0,5.86182 -0.70068,0 q -1.53809,-1.23047 -3.77686,-2.05078 -2.22168,-0.8374 -4.5459,-0.8374 -0.82031,0 -1.64062,0.11962 -0.80323,0.10254 -1.55518,0.41016 -0.6665,0.25635 -1.14502,0.78613 -0.47851,0.5127 -0.47851,1.1792 0,1.0083 0.76904,1.55518 0.76904,0.52978 2.90527,0.97412 1.40137,0.29053 2.68311,0.56396 1.29883,0.27344 2.78564,0.75196 2.92237,0.95703 4.30664,2.61474 1.40137,1.64063 1.40137,4.27246 z"
         style="font-size:35px;fill:none;stroke:#00ff00"
         id="path4255"
         inkscape:connector-curvature="0" />
      <path
         d="m 494.80841,-149.17151 -18.40576,0 0,-25.44678 18.40576,0 0,4.92188 -11.87744,0 0,4.39209 11.02295,0 0,4.92187 -11.02295,0 0,6.28907 11.87744,0 0,4.92187 z"
         style="font-size:35px;fill:none;stroke:#00ff00"
         id="path4257"
         inkscape:connector-curvature="0" />
    </g>
    <g
       transform="matrix(0.70710678,0.70710678,-0.70710678,0.70710678,0,20)"
       style="font-style:normal;font-variant:normal;font-weight:bold;font-stretch:normal;font-size:50px;line-height:125%;font-family:sans-serif;-inkscape-font-specification:'sans-serif Bold';letter-spacing:0px;word-spacing:0px;fill:none;fill-opacity:1;stroke:#00ff00;stroke-width:1px;stroke-linecap:butt;stroke-linejoin:miter;stroke-opacity:1"
       id="text4207">
      <path
         d="m 503.03799,-53.439844 q 0,5.053711 -1.8457,9.492187 -1.8457,4.438477 -5.18555,7.470703 -3.55957,3.251954 -8.26171,4.965821 -4.65821,1.713867 -10.94239,1.713867 -5.88867,0 -10.7666,-1.582031 -4.83398,-1.625977 -8.30566,-4.921875 -3.99903,-3.779297 -6.1084,-9.75586 -2.10938,-5.976562 -2.10938,-14.282226 0,-8.613281 1.97754,-15.292969 1.97754,-6.679687 6.45996,-11.821289 4.30664,-4.921875 11.16211,-7.646484 6.89942,-2.72461 16.3916,-2.72461 3.20801,0 7.03125,0.439453 3.82325,0.439453 4.96583,0.65918 l 0,12.875977 -1.66993,0 q -1.18652,-0.571289 -4.04297,-1.274414 -2.8125,-0.747071 -6.41601,-0.747071 -8.4375,0 -13.13965,4.13086 -4.70215,4.130859 -5.66894,11.513671 3.38378,-2.021484 7.11914,-3.251953 3.77929,-1.274414 8.12988,-1.274414 3.82324,0 7.07519,0.878907 3.2959,0.878906 6.1084,2.8125 3.64746,2.548828 5.84473,6.855468 2.19726,4.306641 2.19726,10.766602 z m -19.99511,9.887695 q 1.3623,-1.49414 2.15332,-3.515625 0.83496,-2.06543 0.83496,-5.581055 0,-3.208007 -0.92285,-5.229492 -0.92285,-2.065429 -2.54883,-3.295898 -1.58203,-1.230469 -3.73535,-1.669922 -2.15332,-0.483398 -4.43848,-0.483398 -1.93359,0 -4.04297,0.439453 -2.10937,0.439453 -3.86719,1.098632 0,0.439454 -0.0439,1.450196 -0.0439,1.010742 -0.0439,2.548828 0,5.405273 1.05469,8.920898 1.09863,3.47168 2.90039,5.317383 1.23047,1.362305 2.90039,2.021485 1.66992,0.615234 3.60352,0.615234 1.45019,0 3.20801,-0.65918 1.75781,-0.659179 2.98828,-1.977539 z"
         style="font-size:90px;fill:none;stroke:#00ff00"
         id="path4240"
         inkscape:connector-curvature="0" />
    </g>
    <path
       style="fill:none;stroke:#ff0000;stroke-width:0.35433072;stroke-linecap:butt;stroke-linejoin:miter;stroke-miterlimit:4;stroke-dasharray:none;stroke-opacity:1"
       d="m -419.24901,230.73739 283.46457,283.46457 -283.46457,0 z"
       id="path4211"
       inkscape:connector-curvature="0" />
    <path
       style="fill:none;stroke:#ff0000;stroke-width:0.35433072;stroke-linecap:butt;stroke-linejoin:miter;stroke-miterlimit:4;stroke-dasharray:none;stroke-opacity:1"
       d="M -135.78444,372.46967 -277.51672,230.73739"
       id="path4213"
       inkscape:connector-curvature="0" />
    <path
       style="fill:none;stroke:#ff0000;stroke-width:0.35433072;stroke-linecap:butt;stroke-linejoin:miter;stroke-miterlimit:4;stroke-dasharray:none;stroke-opacity:1"
       d="m -419.24901,230.73739 283.46457,0 0,283.46457"
       id="path4215"
       inkscape:connector-curvature="0" />
    <path
       style="fill:none;stroke:#ff0000;stroke-width:0.35433072;stroke-linecap:butt;stroke-linejoin:miter;stroke-miterlimit:4;stroke-dasharray:none;stroke-opacity:1"
       d="m -135.78444,372.46967 -70.86614,70.86614"
       id="path4217"
       inkscape:connector-curvature="0" />
    <path
       style="fill:none;stroke:#ff0000;stroke-width:0.35433072;stroke-linecap:butt;stroke-linejoin:miter;stroke-miterlimit:4;stroke-dasharray:none;stroke-opacity:1"
       d="m -348.38286,301.60353 141.73228,0"
       id="path4219"
       inkscape:connector-curvature="0" />
    <rect
       style="fill:none;stroke:#000000;stroke-width:0.35433072;stroke-miterlimit:4;stroke-dasharray:none"
       id="rect4221"
       width="354.33072"
       height="354.33072"
       x="-454.68207"
       y="195.30428"
       ry="35.433094" />
    <path
       style="fill:none;stroke:#ff0000;stroke-width:0.35433072;stroke-linecap:butt;stroke-linejoin:miter;stroke-miterlimit:4;stroke-dasharray:none;stroke-opacity:1"
       d="M -206.65058,301.60353 -419.24901,514.20196"
       id="path4225"
       inkscape:connector-curvature="0" />
    <text
       sodipodi:linespacing="125%"
       id="text4227"
       y="506.76276"
       x="-383.3114"
       style="font-style:normal;font-variant:normal;font-weight:bold;font-stretch:normal;font-size:40px;line-height:125%;font-family:sans-serif;-inkscape-font-specification:'sans-serif Bold';letter-spacing:0px;word-spacing:0px;fill:none;fill-opacity:1;stroke:#00ff00;stroke-width:1px;stroke-linecap:butt;stroke-linejoin:miter;stroke-opacity:1"
       xml:space="preserve"><tspan
         style="font-size:35px;fill:none;stroke:#00ff00"
         y="506.76276"
         x="-383.3114"
         id="tspan4229"
         sodipodi:role="line">ÉLÉONORE</tspan></text>
    <text
       transform="matrix(0,1,-1,0,0,0)"
       xml:space="preserve"
       style="font-style:normal;font-variant:normal;font-weight:bold;font-stretch:normal;font-size:40px;line-height:125%;font-family:sans-serif;-inkscape-font-specification:'sans-serif Bold';letter-spacing:0px;word-spacing:0px;fill:none;fill-opacity:1;stroke:#00ff00;stroke-width:1px;stroke-linecap:butt;stroke-linejoin:miter;stroke-opacity:1"
       x="267.34146"
       y="411.80978"
       id="text4231"
       sodipodi:linespacing="125%"><tspan
         style="font-size:35px;fill:none;stroke:#00ff00"
         id="tspan4233"
         sodipodi:role="line"
         x="267.34146"
         y="411.80978">AMBROISE</tspan></text>
    <text
       transform="matrix(0.70710678,0.70710678,-0.70710678,0.70710678,0,0)"
       sodipodi:linespacing="125%"
       id="text4235"
       y="353.05435"
       x="34.490501"
       style="font-style:normal;font-variant:normal;font-weight:bold;font-stretch:normal;font-size:50px;line-height:125%;font-family:sans-serif;-inkscape-font-specification:'sans-serif Bold';letter-spacing:0px;word-spacing:0px;fill:none;fill-opacity:1;stroke:#00ff00;stroke-width:1px;stroke-linecap:butt;stroke-linejoin:miter;stroke-opacity:1"
       xml:space="preserve"><tspan
         y="353.05435"
         x="34.490501"
         sodipodi:role="line"
         id="tspan4237"
         style="font-size:90px;fill:none;stroke:#00ff00">6</tspan></text>
    <text
       xml:space="preserve"
       style="font-style:normal;font-weight:normal;font-size:40px;line-height:125%;font-family:sans-serif;letter-spacing:0px;word-spacing:0px;fill:#000000;fill-opacity:1;stroke:none;stroke-width:1px;stroke-linecap:butt;stroke-linejoin:miter;stroke-opacity:1"
       x="-415.71429"
       y="166.64789"
       id="text4276"
       sodipodi:linespacing="125%"><tspan
         sodipodi:role="line"
         id="tspan4278"
         x="-415.71429"
         y="166.64789">text</tspan></text>
    <text
       xml:space="preserve"
       style="font-style:normal;font-weight:normal;font-size:40px;line-height:125%;font-family:sans-serif;letter-spacing:0px;word-spacing:0px;fill:#000000;fill-opacity:1;stroke:none;stroke-width:1px;stroke-linecap:butt;stroke-linejoin:miter;stroke-opacity:1"
       x="91.428581"
       y="-11.923541"
       id="text4280"
       sodipodi:linespacing="125%"><tspan
         sodipodi:role="line"
         id="tspan4282"
         x="91.428581"
         y="-11.923541">vectors</tspan></text>
  </g>
</svg>
