<?xml version="1.0" encoding="UTF-8" standalone="no"?>
<!-- Created with Inkscape (http://www.inkscape.org/) -->

<svg
   xmlns:dc="http://purl.org/dc/elements/1.1/"
   xmlns:cc="http://creativecommons.org/ns#"
   xmlns:rdf="http://www.w3.org/1999/02/22-rdf-syntax-ns#"
   xmlns:svg="http://www.w3.org/2000/svg"
   xmlns="http://www.w3.org/2000/svg"
   xmlns:sodipodi="http://sodipodi.sourceforge.net/DTD/sodipodi-0.dtd"
   xmlns:inkscape="http://www.inkscape.org/namespaces/inkscape"
   width="210mm"
   height="297mm"
   viewBox="0 0 210 297"
   version="1.1"
   id="svg1623"
   inkscape:version="0.92.3 (2405546, 2018-03-11)"
   sodipodi:docname="toit_coupe.svg">
  <defs
     id="defs1617" />
  <sodipodi:namedview
     id="base"
     pagecolor="#ffffff"
     bordercolor="#666666"
     borderopacity="1.0"
     inkscape:pageopacity="0.0"
     inkscape:pageshadow="2"
     inkscape:zoom="0.49497475"
     inkscape:cx="-197.28794"
     inkscape:cy="228.28917"
     inkscape:document-units="mm"
     inkscape:current-layer="layer1"
     showgrid="false"
     inkscape:snap-global="false"
     inkscape:window-width="3440"
     inkscape:window-height="1377"
     inkscape:window-x="-8"
     inkscape:window-y="-8"
     inkscape:window-maximized="1" />
  <metadata
     id="metadata1620">
    <rdf:RDF>
      <cc:Work
         rdf:about="">
        <dc:format>image/svg+xml</dc:format>
        <dc:type
           rdf:resource="http://purl.org/dc/dcmitype/StillImage" />
        <dc:title />
      </cc:Work>
    </rdf:RDF>
  </metadata>
  <g
     inkscape:label="Layer 1"
     inkscape:groupmode="layer"
     id="layer1">
    <path
       inkscape:connector-curvature="0"
       style="fill:none;stroke:#ff0000;stroke-width:0.1;stroke-miterlimit:4;stroke-dasharray:none"
       d="m 150.0271,10.39659 -0.24237,10e-4 0.16692,93.40412 -0.16692,93.4036 h 0.24237 l 7.79797,-3.22564 1.3286,3.20395 8.11992,-3.36775 -1.3255,-3.1962 7.3551,-3.04218 6.76497,-5.18572 2.14405,2.7905 6.97219,-5.35522 -2.13837,-2.78431 6.24819,-4.78989 5.23534,-6.81614 2.84996,2.18385 5.34852,-6.97786 -2.84221,-2.17919 4.75165,-6.18671 3.31246,-7.98608 3.39824,1.40509 3.36052,-8.12406 -3.39049,-1.40249 2.96933,-7.15926 1.13637,-8.59689 3.74188,0.49041 1.14309,-8.71678 -3.73311,-0.48989 1.01183,-7.65691 -0.0315,-0.23926 0.0315,-0.23978 -1.01183,-7.656887 3.73311,-0.48938 -1.14309,-8.717302 -3.74188,0.49093 -1.13637,-8.59741 -2.96933,-7.159251 3.39049,-1.4025 -3.36052,-8.12405 -3.39824,1.4056 -3.31246,-7.9866 -4.75216,-6.1867 2.84272,-2.1792 -5.34852,-6.97786 -2.84996,2.18436 -5.23534,-6.81612 -6.24871,-4.78989 2.13889,-2.78433 -6.97219,-5.35574 -2.14405,2.79104 -6.76497,-5.18573 -7.3551,-3.04271 1.3255,-3.19567 -8.11992,-3.36827 -1.3286,3.20394 z m 10.09085,45.28406 h 9.99991 v 3.79977 h -9.99991 z m 0,46.37495 h 9.99991 v 3.79977 h -9.99991 z m 0,46.37496 h 9.99991 v 3.79976 h -9.99991 z"
       id="path1508" />
    <path
       id="path1586-8"
       d="m -61.846744,206.91021 v 9.9999 h -3.80028 v 9.99991 h 3.80028 v 10.09034 l 4.20078,0.24236 h 0.13022 l 6.44354,11.8706 H 213.77828 l 6.44353,-11.8706 h 0.13023 l 4.20079,-0.24236 v -10.09034 h 3.80029 v -9.99991 h -3.80029 v -9.9999 h -74.1996 v 19.99981 h -3.82044 V 206.91021 H 16.173296 v 19.99981 h -3.82043 v -19.99981 z"
       style="fill:none;stroke:#ff0000;stroke-width:0.1;stroke-linecap:butt;stroke-linejoin:miter;stroke-opacity:1;stroke-miterlimit:4;stroke-dasharray:none"
       inkscape:connector-curvature="0" />
    <path
       style="fill:none;stroke:#ff0000;stroke-width:0.1;stroke-miterlimit:4;stroke-dasharray:none"
       d="m -66.236724,263.09843 v 8.19847 h 3.82044 v 8.79171 h -3.82044 v 8.19795 H 227.76342 v -8.19795 h -3.81992 v -8.79171 h 3.81992 v -8.19847 z m 77.97974,8.19847 h 3.84059 v 8.79171 h -3.84059 z m 134.200084,0 h 3.84059 v 8.79171 h -3.84059 z"
       id="rect1590-9"
       inkscape:connector-curvature="0" />
    <text
       xml:space="preserve"
       style="font-style:normal;font-variant:normal;font-weight:normal;font-stretch:normal;font-size:10.58333302px;line-height:1.25;font-family:Gabriola;-inkscape-font-specification:Gabriola;letter-spacing:0px;word-spacing:0px;fill:#000000;fill-opacity:1;stroke:none;stroke-width:0.26458332"
       x="-84.457161"
       y="226.44086"
       id="text2242"><tspan
         sodipodi:role="line"
         id="tspan2240"
         x="-84.457161"
         y="226.44086"
         style="stroke-width:0.26458332">*3</tspan></text>
    <text
       xml:space="preserve"
       style="font-style:normal;font-variant:normal;font-weight:normal;font-stretch:normal;font-size:10.58333302px;line-height:1.25;font-family:Gabriola;-inkscape-font-specification:Gabriola;letter-spacing:0px;word-spacing:0px;fill:#000000;fill-opacity:1;stroke:none;stroke-width:0.26458332"
       x="-85.981613"
       y="275.61844"
       id="text2246"><tspan
         sodipodi:role="line"
         id="tspan2244"
         x="-85.981613"
         y="275.61844"
         style="stroke-width:0.26458332">*10</tspan></text>
    <text
       xml:space="preserve"
       style="font-style:normal;font-variant:normal;font-weight:normal;font-stretch:normal;font-size:10.58333302px;line-height:1.25;font-family:Gabriola;-inkscape-font-specification:Gabriola;letter-spacing:0px;word-spacing:0px;fill:#000000;fill-opacity:1;stroke:none;stroke-width:0.26458332"
       x="-28.330566"
       y="100.82417"
       id="text2250"><tspan
         sodipodi:role="line"
         id="tspan2248"
         x="-28.330566"
         y="100.82417"
         style="stroke-width:0.26458332">*2</tspan></text>
    <text
       xml:space="preserve"
       style="font-style:normal;font-variant:normal;font-weight:normal;font-stretch:normal;font-size:10.58333302px;line-height:1.25;font-family:Gabriola;-inkscape-font-specification:Gabriola;letter-spacing:0px;word-spacing:0px;fill:#000000;fill-opacity:1;stroke:none;stroke-width:0.26458332"
       x="235.73174"
       y="101.89324"
       id="text2254"><tspan
         sodipodi:role="line"
         id="tspan2252"
         x="235.73174"
         y="101.89324"
         style="stroke-width:0.26458332">*2</tspan></text>
    <path
       style="fill:none;stroke:#000000;stroke-width:0.26458332px;stroke-linecap:butt;stroke-linejoin:miter;stroke-opacity:1"
       d="M 0,239.26978 H 89.802561"
       id="path2256"
       inkscape:connector-curvature="0" />
    <path
       style="fill:none;stroke:#000000;stroke-width:0.26458332px;stroke-linecap:butt;stroke-linejoin:miter;stroke-opacity:1"
       d="M 43.297662,279.3602 H 97.820645"
       id="path2258"
       inkscape:connector-curvature="0" />
    <path
       style="fill:none;stroke:#000000;stroke-width:0.26458332px;stroke-linecap:butt;stroke-linejoin:miter;stroke-opacity:1"
       d="M 85.526247,84.787993 V 154.27807"
       id="path2260"
       inkscape:connector-curvature="0" />
    <path
       style="fill:none;stroke:#000000;stroke-width:0.26458332px;stroke-linecap:butt;stroke-linejoin:miter;stroke-opacity:1"
       d="M 189.76136,89.064308 V 140.91459"
       id="path2262"
       inkscape:connector-curvature="0" />
    <path
       inkscape:connector-curvature="0"
       style="fill:none;stroke:#000080;stroke-width:0.14125538;stroke-miterlimit:4;stroke-dasharray:none"
       d="m 45.305187,16.507452 -0.242359,0.0011 0.0087,4.826061 -11.788902,7.927681 v 32.529283 h 22.112843 v 3.76566 H 33.282626 v 42.655803 h 22.112843 v 3.75325 H 33.282626 v 42.60875 H 55.38978 v 3.76049 H 33.282626 v 32.63522 l 11.787902,7.92716 -0.0077,4.41835 h 0.242358 l 7.797985,-3.22566 1.328605,3.20394 8.119904,-3.36775 -1.325509,-3.19619 7.355122,-3.04218 6.76495,-5.18573 2.14405,2.79051 6.9722,-5.35522 -2.13837,-2.78432 6.24819,-4.78989 5.23534,-6.81612 2.84996,2.18385 5.348497,-6.97787 -2.842177,-2.1792 4.751617,-6.1867 3.31247,-7.98608 3.39824,1.40509 3.36052,-8.12406 -3.39049,-1.40249 2.96933,-7.15926 1.13636,-8.59689 3.7419,0.49041 1.14308,-8.71678 -3.73311,-0.48989 1.01183,-7.6569 -0.0315,-0.23926 0.0315,-0.23978 -1.01183,-7.6569 3.73311,-0.48938 -1.14308,-8.717293 -3.7419,0.49093 -1.13636,-8.59741 -2.96933,-7.15926 3.39049,-1.40249 -3.36052,-8.12406 -3.39824,1.4056 -3.31247,-7.98659 -4.752147,-6.1867 2.842707,-2.1792 -5.348497,-6.97787 -2.84996,2.18437 -5.23531,-6.816126 -6.24872,-4.789889 2.13889,-2.784324 -6.97219,-5.355746 -2.14405,2.791044 -6.76495,-5.18573 -7.355125,-3.042709 1.325509,-3.195671 -8.119904,-3.368271 -1.328605,3.20394 z"
       id="path2021" />
  </g>
</svg>
