<?xml version="1.0" encoding="UTF-8" standalone="no"?>
<!-- Created with Inkscape (http://www.inkscape.org/) -->

<svg
   xmlns:dc="http://purl.org/dc/elements/1.1/"
   xmlns:cc="http://creativecommons.org/ns#"
   xmlns:rdf="http://www.w3.org/1999/02/22-rdf-syntax-ns#"
   xmlns:svg="http://www.w3.org/2000/svg"
   xmlns="http://www.w3.org/2000/svg"
   xmlns:sodipodi="http://sodipodi.sourceforge.net/DTD/sodipodi-0.dtd"
   xmlns:inkscape="http://www.inkscape.org/namespaces/inkscape"
   width="210mm"
   height="297mm"
   viewBox="0 0 744.09448819 1052.3622047"
   id="svg5237"
   version="1.1"
   inkscape:version="0.91 r13725"
   sodipodi:docname="ailes.svg">
  <defs
     id="defs5239" />
  <sodipodi:namedview
     id="base"
     pagecolor="#ffffff"
     bordercolor="#666666"
     borderopacity="1.0"
     inkscape:pageopacity="0.0"
     inkscape:pageshadow="2"
     inkscape:zoom="0.98994949"
     inkscape:cx="231.52401"
     inkscape:cy="536.30602"
     inkscape:document-units="px"
     inkscape:current-layer="layer1"
     showgrid="false"
     inkscape:window-width="3440"
     inkscape:window-height="1377"
     inkscape:window-x="-8"
     inkscape:window-y="-8"
     inkscape:window-maximized="1" />
  <metadata
     id="metadata5242">
    <rdf:RDF>
      <cc:Work
         rdf:about="">
        <dc:format>image/svg+xml</dc:format>
        <dc:type
           rdf:resource="http://purl.org/dc/dcmitype/StillImage" />
        <dc:title></dc:title>
      </cc:Work>
    </rdf:RDF>
  </metadata>
  <g
     inkscape:label="Layer 1"
     inkscape:groupmode="layer"
     id="layer1">
    <path
       id="path4209"
       d="M 12.44541,145.5974 A 180.11867,180.11867 0 0 0 192.56453,325.7165 180.11867,180.11867 0 0 0 371.75789,163.7458 269.05598,221.10084 22.849355 0 0 300.92,118.3337 269.05598,221.10084 22.849355 0 0 12.8165,138.1813 a 180.11867,180.11867 0 0 0 -0.37109,7.4161 z"
       style="fill:none;fill-opacity:1;stroke:#ff0000;stroke-width:0.70866144;stroke-miterlimit:4;stroke-dasharray:none;stroke-dashoffset:0"
       inkscape:connector-curvature="0" />
    <path
       transform="matrix(0,-1,1,0,0,0)"
       style="fill:none;fill-opacity:1;stroke:#0000ff;stroke-width:0.57080895;stroke-miterlimit:4;stroke-dasharray:none;stroke-dashoffset:0"
       d="m -138.79634,30.430939 a 6.8012099,6.8012099 0 0 1 -6.80121,6.80121 6.8012099,6.8012099 0 0 1 -6.80121,-6.80121 6.8012099,6.8012099 0 0 1 6.80121,-6.80121 6.8012099,6.8012099 0 0 1 6.80121,6.80121 z"
       id="circle4211" />
    <path
       inkscape:connector-curvature="0"
       style="fill:none;fill-opacity:1;stroke:#ff0000;stroke-width:0.70866144;stroke-miterlimit:4;stroke-dasharray:none;stroke-dashoffset:0"
       d="M 720.36096,83.978033 A 180.11867,180.11867 0 0 1 540.24184,264.09713 180.11867,180.11867 0 0 1 361.04848,102.12643 a 221.10084,269.05598 67.150645 0 1 70.83789,-45.412097 221.10084,269.05598 67.150645 0 1 288.1035,19.8476 180.11867,180.11867 0 0 1 0.37109,7.4161 z"
       id="path4213" />
    <path
       style="fill:none;fill-opacity:1;stroke:#0000ff;stroke-width:0.57080895;stroke-miterlimit:4;stroke-dasharray:none;stroke-dashoffset:0"
       d="m 702.37541,77.176889 a 6.8012099,6.8012099 0 0 0 -6.80121,6.80121 6.8012099,6.8012099 0 0 0 6.80121,6.80121 6.8012099,6.8012099 0 0 0 6.80121,-6.80121 6.8012099,6.8012099 0 0 0 -6.80121,-6.80121 z"
       id="circle4215"
       inkscape:connector-curvature="0" />
    <path
       inkscape:connector-curvature="0"
       style="fill:none;fill-opacity:1;stroke:#ff0000;stroke-width:0.70866144;stroke-miterlimit:4;stroke-dasharray:none;stroke-dashoffset:0"
       d="m 12.44541,385.35931 a 180.11867,180.11867 0 0 0 180.11912,180.1191 180.11867,180.11867 0 0 0 179.19336,-161.9707 269.05598,221.10084 22.849355 0 0 -70.83789,-45.4121 269.05598,221.10084 22.849355 0 0 -288.1035,19.8476 180.11867,180.11867 0 0 0 -0.37109,7.4161 z"
       id="path5815" />
    <path
       transform="matrix(0,-1,1,0,0,0)"
       style="fill:none;fill-opacity:1;stroke:#0000ff;stroke-width:0.57080895;stroke-miterlimit:4;stroke-dasharray:none;stroke-dashoffset:0"
       d="m -378.55826,30.430939 a 6.8012099,6.8012099 0 0 1 -6.80121,6.80121 6.8012099,6.8012099 0 0 1 -6.80121,-6.80121 6.8012099,6.8012099 0 0 1 6.80121,-6.80121 6.8012099,6.8012099 0 0 1 6.80121,6.80121 z"
       id="circle5817" />
    <path
       id="path5821"
       d="m 720.36096,324.07662 a 180.11867,180.11867 0 0 1 -180.11912,180.1191 180.11867,180.11867 0 0 1 -179.19336,-161.9707 221.10084,269.05598 67.150645 0 1 70.83789,-45.4121 221.10084,269.05598 67.150645 0 1 288.1035,19.8476 180.11867,180.11867 0 0 1 0.37109,7.4161 z"
       style="fill:none;fill-opacity:1;stroke:#ff0000;stroke-width:0.70866144;stroke-miterlimit:4;stroke-dasharray:none;stroke-dashoffset:0"
       inkscape:connector-curvature="0" />
    <path
       style="fill:none;fill-opacity:1;stroke:#0000ff;stroke-width:0.57080895;stroke-miterlimit:4;stroke-dasharray:none;stroke-dashoffset:0"
       d="m 702.37541,317.27548 a 6.8012099,6.8012099 0 0 0 -6.80121,6.80121 6.8012099,6.8012099 0 0 0 6.80121,6.80121 6.8012099,6.8012099 0 0 0 6.80121,-6.80121 6.8012099,6.8012099 0 0 0 -6.80121,-6.80121 z"
       id="circle5823"
       inkscape:connector-curvature="0" />
    <path
       inkscape:connector-curvature="0"
       style="fill:none;fill-opacity:1;stroke:#ff0000;stroke-width:0.70866144;stroke-miterlimit:4;stroke-dasharray:none;stroke-dashoffset:0"
       d="m 12.44541,625.12117 a 180.11867,180.11867 0 0 0 180.11912,180.1191 180.11867,180.11867 0 0 0 179.19336,-161.9707 269.05598,221.10084 22.849355 0 0 -70.83789,-45.4121 269.05598,221.10084 22.849355 0 0 -288.1035,19.8476 180.11867,180.11867 0 0 0 -0.37109,7.4161 z"
       id="path5827" />
    <path
       transform="matrix(0,-1,1,0,0,0)"
       style="fill:none;fill-opacity:1;stroke:#0000ff;stroke-width:0.57080895;stroke-miterlimit:4;stroke-dasharray:none;stroke-dashoffset:0"
       d="m -618.32013,30.430939 a 6.8012099,6.8012099 0 0 1 -6.80121,6.80121 6.8012099,6.8012099 0 0 1 -6.80121,-6.80121 6.8012099,6.8012099 0 0 1 6.80121,-6.80121 6.8012099,6.8012099 0 0 1 6.80121,6.80121 z"
       id="circle5829" />
    <path
       id="path5833"
       d="m 720.36096,564.17527 a 180.11867,180.11867 0 0 1 -180.11912,180.1191 180.11867,180.11867 0 0 1 -179.19336,-161.9707 221.10084,269.05598 67.150645 0 1 70.83789,-45.4121 221.10084,269.05598 67.150645 0 1 288.1035,19.8476 180.11867,180.11867 0 0 1 0.37109,7.4161 z"
       style="fill:none;fill-opacity:1;stroke:#ff0000;stroke-width:0.70866144;stroke-miterlimit:4;stroke-dasharray:none;stroke-dashoffset:0"
       inkscape:connector-curvature="0" />
    <path
       style="fill:none;fill-opacity:1;stroke:#0000ff;stroke-width:0.57080895;stroke-miterlimit:4;stroke-dasharray:none;stroke-dashoffset:0"
       d="m 702.37541,557.37415 a 6.8012099,6.8012099 0 0 0 -6.80121,6.80121 6.8012099,6.8012099 0 0 0 6.80121,6.80121 6.8012099,6.8012099 0 0 0 6.80121,-6.80121 6.8012099,6.8012099 0 0 0 -6.80121,-6.80121 z"
       id="circle5835"
       inkscape:connector-curvature="0" />
    <path
       id="path5839"
       d="M 12.44541,864.88305 A 180.11867,180.11867 0 0 0 192.56453,1045.0022 180.11867,180.11867 0 0 0 371.75789,883.03145 269.05598,221.10084 22.849355 0 0 300.92,837.61935 a 269.05598,221.10084 22.849355 0 0 -288.1035,19.8476 180.11867,180.11867 0 0 0 -0.37109,7.4161 z"
       style="fill:none;fill-opacity:1;stroke:#ff0000;stroke-width:0.70866144;stroke-miterlimit:4;stroke-dasharray:none;stroke-dashoffset:0"
       inkscape:connector-curvature="0" />
    <path
       transform="matrix(0,-1,1,0,0,0)"
       style="fill:none;fill-opacity:1;stroke:#0000ff;stroke-width:0.57080895;stroke-miterlimit:4;stroke-dasharray:none;stroke-dashoffset:0"
       d="m -858.08197,30.430939 a 6.8012099,6.8012099 0 0 1 -6.80121,6.80121 6.8012099,6.8012099 0 0 1 -6.80121,-6.80121 6.8012099,6.8012099 0 0 1 6.80121,-6.80121 6.8012099,6.8012099 0 0 1 6.80121,6.80121 z"
       id="circle5841" />
    <path
       inkscape:connector-curvature="0"
       style="fill:none;fill-opacity:1;stroke:#ff0000;stroke-width:0.70866144;stroke-miterlimit:4;stroke-dasharray:none;stroke-dashoffset:0"
       d="m 720.36096,804.27387 a 180.11867,180.11867 0 0 1 -180.11912,180.1191 180.11867,180.11867 0 0 1 -179.19336,-161.9707 221.10084,269.05598 67.150645 0 1 70.83789,-45.4121 221.10084,269.05598 67.150645 0 1 288.1035,19.8476 180.11867,180.11867 0 0 1 0.37109,7.4161 z"
       id="path5845" />
    <path
       style="fill:none;fill-opacity:1;stroke:#0000ff;stroke-width:0.57080895;stroke-miterlimit:4;stroke-dasharray:none;stroke-dashoffset:0"
       d="m 702.37541,797.47272 a 6.8012099,6.8012099 0 0 0 -6.80121,6.80121 6.8012099,6.8012099 0 0 0 6.80121,6.80121 6.8012099,6.8012099 0 0 0 6.80121,-6.80121 6.8012099,6.8012099 0 0 0 -6.80121,-6.80121 z"
       id="circle5847"
       inkscape:connector-curvature="0" />
  </g>
</svg>
