<?xml version="1.0" encoding="UTF-8" standalone="no"?>
<!-- Created with Inkscape (http://www.inkscape.org/) -->

<svg
   xmlns:dc="http://purl.org/dc/elements/1.1/"
   xmlns:cc="http://creativecommons.org/ns#"
   xmlns:rdf="http://www.w3.org/1999/02/22-rdf-syntax-ns#"
   xmlns:svg="http://www.w3.org/2000/svg"
   xmlns="http://www.w3.org/2000/svg"
   xmlns:sodipodi="http://sodipodi.sourceforge.net/DTD/sodipodi-0.dtd"
   xmlns:inkscape="http://www.inkscape.org/namespaces/inkscape"
   width="210mm"
   height="297mm"
   viewBox="0 0 744.09448819 1052.3622047"
   id="svg4356"
   version="1.1"
   inkscape:version="0.91 r13725"
   sodipodi:docname="wax3.svg">
  <defs
     id="defs4358" />
  <sodipodi:namedview
     id="base"
     pagecolor="#ffffff"
     bordercolor="#666666"
     borderopacity="1.0"
     inkscape:pageopacity="0.0"
     inkscape:pageshadow="2"
     inkscape:zoom="3.7472841"
     inkscape:cx="178.94914"
     inkscape:cy="709.0586"
     inkscape:document-units="px"
     inkscape:current-layer="layer1"
     showgrid="false"
     inkscape:window-width="3440"
     inkscape:window-height="1377"
     inkscape:window-x="-8"
     inkscape:window-y="-8"
     inkscape:window-maximized="1" />
  <metadata
     id="metadata4361">
    <rdf:RDF>
      <cc:Work
         rdf:about="">
        <dc:format>image/svg+xml</dc:format>
        <dc:type
           rdf:resource="http://purl.org/dc/dcmitype/StillImage" />
        <dc:title></dc:title>
      </cc:Work>
    </rdf:RDF>
  </metadata>
  <g
     inkscape:label="Layer 1"
     inkscape:groupmode="layer"
     id="layer1">
    <path
       id="path4273"
       style="fill:none;fill-opacity:1;stroke:#000000;stroke-width:0.19258362;stroke-miterlimit:4;stroke-dasharray:none;stroke-dashoffset:0"
       d="m 230.65088,262.5638 a 48.948488,48.948488 0 0 1 48.94863,48.9486 48.948488,48.948488 0 0 1 -44.01665,48.69704 73.117815,60.085676 67.150645 0 1 -12.34108,-19.25069 73.117815,60.085676 67.150645 0 1 5.39376,-78.29411 48.948488,48.948488 0 0 1 2.01534,-0.10089 z m 0.0635,-6e-5 a 48.948488,48.948488 0 0 0 -0.0317,0.003 48.948488,48.948488 0 0 1 2.04983,0.10244 60.085676,73.117815 22.849355 0 0 -0.003,-0.003 48.948488,48.948488 0 0 0 -2.01535,-0.10075 z m -2.08169,0.10399 a 48.948488,48.948488 0 0 0 -46.86692,48.8446 48.948488,48.948488 0 0 0 44.01666,48.69703 60.085676,73.117815 22.849355 0 0 4.90013,-6.42344 73.117815,60.085676 67.150645 0 1 -7.44096,-12.82725 73.117815,60.085676 67.150645 0 1 5.39109,-78.29094 z m 7.61843,80.29339 a 4.6586895,4.6586895 0 0 0 4.65869,4.65869 4.6586895,4.6586895 0 0 0 4.65869,-4.65869 4.6586895,4.6586895 0 0 0 -4.65869,-4.65869 4.6586895,4.6586895 0 0 0 -4.65869,4.65869 z m 14.94663,-8.15271 a 4.6586895,4.6586895 0 0 0 4.65869,4.65869 4.6586895,4.6586895 0 0 0 4.65869,-4.65869 4.6586895,4.6586895 0 0 0 -4.65869,-4.65869 4.6586895,4.6586895 0 0 0 -4.65869,4.65869 z m -0.34855,-30.28155 a 8.501256,8.501256 0 0 0 8.50125,8.50125 8.501256,8.501256 0 0 0 8.50126,-8.50125 8.501256,8.501256 0 0 0 -8.50126,-8.50126 8.501256,8.501256 0 0 0 -8.50125,8.50126 z m -18.46247,15.14077 a 6.3878441,6.3878441 0 0 0 6.38784,6.38785 6.3878441,6.3878441 0 0 0 6.38785,-6.38785 6.3878441,6.3878441 0 0 0 -6.38785,-6.38784 6.3878441,6.3878441 0 0 0 -6.38784,6.38784 z m 6.0294,-38.62829 a 7.5406141,7.5406141 0 0 0 7.54062,7.54061 7.5406141,7.5406141 0 0 0 7.54061,-7.54061 7.5406141,7.5406141 0 0 0 -7.54061,-7.54062 7.5406141,7.5406141 0 0 0 -7.54062,7.54062 z m -17.96109,57.26283 a 4.6586894,4.6586894 0 0 0 -4.65862,4.65915 4.6586894,4.6586894 0 0 0 4.65862,4.65861 4.6586894,4.6586894 0 0 0 4.48027,-3.3959 73.117815,60.085676 67.150645 0 1 -1.69371,-3.26533 73.117815,60.085676 67.150645 0 1 -0.95168,-2.27861 4.6586894,4.6586894 0 0 0 -1.83488,-0.37792 z m -10.28766,-3.49376 a 4.6586895,4.6586895 0 0 1 -4.65869,4.65869 4.6586895,4.6586895 0 0 1 -4.65869,-4.65869 4.6586895,4.6586895 0 0 1 4.65869,-4.65869 4.6586895,4.6586895 0 0 1 4.65869,4.65869 z m 0.34855,-30.28155 a 8.501256,8.501256 0 0 1 -8.50126,8.50125 8.501256,8.501256 0 0 1 -8.50126,-8.50125 8.501256,8.501256 0 0 1 8.50126,-8.50126 8.501256,8.501256 0 0 1 8.50126,8.50126 z m 23.52718,-8.73499 a 4.6586895,4.6586895 0 0 1 -4.65869,4.65869 4.6586895,4.6586895 0 0 1 -4.65869,-4.65869 4.6586895,4.6586895 0 0 1 4.65869,-4.65869 4.6586895,4.6586895 0 0 1 4.65869,4.65869 z m -18.63468,-22.2931 a 7.5406144,7.5406144 0 0 0 -7.54073,7.54071 7.5406144,7.5406144 0 0 0 7.54073,7.5402 7.5406144,7.5406144 0 0 0 1.39064,-0.13376 73.117815,60.085676 67.150645 0 1 4.06201,-12.61071 7.5406144,7.5406144 0 0 0 -5.45265,-2.33646 z m 21.92181,-23.15435 a 1.5958509,1.5958509 0 0 0 1.59585,1.59585 1.5958509,1.5958509 0 0 0 1.59585,-1.59585 1.5958509,1.5958509 0 0 0 -1.59585,-1.59585 1.5958509,1.5958509 0 0 0 -1.59585,1.59585 z m -2.31193,0 a 3.9077854,3.9077854 0 0 0 3.90778,3.90779 3.9077854,3.9077854 0 0 0 3.90779,-3.90779 3.9077854,3.9077854 0 0 0 -3.90779,-3.90778 3.9077854,3.9077854 0 0 0 -3.90778,3.90778 z m -10.99499,0 a 1.5958509,1.5958509 0 0 1 -1.59585,1.59585 1.5958509,1.5958509 0 0 1 -1.59586,-1.59585 1.5958509,1.5958509 0 0 1 1.59586,-1.59585 1.5958509,1.5958509 0 0 1 1.59585,1.59585 z m 2.31193,0 a 3.9077854,3.9077854 0 0 1 -3.90778,3.90779 3.9077854,3.9077854 0 0 1 -3.90779,-3.90779 3.9077854,3.9077854 0 0 1 3.90779,-3.90778 3.9077854,3.9077854 0 0 1 3.90778,3.90778 z m -15.83186,-22.57641 a 3.5728318,3.5728318 0 0 0 -3.57266,3.57266 3.5728318,3.5728318 0 0 0 3.57266,3.57316 3.5728318,3.5728318 0 0 0 1.61461,-0.38641 c 2.55606,2.57088 5.14917,4.71806 6.03067,9.49611 a 18.316207,17.684616 0 0 0 -5.75094,12.85166 18.316207,17.684616 0 0 0 2.25101,8.45577 48.948488,48.948488 0 0 0 -32.88313,46.17745 48.948488,48.948488 0 0 0 48.94863,48.94809 48.948488,48.948488 0 0 0 48.9486,-48.94809 48.948488,48.948488 0 0 0 -32.86611,-46.17213 18.316207,17.684616 0 0 0 2.2335,-8.46109 18.316207,17.684616 0 0 0 -5.75308,-12.83892 c 0.87919,-4.7871 3.47496,-6.93567 6.03333,-9.50885 a 3.5728318,3.5728318 0 0 0 1.61462,0.38641 3.5728318,3.5728318 0 0 0 3.57265,-3.57316 3.5728318,3.5728318 0 0 0 -3.57265,-3.57266 3.5728318,3.5728318 0 0 0 -3.57265,3.57266 3.5728318,3.5728318 0 0 0 0.42407,1.68572 c -2.1579,2.05109 -6.29605,5.97064 -8.26203,8.34061 a 18.316207,17.684616 0 0 0 -8.80025,-2.17617 18.316207,17.684616 0 0 0 -8.78911,2.19049 c -1.96099,-2.36842 -6.1108,-6.29956 -8.2732,-8.35493 a 3.5728318,3.5728318 0 0 0 0.4241,-1.68572 3.5728318,3.5728318 0 0 0 -3.57264,-3.57266 z" />
    <ellipse
       style="fill:none;fill-opacity:1;stroke:#00ffff;stroke-width:0.31079718;stroke-miterlimit:4;stroke-dasharray:none;stroke-dashoffset:0"
       id="path4942"
       cx="230.71426"
       cy="294.11224"
       rx="79.569016"
       ry="79.569008" />
    <ellipse
       ry="73.975876"
       rx="73.975883"
       cy="294.11224"
       cx="230.71426"
       id="ellipse4998"
       style="fill:none;fill-opacity:1;stroke:#00ffff;stroke-width:0.28895035;stroke-miterlimit:4;stroke-dasharray:none;stroke-dashoffset:0" />
  </g>
</svg>
