<?xml version="1.0" encoding="UTF-8" standalone="no"?>
<!-- Created with Inkscape (http://www.inkscape.org/) -->

<svg
   xmlns:dc="http://purl.org/dc/elements/1.1/"
   xmlns:cc="http://creativecommons.org/ns#"
   xmlns:rdf="http://www.w3.org/1999/02/22-rdf-syntax-ns#"
   xmlns:svg="http://www.w3.org/2000/svg"
   xmlns="http://www.w3.org/2000/svg"
   xmlns:sodipodi="http://sodipodi.sourceforge.net/DTD/sodipodi-0.dtd"
   xmlns:inkscape="http://www.inkscape.org/namespaces/inkscape"
   sodipodi:docname="medieval.svg"
   inkscape:version="0.48.4 r9939"
   version="1.1"
   id="svg2"
   height="1052.3622"
   width="1488.189">
  <sodipodi:namedview
     id="base"
     pagecolor="#ffffff"
     bordercolor="#666666"
     borderopacity="1.0"
     inkscape:pageopacity="0.0"
     inkscape:pageshadow="2"
     inkscape:zoom="0.90509668"
     inkscape:cx="243.77866"
     inkscape:cy="861.54571"
     inkscape:document-units="mm"
     inkscape:current-layer="layer1"
     showgrid="false"
     units="mm"
     inkscape:window-width="1883"
     inkscape:window-height="1176"
     inkscape:window-x="37"
     inkscape:window-y="24"
     inkscape:window-maximized="1"
     inkscape:snap-bbox="false"
     inkscape:object-paths="true"
     inkscape:snap-to-guides="true"
     inkscape:snap-grids="false"
     inkscape:object-nodes="true"
     inkscape:snap-global="true">
    <sodipodi:guide
       orientation="1.0,-6.12323399574e-17"
       position="673.228358268,0"
       id="guide3244" />
    <sodipodi:guide
       orientation="1.0,-6.12323399574e-17"
       position="683.858279528,0"
       id="guide3246" />
    <sodipodi:guide
       orientation="1.0,-6.12323399574e-17"
       position="460.629933072,0"
       id="guide3248" />
    <sodipodi:guide
       orientation="1.0,-6.12323399574e-17"
       position="450.000011812,0"
       id="guide3250" />
    <sodipodi:guide
       orientation="1.0,-6.12323399574e-17"
       position="450.000011812,0"
       id="guide3252" />
    <sodipodi:guide
       orientation="1.0,-6.12323399574e-17"
       position="814.960641732,0"
       id="guide3254" />
    <sodipodi:guide
       orientation="1.0,-6.12323399574e-17"
       position="804.330720472,0"
       id="guide3256" />
    <sodipodi:guide
       orientation="1.0,-6.12323399574e-17"
       position="1027.55906693,0"
       id="guide3258" />
    <sodipodi:guide
       orientation="1.0,-6.12323399574e-17"
       position="1038.18898819,0"
       id="guide3260" />
    <sodipodi:guide
       orientation="1.0,-6.12323399574e-17"
       position="1038.18898819,0"
       id="guide3262" />
    <sodipodi:guide
       orientation="0.0,-1.0"
       position="0,809.645666928"
       id="guide3264" />
    <sodipodi:guide
       orientation="0.0,-1.0"
       position="422.24376,809.64567"
       id="guide3266" />
    <sodipodi:guide
       orientation="0.0,-1.0"
       position="0,586.417320472"
       id="guide3268" />
    <sodipodi:guide
       orientation="0.0,-1.0"
       position="0,597.047241732"
       id="guide3270" />
    <sodipodi:guide
       orientation="0.0,-1.0"
       position="0,586.417320472"
       id="guide3272" />
    <sodipodi:guide
       orientation="0.0,-1.0"
       position="0,242.716533072"
       id="guide3274" />
    <sodipodi:guide
       orientation="0.0,-1.0"
       position="0,232.086611812"
       id="guide3276" />
    <sodipodi:guide
       orientation="0.0,-1.0"
       position="0,465.944879528"
       id="guide3278" />
    <sodipodi:guide
       orientation="0.0,-1.0"
       position="0,455.314958268"
       id="guide3280" />
    <sodipodi:guide
       orientation="0.0,-1.0"
       position="0,465.944879528"
       id="guide3282" />
    <sodipodi:guide
       orientation="1.0,-6.12323399574e-17"
       position="738.77953937,0"
       id="guide3284" />
    <sodipodi:guide
       orientation="1.0,-6.12323399574e-17"
       position="749.40946063,0"
       id="guide3286" />
    <sodipodi:guide
       orientation="0.0,-1.0"
       position="0,526.1811"
       id="guide3288" />
    <sodipodi:guide
       orientation="0.0,-1.0"
       position="0,501.377950394"
       id="guide3290" />
    <sodipodi:guide
       orientation="0.0,-1.0"
       position="0,490.748029134"
       id="guide3292" />
    <sodipodi:guide
       orientation="0.0,-1.0"
       position="0,561.614170866"
       id="guide3294" />
    <sodipodi:guide
       orientation="0.0,-1.0"
       position="0,550.984249606"
       id="guide3296" />
    <sodipodi:guide
       orientation="1.0,-6.12323399574e-17"
       position="744.0945,0"
       id="guide3298" />
    <sodipodi:guide
       orientation="1.0,-6.12323399574e-17"
       position="719.291350394,0"
       id="guide3300" />
    <sodipodi:guide
       orientation="1.0,-6.12323399574e-17"
       position="708.661429134,0"
       id="guide3302" />
    <sodipodi:guide
       orientation="1.0,-6.12323399574e-17"
       position="768.897649606,0"
       id="guide3304" />
    <sodipodi:guide
       orientation="1.0,-6.12323399574e-17"
       position="779.527570866,0"
       id="guide3306" />
    <sodipodi:guide
       id="guide7782"
       position="655.511822835,0"
       orientation="1.0,-6.12323399574e-17" />
    <sodipodi:guide
       id="guide7784"
       position="666.141744095,0"
       orientation="1.0,-6.12323399574e-17" />
    <sodipodi:guide
       id="guide7786"
       position="429.31483,905.09668"
       orientation="1.0,-6.12323399574e-17" />
    <sodipodi:guide
       id="guide7788"
       position="612.637805735,0"
       orientation="1.0,-6.12323399574e-17" />
    <sodipodi:guide
       id="guide7790"
       position="832.677177165,0"
       orientation="1.0,-6.12323399574e-17" />
    <sodipodi:guide
       id="guide7792"
       position="822.047255905,0"
       orientation="1.0,-6.12323399574e-17" />
    <sodipodi:guide
       id="guide7794"
       position="864.921273005,0"
       orientation="1.0,-6.12323399574e-17" />
    <sodipodi:guide
       id="guide7796"
       position="875.551194265,0"
       orientation="1.0,-6.12323399574e-17" />
    <sodipodi:guide
       id="guide7798"
       position="0,647.007873005"
       orientation="0.0,-1.0" />
    <sodipodi:guide
       id="guide7800"
       position="0,657.637794265"
       orientation="0.0,-1.0" />
    <sodipodi:guide
       id="guide7802"
       position="0,604.133855905"
       orientation="0.0,-1.0" />
    <sodipodi:guide
       id="guide7804"
       position="0,614.763777165"
       orientation="0.0,-1.0" />
    <sodipodi:guide
       id="guide7806"
       position="0,405.354326995"
       orientation="0.0,-1.0" />
    <sodipodi:guide
       id="guide7808"
       position="0,394.724405735"
       orientation="0.0,-1.0" />
    <sodipodi:guide
       id="guide7810"
       position="0,448.228344095"
       orientation="0.0,-1.0" />
    <sodipodi:guide
       id="guide7812"
       position="0,437.598422835"
       orientation="0.0,-1.0" />
    <sodipodi:guide
       id="guide7814"
       position="0,526.1811"
       orientation="0.0,-1.0" />
    <sodipodi:guide
       id="guide7816"
       position="0,483.661414961"
       orientation="0.0,-1.0" />
    <sodipodi:guide
       id="guide7818"
       position="0,473.031493701"
       orientation="0.0,-1.0" />
    <sodipodi:guide
       id="guide7820"
       position="786.61419,586.41732"
       orientation="0.0,-1.0" />
    <sodipodi:guide
       id="guide7822"
       position="0,568.700785039"
       orientation="0.0,-1.0" />
    <sodipodi:guide
       id="guide7824"
       position="744.0945,0"
       orientation="1.0,-6.12323399574e-17" />
    <sodipodi:guide
       id="guide7826"
       position="701.574814961,0"
       orientation="1.0,-6.12323399574e-17" />
    <sodipodi:guide
       id="guide7828"
       position="690.944893701,0"
       orientation="1.0,-6.12323399574e-17" />
    <sodipodi:guide
       id="guide7830"
       position="786.614185039,0"
       orientation="1.0,-6.12323399574e-17" />
    <sodipodi:guide
       id="guide7832"
       position="786.61419,-29.294424"
       orientation="1.0,-6.12323399574e-17" />
  </sodipodi:namedview>
  <defs
     id="defs4" />
  <metadata
     id="metadata7">
    <rdf:RDF>
      <cc:Work
         rdf:about="">
        <dc:format>image/svg+xml</dc:format>
        <dc:type
           rdf:resource="http://purl.org/dc/dcmitype/StillImage" />
        <dc:title />
      </cc:Work>
    </rdf:RDF>
  </metadata>
  <g
     style="display:inline"
     transform="translate(0,1.1956816e-4)"
     id="layer1"
     inkscape:groupmode="layer"
     inkscape:label="Layer 1">
    <path
       style="fill:#ffd5d5;fill-rule:nonzero;stroke:#00ffff;stroke-width:0.29818559;stroke-miterlimit:4;stroke-opacity:1;stroke-dasharray:none"
       d="m -577.78573,-461.68267 c -19.581,0 -35.344,15.76287 -35.344,35.34375 l 0,354.218745 c 0,19.58088 15.763,35.34375 35.344,35.34375 l 354.188,0 c 19.581,0 35.343,-15.76287 35.343,-35.34375 l 0,-354.218745 c 0,-19.58088 -15.762,-35.34375 -35.343,-35.34375 l -354.188,0 z m 21.188,35.28125 28.375,0 0,10.625 -28.375,0 0,-10.625 z m 283.437,0 28.375,0 0,10.625 -28.375,0 0,-10.625 z m -304.687,21.25 10.625,0 0,28.34375 -10.625,0 0,-28.34375 z m 60.25,0 10.625,0 0,28.34375 -10.625,0 0,-28.34375 z m 223.187,0 10.625,0 0,28.34375 -10.625,0 0,-28.34375 z m 60.25,0 10.625,0 0,28.34375 -10.625,0 0,-28.34375 z m -262.187,8.84375 10.625,0 0,10.65625 -10.625,0 0,-10.65625 z m 21.25,0 10.625,0 0,10.65625 -10.625,0 0,-10.65625 z m 21.281,0 10.625,0 0,10.65625 -10.625,0 0,-10.65625 z m 21.25,0 10.625,0 0,10.65625 -10.625,0 0,-10.65625 z m 21.25,0 21.281,0 0,10.65625 -21.281,0 0,-10.65625 z m 31.906,0 10.625,0 0,10.65625 -10.625,0 0,-10.65625 z m 21.25,0 10.625,0 0,10.65625 -10.625,0 0,-10.65625 z m 21.25,0 10.656,0 0,10.65625 -10.656,0 0,-10.65625 z m 21.281,0 10.625,0 0,10.65625 -10.625,0 0,-10.65625 z m -240.968,30.125 28.375,0 0,10.65625 -28.375,0 0,-10.65625 z m 283.437,0 28.375,0 0,10.65625 -28.375,0 0,-10.65625 z m -274.594,21.28125 10.657,0 0,10.625 -10.657,0 0,-10.625 z m 283.469,0 10.656,0 0,10.625 -10.656,0 0,-10.625 z m -283.469,21.25 10.657,0 0,10.65625 -10.657,0 0,-10.65625 z m 283.469,0 10.656,0 0,10.65625 -10.656,0 0,-10.65625 z m -283.469,21.28125 10.657,0 0,10.625 -10.657,0 0,-10.625 z m 283.469,0 10.656,0 0,10.625 -10.656,0 0,-10.625 z m -283.469,21.25 10.657,0 0,10.625 -10.657,0 0,-10.625 z m 283.469,0 10.656,0 0,10.625 -10.656,0 0,-10.625 z m -283.469,21.25 10.657,0 0,21.28125 -10.657,0 0,-21.28125 z m 283.469,0 10.656,0 0,21.28125 -10.656,0 0,-21.28125 z m -283.469,31.90625 10.657,0 0,10.625 -10.657,0 0,-10.625 z m 283.469,0 10.656,0 0,10.625 -10.656,0 0,-10.625 z m -283.469,21.25 10.657,0 0,10.625 -10.657,0 0,-10.625 z m 283.469,0 10.656,0 0,10.625 -10.656,0 0,-10.625 z m -283.469,21.28125 10.657,0 0,10.625 -10.657,0 0,-10.625 z m 283.469,0 10.656,0 0,10.625 -10.656,0 0,-10.625 z m -283.469,21.25 10.657,0 0,10.625 -10.657,0 0,-10.625 z m 283.469,0 10.656,0 0,10.625 -10.656,0 0,-10.625 z m -292.312,21.25 28.375,0 0,10.625 -28.375,0 0,-10.625 z m 283.437,0 28.375,0 0,10.625 -28.375,0 0,-10.625 z m -304.687,21.25 10.625,0 0,28.343745 -10.625,0 0,-28.343745 z m 60.25,0 10.625,0 0,28.343745 -10.625,0 0,-28.343745 z m 223.187,0 10.625,0 0,28.343745 -10.625,0 0,-28.343745 z m 60.25,0 10.625,0 0,28.343745 -10.625,0 0,-28.343745 z m -262.187,8.84375 10.625,0 0,10.65625 -10.625,0 0,-10.65625 z m 21.25,0 10.625,0 0,10.65625 -10.625,0 0,-10.65625 z m 21.281,0 10.625,0 0,10.65625 -10.625,0 0,-10.65625 z m 21.25,0 10.625,0 10.625,0 21.281,0 10.625,0 10.625,0 0,10.65625 -10.625,0 -10.625,0 -21.281,0 -10.625,0 -10.625,0 0,-10.65625 z m 74.406,0 10.625,0 0,10.65625 -10.625,0 0,-10.65625 z m 21.25,0 10.656,0 0,10.65625 -10.656,0 0,-10.65625 z m 21.281,0 10.625,0 0,10.65625 -10.625,0 0,-10.65625 z m -240.968,30.124995 28.375,0 0,10.65625 -28.375,0 0,-10.65625 z m 283.437,0 28.375,0 0,10.65625 -28.375,0 0,-10.65625 z"
       id="rect8346"
       inkscape:connector-curvature="0" />
    <path
       style="fill:#00ffff;stroke:#ff0000"
       d="M 816.0625 455.3125 L 816.0625 465.9375 L 805.4375 465.9375 L 805.4375 476.5625 L 816.0625 476.5625 L 816.0625 487.21875 L 805.4375 487.21875 L 805.4375 497.84375 L 816.0625 497.84375 L 816.0625 501.34375 L 816.0625 508.46875 L 805.4375 508.46875 L 805.4375 519.09375 L 816.0625 519.09375 L 816.0625 529.71875 L 805.4375 529.71875 L 805.4375 540.34375 L 816.0625 540.34375 L 816.0625 550.96875 L 826.6875 550.96875 L 826.6875 561.59375 L 837.3125 561.59375 L 837.3125 550.96875 L 847.9375 550.96875 L 847.9375 561.59375 L 858.5625 561.59375 L 858.5625 550.96875 L 865.65625 550.96875 L 869.21875 550.96875 L 869.21875 561.59375 L 879.84375 561.59375 L 879.84375 550.96875 L 890.46875 550.96875 L 890.46875 561.59375 L 894.0625 561.59375 L 901.09375 561.59375 L 911.71875 561.59375 L 932.96875 561.59375 L 943.625 561.59375 L 954.25 561.59375 L 954.25 550.96875 L 964.875 550.96875 L 964.875 561.59375 L 975.5 561.59375 L 975.5 550.96875 L 979.03125 550.96875 L 986.125 550.96875 L 986.125 561.59375 L 996.75 561.59375 L 996.75 550.96875 L 1007.4062 550.96875 L 1007.4062 561.59375 L 1018.0312 561.59375 L 1018.0312 550.96875 L 1028.6562 550.96875 L 1028.6562 540.34375 L 1039.2812 540.34375 L 1039.2812 529.71875 L 1028.6562 529.71875 L 1028.6562 519.09375 L 1039.2812 519.09375 L 1039.2812 508.46875 L 1028.6562 508.46875 L 1028.6562 501.34375 L 1028.6562 497.84375 L 1039.2812 497.84375 L 1039.2812 487.21875 L 1028.6562 487.21875 L 1028.6562 476.5625 L 1039.2812 476.5625 L 1039.2812 465.9375 L 1028.6562 465.9375 L 1028.6562 455.3125 L 1017.9062 455.3125 L 1017.9062 471.84375 C 1017.9062 473.03295 1016.9395 474 1015.75 474 L 1009.4062 474 C 1008.217 474 1007.25 473.03295 1007.25 471.84375 L 1007.25 455.3125 L 1001.8125 455.3125 L 995.46875 455.3125 L 995.46875 471.84375 C 995.46875 473.03295 994.5017 474 993.3125 474 L 986.96875 474 C 985.77955 474 984.8125 473.03295 984.8125 471.84375 L 984.8125 455.3125 L 979.03125 455.3125 L 973.03125 455.3125 L 973.03125 471.84375 C 973.03125 473.03295 972.0642 474 970.875 474 L 964.53125 474 C 963.34205 474 962.375 473.03295 962.375 471.84375 L 962.375 455.3125 L 950.625 455.3125 L 950.625 471.84375 C 950.625 473.03295 949.65795 474 948.46875 474 L 942.125 474 C 940.9358 474 939.96875 473.03295 939.96875 471.84375 L 939.96875 455.3125 L 928.1875 455.3125 L 928.1875 471.84375 C 928.1875 473.03295 927.22045 474 926.03125 474 L 919.6875 474 C 918.4983 474 917.53125 473.03295 917.53125 471.84375 L 917.53125 455.3125 L 905.75 455.3125 L 905.75 471.84375 C 905.75 473.03295 904.78295 474 903.59375 474 L 897.25 474 C 896.0608 474 895.09375 473.03295 895.09375 471.84375 L 895.09375 455.3125 L 883.3125 455.3125 L 883.3125 471.84375 C 883.3125 473.03295 882.34545 474 881.15625 474 L 874.8125 474 C 873.6233 474 872.65625 473.03295 872.65625 471.84375 L 872.65625 455.3125 L 865.65625 455.3125 L 860.875 455.3125 L 860.875 471.84375 C 860.875 473.03295 859.90795 474 858.71875 474 L 852.375 474 C 851.1858 474 850.21875 473.03295 850.21875 471.84375 L 850.21875 455.3125 L 838.4375 455.3125 L 838.4375 471.84375 C 838.4375 473.03295 837.47045 474 836.28125 474 L 829.9375 474 C 828.7483 474 827.78125 473.03295 827.78125 471.84375 L 827.78125 455.3125 L 816.0625 455.3125 z M 922.34375 508.8125 C 930.07826 508.8125 936.34375 515.16202 936.34375 523 L 936.34375 550.96875 L 908.375 550.96875 L 908.375 523.75 C 908.3624 523.50304 908.34375 523.25014 908.34375 523 C 908.34375 515.16202 914.60924 508.8125 922.34375 508.8125 z "
       transform="translate(0,-1.1956816e-4)"
       id="path8109" />
    <path
       style="fill:none;stroke:#ff0000"
       id="box-inner-close-tab"
       d="m 507.136,289.72767 10.62992,0 0,0 10.62992,0 0,10.62992 28.34646,0 0,-10.62992 10.62992,0 10.62992,0 0,10.62992 0,0 0,10.62992 -10.62992,0 0,28.34646 10.62992,0 0,10.62992 0,10.62992 -10.62992,0 0,0 -10.62992,0 0,-10.62992 -28.34646,0 0,10.62992 -10.62992,0 -10.62992,0 0,-10.62992 0,0 0,-10.62992 10.62992,0 0,-28.34646 -10.62992,0 0,-10.62992 z"
       inkscape:connector-curvature="0" />
    <path
       style="fill:none;stroke:#ff0000"
       d="M 532.1875 19.5 L 532.1875 30.125 L 521.53125 30.125 L 521.53125 40.75 L 510.90625 40.75 L 510.90625 51.375 L 521.53125 51.375 L 521.53125 62 L 510.90625 62 L 510.90625 72.625 L 521.53125 72.625 L 521.53125 83.28125 L 510.90625 83.28125 L 510.90625 93.90625 L 521.53125 93.90625 L 521.53125 104.53125 L 510.90625 104.53125 L 510.90625 115.15625 L 521.53125 115.15625 L 521.53125 125.78125 L 510.90625 125.78125 L 510.90625 147.0625 L 521.53125 147.0625 L 521.53125 157.6875 L 510.90625 157.6875 L 510.90625 168.3125 L 521.53125 168.3125 L 521.53125 178.9375 L 510.90625 178.9375 L 510.90625 189.5625 L 521.53125 189.5625 L 521.53125 200.1875 L 510.90625 200.1875 L 510.90625 210.8125 L 521.53125 210.8125 L 521.53125 221.46875 L 510.90625 221.46875 L 510.90625 232.09375 L 521.53125 232.09375 L 521.53125 242.71875 L 532.1875 242.71875 L 532.1875 253.34375 L 560.53125 253.34375 L 560.53125 242.71875 L 571.15625 242.71875 L 571.15625 232.09375 L 581.78125 232.09375 L 581.78125 221.46875 L 571.15625 221.46875 L 571.15625 210.8125 L 581.78125 210.8125 L 581.78125 200.1875 L 571.15625 200.1875 L 571.15625 189.5625 L 581.78125 189.5625 L 581.78125 178.9375 L 571.15625 178.9375 L 571.15625 168.3125 L 581.78125 168.3125 L 581.78125 157.6875 L 571.15625 157.6875 L 571.15625 147.0625 L 581.78125 147.0625 L 581.78125 125.78125 L 571.15625 125.78125 L 571.15625 115.15625 L 581.78125 115.15625 L 581.78125 104.53125 L 571.15625 104.53125 L 571.15625 93.90625 L 581.78125 93.90625 L 581.78125 83.28125 L 571.15625 83.28125 L 571.15625 72.625 L 581.78125 72.625 L 581.78125 62 L 571.15625 62 L 571.15625 51.375 L 581.78125 51.375 L 581.78125 40.75 L 571.15625 40.75 L 571.15625 30.125 L 560.53125 30.125 L 560.53125 19.5 L 532.1875 19.5 z M 541.03125 156.5625 L 551.65625 156.5625 L 551.65625 167.1875 L 541.03125 167.1875 L 541.03125 156.5625 z M 541.03125 177.84375 L 551.65625 177.84375 L 551.65625 188.46875 L 541.03125 188.46875 L 541.03125 177.84375 z M 541.03125 199.09375 L 551.65625 199.09375 L 551.65625 209.71875 L 541.03125 209.71875 L 541.03125 199.09375 z M 541.03125 220.34375 L 551.65625 220.34375 L 551.65625 230.96875 L 541.03125 230.96875 L 541.03125 220.34375 z "
       transform="translate(0,-1.1956816e-4)"
       id="path3313" />
    <path
       style="fill:none;stroke:#ff0000"
       id="path3317"
       d="m 331.50492,30.117959 0,0 0,0 10.62992,0 0,-10.62992 28.34646,0 0,10.62992 10.62992,0 0,0 10.62992,0 0,0 0,10.62992 -10.62992,0 0,10.62992 10.62992,0 0,10.62993 -10.62992,0 0,10.62992 10.62992,0 0,10.62992 -10.62992,0 0,10.62992 10.62992,0 0,10.629921 -10.62992,0 0,10.62992 10.62992,0 0,10.62992 -10.62992,0 0,21.25985 10.62992,0 0,10.62992 -10.62992,0 0,10.62992 10.62992,0 0,10.62992 -10.62992,0 0,10.62992 10.62992,0 0,10.62992 -10.62992,0 0,10.62992 10.62992,0 0,10.62992 -10.62992,0 0,10.62993 10.62992,0 0,10.62992 -10.62992,0 0,0 0,0 -10.62992,0 0,10.62992 -28.34646,0 0,-10.62992 -10.62992,0 -10.62992,0 0,0 0,-10.62992 10.62992,0 0,-10.62993 -10.62992,0 0,-10.62992 10.62992,0 0,-10.62992 -10.62992,0 0,-10.62992 10.62992,0 0,-10.62992 -10.62992,0 0,-10.62992 10.62992,0 0,-10.62992 -10.62992,0 0,-10.62992 10.62992,0 0,-21.25985 -10.62992,0 0,-10.62992 10.62992,0 0,-10.62992 -10.62992,0 0,-10.629921 10.62992,0 0,-10.62992 -10.62992,0 0,-10.62992 10.62992,0 0,-10.62992 -10.62992,0 0,-10.62993 10.62992,0 0,-10.62992 -10.62992,0 0,-10.62992 z"
       inkscape:connector-curvature="0" />
    <path
       style="fill:none;stroke:#ff0000"
       d="M 351 157.6875 L 351 168.3125 L 361.625 168.3125 L 361.625 157.6875 L 351 157.6875 z M 351 178.9375 L 351 189.5625 L 361.625 189.5625 L 361.625 178.9375 L 351 178.9375 z M 351 200.1875 L 351 210.8125 L 361.625 210.8125 L 361.625 200.1875 L 351 200.1875 z M 351 221.46875 L 351 232.09375 L 361.625 232.09375 L 361.625 221.46875 L 351 221.46875 z "
       transform="translate(0,-1.1956816e-4)"
       id="path3333" />
    <g
       id="g8095"
       transform="translate(0,96.469568)">
      <path
         inkscape:connector-curvature="0"
         d="m 719.29135,454.51454 0,0 0,0 10.62992,0 0,10.62992 28.34646,0 0,-10.62992 10.62992,0 0,0 10.62992,0 0,0 0,-10.62992 -10.62992,0 0,-10.62992 10.62992,0 0,-10.62993 -10.62992,0 0,-10.62992 10.62992,0 0,-10.62992 -10.62992,0 0,-10.62992 10.62992,0 0,-10.62992 -10.62992,0 0,-10.62992 10.62992,0 0,-10.62992 -10.62992,0 0,-21.25985 10.62992,0 0,-10.62992 -10.62992,0 0,-10.62992 10.62992,0 0,-10.62992 -10.62992,0 0,-10.62992 10.62992,0 0,-10.62992 -10.62992,0 0,-10.62992 10.62992,0 0,-10.62992 -10.62992,0 0,-10.62993 10.62992,0 0,-10.62992 -10.62992,0 0,0 0,0 -10.62992,0 0,-10.62992 -28.34646,0 0,10.62992 -10.62992,0 -10.62992,0 0,0 0,10.62992 10.62992,0 0,10.62993 -10.62992,0 0,10.62992 10.62992,0 0,10.62992 -10.62992,0 0,10.62992 10.62992,0 0,10.62992 -10.62992,0 0,10.62992 10.62992,0 0,10.62992 -10.62992,0 0,10.62992 10.62992,0 0,21.25985 -10.62992,0 0,10.62992 10.62992,0 0,10.62992 -10.62992,0 0,10.62992 10.62992,0 0,10.62992 -10.62992,0 0,10.62992 10.62992,0 0,10.62992 -10.62992,0 0,10.62993 10.62992,0 0,10.62992 -10.62992,0 0,10.62992 z"
         id="path3319"
         style="fill:none;stroke:#ff0000" />
      <path
         inkscape:connector-curvature="0"
         d="m 749.40946,444.68504 -10.62992,0 0,-10.62992 10.62992,0 z"
         id="path3341"
         style="fill:none;stroke:#ff0000" />
      <path
         inkscape:connector-curvature="0"
         d="m 749.40946,423.42519 -10.62992,0 0,-10.62992 10.62992,0 z"
         id="path3343"
         style="fill:none;stroke:#ff0000" />
      <path
         inkscape:connector-curvature="0"
         d="m 749.40946,402.16535 -10.62992,0 0,-10.62992 10.62992,0 z"
         id="path3345"
         style="fill:none;stroke:#ff0000" />
      <path
         inkscape:connector-curvature="0"
         d="m 749.40946,380.90551 -10.62992,0 0,-10.62992 10.62992,0 z"
         id="path3347"
         style="fill:none;stroke:#ff0000" />
      <path
         inkscape:connector-curvature="0"
         d="m 749.40946,359.64567 -10.62992,0 0,-21.25985 10.62992,0 z"
         id="path3349"
         style="fill:none;stroke:#ff0000" />
      <path
         inkscape:connector-curvature="0"
         d="m 749.40946,327.7559 -10.62992,0 0,-10.62992 10.62992,0 z"
         id="path3351"
         style="fill:none;stroke:#ff0000" />
      <path
         inkscape:connector-curvature="0"
         d="m 749.40946,306.49606 -10.62992,0 0,-10.62992 10.62992,0 z"
         id="path3353"
         style="fill:none;stroke:#ff0000" />
      <path
         inkscape:connector-curvature="0"
         d="m 749.40946,285.23622 -10.62992,0 0,-10.62992 10.62992,0 z"
         id="path3355"
         style="fill:none;stroke:#ff0000" />
      <path
         inkscape:connector-curvature="0"
         d="m 749.40946,263.97638 -10.62992,0 0,-10.62993 10.62992,0 z"
         id="path3357"
         style="fill:none;stroke:#ff0000" />
    </g>
    <path
       inkscape:connector-curvature="0"
       d="m 358.44869,-240.38144 10.62992,0 0,0 10.62992,0 0,10.62992 28.34646,0 0,-10.62992 10.62992,0 10.62992,0 0,10.62992 0,0 0,10.62992 -10.62992,0 0,28.34646 10.62992,0 0,10.62992 0,10.62992 -10.62992,0 0,0 -10.62992,0 0,-10.62992 -28.34646,0 0,10.62992 -10.62992,0 -10.62992,0 0,-10.62992 0,0 0,-10.62992 10.62992,0 0,-28.34646 -10.62992,0 0,-10.62992 z"
       id="path8041"
       style="fill:none;stroke:#ff0000" />
    <path
       style="fill:#00ffff;stroke:#ff0000"
       d="m -108.35754,-477.90952 0,10.625 10.656257,0 0,-10.625 -10.656257,0 z m 0,21.25 0,10.65625 10.656257,0 0,-10.65625 -10.656257,0 z m 0,21.28125 0,10.625 10.656257,0 0,-10.625 -10.656257,0 z m 0,21.25 0,10.625 10.656257,0 0,-10.625 -10.656257,0 z m 0,21.25 0,21.28125 10.656257,0 0,-21.28125 -10.656257,0 z m 0,31.90625 0,10.625 10.656257,0 0,-10.625 -10.656257,0 z m 0,21.25 0,10.625 10.656257,0 0,-10.625 -10.656257,0 z m 0,21.28125 0,10.625 10.656257,0 0,-10.625 -10.656257,0 z m 0,21.25 0,10.625 10.656257,0 0,-10.625 -10.656257,0 z"
       id="path8066"
       inkscape:connector-curvature="0" />
    <path
       inkscape:connector-curvature="0"
       id="path8085"
       d="m 175.10702,-477.90952 0,10.625 10.65626,0 0,-10.625 -10.65626,0 z m 0,21.25 0,10.65625 10.65626,0 0,-10.65625 -10.65626,0 z m 0,21.28125 0,10.625 10.65626,0 0,-10.625 -10.65626,0 z m 0,21.25 0,10.625 10.65626,0 0,-10.625 -10.65626,0 z m 0,21.25 0,21.28125 10.65626,0 0,-21.28125 -10.65626,0 z m 0,31.90625 0,10.625 10.65626,0 0,-10.625 -10.65626,0 z m 0,21.25 0,10.625 10.65626,0 0,-10.625 -10.65626,0 z m 0,21.28125 0,10.625 10.65626,0 0,-10.625 -10.65626,0 z m 0,21.25 0,10.625 10.65626,0 0,-10.625 -10.65626,0 z"
       style="fill:#00ffff;stroke:#ff0000" />
    <path
       inkscape:connector-curvature="0"
       id="path8091"
       d="m 134.37475,-529.29811 -10.625,0 0,10.65625 10.625,0 0,-10.65625 z m -21.25,0 -10.65625,0 0,10.65625 10.65625,0 0,-10.65625 z m -21.281249,0 -10.625,0 0,10.65625 10.625,0 0,-10.65625 z m -21.25,0 -10.625,0 0,10.65625 10.625,0 0,-10.65625 z m -21.25,0 -21.28125,0 0,10.65625 21.28125,0 0,-10.65625 z m -31.906249,0 -10.6249997,0 0,10.65625 10.6249997,0 0,-10.65625 z m -21.2500002,0 -10.6250008,0 0,10.65625 10.6250008,0 0,-10.65625 z m -21.2812508,0 -10.625,0 0,10.65625 10.625,0 0,-10.65625 z m -21.25,0 -10.625,0 0,10.65625 10.625,0 0,-10.65625 z"
       style="fill:#00ffff;stroke:#ff0000" />
    <path
       style="fill:#00ffff;stroke:#ff0000"
       d="m -56.969002,-245.83355 0,10.65625 10.625,0 0,-10.65625 -10.625,0 z m 21.25,0 0,10.65625 10.625,0 0,-10.65625 -10.625,0 z m 21.28125,0 0,10.65625 10.6250001,0 0,-10.65625 -10.6250001,0 z m 21.2500001,0 0,10.65625 10.6249999,0 10.625,0 21.28125,0 10.625,0 10.625,0 0,-10.65625 -10.625,0 -10.625,0 -21.28125,0 -10.625,0 -10.6249999,0 z m 74.4062499,0 0,10.65625 10.625,0 0,-10.65625 -10.625,0 z m 21.250002,0 0,10.65625 10.65625,0 0,-10.65625 -10.65625,0 z m 21.28125,0 0,10.65625 10.625,0 0,-10.65625 -10.625,0 z"
       id="path8093"
       inkscape:connector-curvature="0" />
    <path
       id="path8162"
       d="m 38.877071,242.7164 0,10.625 -10.625,0 0,10.625 10.625,0 0,10.65625 -10.625,0 0,10.625 10.625,0 0,3.5 0,7.125 -10.625,0 0,10.625 10.625,0 0,10.625 -10.625,0 0,10.625 10.625,0 0,10.625 10.625,0 0,10.625 10.625,0 0,-10.625 10.625,0 0,10.625 10.625,0 0,-10.625 7.09375,0 3.5625,0 0,10.625 10.624999,0 0,-10.625 10.625,0 0,10.625 10.625,0 0,-10.625 10.625,0 0,10.625 21.25,0 0,-10.625 10.65625,0 0,10.625 10.625,0 0,-10.625 10.625,0 0,10.625 10.625,0 0,-10.625 3.53125,0 7.09375,0 0,10.625 10.625,0 0,-10.625 10.65625,0 0,10.625 10.625,0 0,-10.625 10.625,0 0,-10.625 10.625,0 0,-10.625 -10.625,0 0,-10.625 10.625,0 0,-10.625 -10.625,0 0,-7.125 0,-3.5 10.625,0 0,-10.625 -10.625,0 0,-10.65625 10.625,0 0,-10.625 -10.625,0 0,-10.625 -10.75,0 0,16.53125 c 0,1.1892 -0.9669,2.15625 -2.1563,2.15625 l -6.3437,0 c -1.1892,0 -2.1563,-0.96705 -2.1563,-2.15625 l 0,-16.53125 -5.4374,0 -6.3438,0 0,16.53125 c 0,1.1892 -0.96705,2.15625 -2.15625,2.15625 l -6.34375,0 c -1.1892,0 -2.15625,-0.96705 -2.15625,-2.15625 l 0,-16.53125 -5.78125,0 -6,0 0,16.53125 c 0,1.1892 -0.96705,2.15625 -2.15625,2.15625 l -6.34375,0 c -1.1892,0 -2.15625,-0.96705 -2.15625,-2.15625 l 0,-16.53125 -11.75,0 0,16.53125 c 0,1.1892 -0.96705,2.15625 -2.15625,2.15625 l -6.34375,0 c -1.1892,0 -2.15625,-0.96705 -2.15625,-2.15625 l 0,-16.53125 -11.78125,0 0,16.53125 c 0,1.1892 -0.96705,2.15625 -2.15625,2.15625 l -6.34375,0 c -1.1892,0 -2.15625,-0.96705 -2.15625,-2.15625 l 0,-16.53125 -11.78125,0 0,16.53125 c 0,1.1892 -0.96705,2.15625 -2.15625,2.15625 l -6.34375,0 c -1.1892,0 -2.15625,-0.96705 -2.15625,-2.15625 l 0,-16.53125 -11.78125,0 0,16.53125 c 0,1.1892 -0.96705,2.15625 -2.15625,2.15625 l -6.343749,0 c -1.1892,0 -2.15625,-0.96705 -2.15625,-2.15625 l 0,-16.53125 -7,0 -4.78125,0 0,16.53125 c 0,1.1892 -0.96705,2.15625 -2.15625,2.15625 l -6.34375,0 c -1.1892,0 -2.15625,-0.96705 -2.15625,-2.15625 l 0,-16.53125 -11.78125,0 0,16.53125 c 0,1.1892 -0.96705,2.15625 -2.15625,2.15625 l -6.34375,0 c -1.1892,0 -2.15625,-0.96705 -2.15625,-2.15625 l 0,-16.53125 -11.71875,0 z"
       style="fill:#f4d7d7;stroke:#ff0000"
       inkscape:connector-curvature="0" />
    <path
       inkscape:connector-curvature="0"
       d="m 257.32422,-259.82027 0,0 0,0 10.62992,0 0,-10.62992 28.34646,0 0,10.62992 10.62992,0 0,0 10.62992,0 0,0 0,10.62992 -10.62992,0 0,10.62992 10.62992,0 0,10.62993 -10.62992,0 0,10.62992 10.62992,0 0,10.62992 -10.62992,0 0,10.62992 10.62992,0 0,10.62992 -10.62992,0 0,10.62991 10.62992,0 0,10.62992 -10.62992,0 0,21.25985 10.62992,0 0,10.62992 -10.62992,0 0,10.62992 10.62992,0 0,10.62992 -10.62992,0 0,10.62992 10.62992,0 0,10.629925 -10.62992,0 0,10.62992 10.62992,0 0,10.62992 -10.62992,0 0,10.62993 10.62992,0 0,10.62992 -10.62992,0 0,0 0,0 -10.62992,0 0,10.62992 -28.34646,0 0,-10.62992 -10.62992,0 -10.62992,0 0,0 0,-10.62992 10.62992,0 0,-10.62993 -10.62992,0 0,-10.62992 10.62992,0 0,-10.62992 -10.62992,0 0,-10.629925 10.62992,0 0,-10.62992 -10.62992,0 0,-10.62992 10.62992,0 0,-10.62992 -10.62992,0 0,-10.62992 10.62992,0 0,-21.25985 -10.62992,0 0,-10.62992 10.62992,0 0,-10.62991 -10.62992,0 0,-10.62992 10.62992,0 0,-10.62992 -10.62992,0 0,-10.62992 10.62992,0 0,-10.62992 -10.62992,0 0,-10.62993 10.62992,0 0,-10.62992 -10.62992,0 0,-10.62992 z"
       id="path9292"
       style="fill:none;stroke:#ff0000" />
    <path
       inkscape:connector-curvature="0"
       d="m 520.86614,-257.14417 0,0 0,0 0,10.62992 10.62992,0 0,10.62993 -10.62992,0 0,10.62992 10.62992,0 0,10.62992 -10.62992,0 0,10.62992 10.62992,0 0,10.62992 -10.62992,0 0,10.62992 10.62992,0 0,10.62992 -10.62992,0 0,10.62992 10.62992,0 0,21.25985 -10.62992,0 0,10.62992 10.62992,0 0,10.62992 -10.62992,0 0,10.62992 10.62992,0 0,10.629919 -10.62992,0 0,10.62992 10.62992,0 0,10.62992 -10.62992,0 0,10.62993 10.62992,0 0,10.62992 -10.62992,0 0,10.62992 0,0 0,0 0,0 -10.62992,0 0,10.62992 -28.34645,0 0,-10.62992 -10.62992,0 0,0 0,0 0,0 0,-10.62992 -10.62992,0 0,-10.62992 10.62992,0 0,-10.62993 -10.62992,0 0,-10.62992 10.62992,0 0,-10.62992 -10.62992,0 0,-10.629919 10.62992,0 0,-10.62992 -10.62992,0 0,-10.62992 10.62992,0 0,-10.62992 -10.62992,0 0,-21.25985 10.62992,0 0,-10.62992 -10.62992,0 0,-10.62992 10.62992,0 0,-10.62992 -10.62992,0 0,-10.62992 10.62992,0 0,-10.62992 -10.62992,0 0,-10.62992 10.62992,0 0,-10.62992 -10.62992,0 0,-10.62993 10.62992,0 0,-10.62992 0,0 0,0 10.62992,0 0,-10.62992 28.34645,0 0,10.62992 10.62992,0 z"
       id="path9294"
       style="fill:none;stroke:#ff0000" />
    <path
       style="fill:none;stroke:#ff0000"
       d="M -84.34375 -174.96875 L -84.34375 -164.34375 L -94.96875 -164.34375 L -105.59375 -164.34375 L -105.59375 -153.71875 L -94.96875 -153.71875 L -94.96875 -143.0625 L -105.59375 -143.0625 L -105.59375 -132.4375 L -94.96875 -132.4375 L -94.96875 -121.8125 L -105.59375 -121.8125 L -105.59375 -111.1875 L -94.96875 -111.1875 L -94.96875 -100.5625 L -105.59375 -100.5625 L -105.59375 -89.9375 L -94.96875 -89.9375 L -94.96875 -79.3125 L -105.59375 -79.3125 L -105.59375 -68.65625 L -94.96875 -68.65625 L -94.96875 -47.40625 L -105.59375 -47.40625 L -105.59375 -36.78125 L -94.96875 -36.78125 L -94.96875 -26.15625 L -105.59375 -26.15625 L -105.59375 -15.53125 L -94.96875 -15.53125 L -94.96875 -4.875 L -105.59375 -4.875 L -105.59375 5.75 L -94.96875 5.75 L -94.96875 16.375 L -105.59375 16.375 L -105.59375 27 L -94.96875 27 L -94.96875 37.625 L -105.59375 37.625 L -105.59375 48.25 L -94.96875 48.25 L -84.34375 48.25 L -84.34375 58.90625 L -56 58.90625 L -56 48.25 L -45.375 48.25 L -34.71875 48.25 L -34.71875 37.625 L -45.375 37.625 L -45.375 27 L -34.71875 27 L -34.71875 16.375 L -45.375 16.375 L -45.375 5.75 L -34.71875 5.75 L -34.71875 -4.875 L -45.375 -4.875 L -45.375 -15.53125 L -34.71875 -15.53125 L -34.71875 -26.15625 L -45.375 -26.15625 L -45.375 -36.78125 L -34.71875 -36.78125 L -34.71875 -47.40625 L -45.375 -47.40625 L -45.375 -68.65625 L -34.71875 -68.65625 L -34.71875 -79.3125 L -45.375 -79.3125 L -45.375 -89.9375 L -34.71875 -89.9375 L -34.71875 -100.5625 L -45.375 -100.5625 L -45.375 -111.1875 L -34.71875 -111.1875 L -34.71875 -121.8125 L -45.375 -121.8125 L -45.375 -132.4375 L -34.71875 -132.4375 L -34.71875 -143.0625 L -45.375 -143.0625 L -45.375 -153.71875 L -34.71875 -153.71875 L -34.71875 -164.34375 L -45.375 -164.34375 L -56 -164.34375 L -56 -174.96875 L -84.34375 -174.96875 z M -75.46875 -36.78125 L -64.84375 -36.78125 L -64.84375 -26.15625 L -75.46875 -26.15625 L -75.46875 -36.78125 z M -75.46875 -15.53125 L -64.84375 -15.53125 L -64.84375 -4.90625 L -75.46875 -4.90625 L -75.46875 -15.53125 z M -75.46875 5.71875 L -64.84375 5.71875 L -64.84375 16.34375 L -75.46875 16.34375 L -75.46875 5.71875 z M -75.46875 27 L -64.84375 27 L -64.84375 37.625 L -75.46875 37.625 L -75.46875 27 z "
       transform="translate(0,-1.1956816e-4)"
       id="path9366" />
  </g>
  <g
     inkscape:label="platform"
     id="layer2"
     inkscape:groupmode="layer"
     style="display:inline" />
  <g
     inkscape:groupmode="layer"
     id="layer3"
     inkscape:label="Edit">
    <path
       style="fill:#00ffff;stroke:#00ffff;stroke-width:0.35433071999999999;stroke-miterlimit:4;stroke-opacity:1;stroke-dasharray:none"
       d="m -117.21691,-559.40737 0,10.625 28.375,0 0,-10.625 -28.375,0 z m -21.25,21.25 0,28.34375 10.625,0 0,-28.34375 -10.625,0 z m 60.25,0 0,28.34375 10.625,0 0,-28.34375 -10.625,0 z m -39,38.96875 0,10.65625 28.375,0 0,-10.65625 -28.375,0 z"
       id="path8062"
       inkscape:connector-curvature="0" />
    <path
       style="fill:#00ffff;stroke:#00ffff;stroke-width:0.35433071999999999;stroke-miterlimit:4;stroke-opacity:1;stroke-dasharray:none"
       d="m -117.21691,-275.94281 0,10.625 28.375,0 0,-10.625 -28.375,0 z m -21.25,21.25 0,28.34375 10.625,0 0,-28.34375 -10.625,0 z m 60.25,0 0,28.34375 10.625,0 0,-28.34375 -10.625,0 z m -39,38.96875 0,10.65625 28.375,0 0,-10.65625 -28.375,0 z"
       id="path8064"
       inkscape:connector-curvature="0" />
    <path
       inkscape:connector-curvature="0"
       id="path8087"
       d="m 166.24765,-559.40737 0,10.625 28.375,0 0,-10.625 -28.375,0 z m -21.25,21.25 0,28.34375 10.625,0 0,-28.34375 -10.625,0 z m 60.25,0 0,28.34375 10.625,0 0,-28.34375 -10.625,0 z m -39,38.96875 0,10.65625 28.375,0 0,-10.65625 -28.375,0 z"
       style="fill:#00ffff;stroke:#00ffff;stroke-width:0.35433071999999999;stroke-miterlimit:4;stroke-opacity:1;stroke-dasharray:none" />
    <path
       inkscape:connector-curvature="0"
       id="path8089"
       d="m 166.24765,-275.94281 0,10.625 28.375,0 0,-10.625 -28.375,0 z m -21.25,21.25 0,28.34375 10.625,0 0,-28.34375 -10.625,0 z m 60.25,0 0,28.34375 10.625,0 0,-28.34375 -10.625,0 z m -39,38.96875 0,10.65625 28.375,0 0,-10.65625 -28.375,0 z"
       style="fill:#00ffff;stroke:#00ffff;stroke-width:0.35433071999999999;stroke-miterlimit:4;stroke-opacity:1;stroke-dasharray:none" />
  </g>
  <path
     inkscape:connector-curvature="0"
     d="m 35.587747,-53.397083 10.62992,0 0,0 10.62993,0 0,10.62992 10.62992,0 0,-10.62992 10.62992,0 0,10.62992 21.25984,0 0,-10.62992 10.629923,0 0,10.62992 10.62992,0 0,-10.62992 10.62993,0 10.62992,0 0,10.62992 0,0 0,10.62993 -10.62992,0 0,10.62992 10.62992,0 0,10.62992 -10.62992,0 0,21.25984 10.62992,0 0,10.62992 -10.62992,0 0,10.62992 10.62992,0 0,10.62993 0,10.62992 -10.62992,0 0,0 -10.62993,0 0,-10.62992 -10.62992,0 0,10.62992 -10.629923,0 0,-10.62992 -21.25984,0 0,10.62992 -10.62992,0 0,-10.62992 -10.62992,0 0,10.62992 -10.62993,0 -10.62992,0 0,-10.62992 0,0 0,-10.62993 10.62992,0 0,-10.62992 -10.62992,0 0,-10.62992 10.62992,0 0,-21.25984 -10.62992,0 0,-10.62992 10.62992,0 0,-10.62992 -10.62992,0 0,-10.62993 z"
     id="boxO-inner-close-tab"
     style="fill:none;stroke:#ff0000" />
  <path
     style="fill:none;stroke:#ff0000"
     d="m 187.95536,-53.397323 0,10.625 -10.625,0 0,10.625 -10.625,0 0,10.625 10.625,0 0,10.65625 -10.625,0 0,21.25 10.625,0 0,10.625 -10.625,0 0,10.625 10.625,0 0,10.625 10.625,0 0,10.65625 10.96875,0 0,-10.65625 10.625,0 0,-4.46875 -16.34375,0 0,-11.21875 16.34375,0 0,-10.03125 -16.34375,0 0,-11.21875 16.34375,0 0,-10.0625 -16.34375,0 0,-11.21875 16.34375,0 0,-10.03125 -16.34375,0 0,-11.21875 16.34375,0 0,-5.5625 -10.625,0 0,-10.625 -10.96875,0 z"
     id="path7867"
     inkscape:connector-curvature="0" />
  <path
     style="fill:none;stroke:#ff0000"
     d="m 35.580357,-121.08482 0,10.625 10.625,0 0,10.999997 -10.625,0 0,10.625 10.625,0 10.65625,0 0,10.625 10.625,0 0,-10.625 10.625,0 0,10.625 21.25,0 0,-10.625 10.625003,0 0,10.625 10.625,0 0,-10.625 10.65625,0 10.625,0 0,-10.625 -10.625,0 0,-10.999997 10.625,0 0,-10.625 -10.625,0 -5.03125,0 0,16.625 -11.21875,0 0,-16.625 -10.03125,0 0,16.625 -11.218753,0 0,-16.625 -10.0625,0 0,16.625 -11.21875,0 0,-16.625 -10.03125,0 0,16.625 -11.21875,0 0,-16.625 -5.03125,0 -10.625,0 z"
     id="path7871"
     inkscape:connector-curvature="0" />
  <path
     style="fill:none;stroke:#ff0000;display:inline"
     d="m 35.580357,-53.397323 0,10.625 0,10.625 10.625,0 0,10.625 -10.625,0 0,10.65625 10.625,0 0,21.25 -10.625,0 0,10.625 10.625,0 0,10.625 -10.625,0 0,10.625 0,10.65625 10.625,0 10.65625,0 0,-10.65625 10.625,0 0,10.65625 10.625,0 0,-10.65625 21.25,0 0,10.65625 10.625003,0 0,-10.65625 10.625,0 0,10.65625 10.65625,0 10.625,0 0,-10.65625 0,-10.625 -10.625,0 0,-10.625 10.625,0 0,-10.625 -10.625,0 0,-21.25 10.625,0 0,-10.65625 -10.625,0 0,-10.625 10.625,0 0,-10.625 0,-10.625 -10.625,0 -10.65625,0 0,10.625 -10.625,0 0,-10.625 -10.625003,0 0,10.625 -21.25,0 0,-10.625 -10.625,0 0,10.625 -10.625,0 0,-10.625 -10.65625,0 -10.625,0 z m 38.96875,17.71875 28.375003,0 0,10.625 -28.375003,0 0,-10.625 z m -21.25,21.25 10.625,0 0,28.34375 -10.625,0 0,-28.34375 z m 60.250003,0 10.625,0 0,28.34375 -10.625,0 0,-28.34375 z m -39.000003,38.96875 28.375003,0 0,10.65625 -28.375003,0 0,-10.65625 z"
     id="path7996"
     inkscape:connector-curvature="0" />
  <rect
     style="fill:#ff0000;fill-rule:nonzero;stroke:#ff0000;stroke-width:0.38050985;stroke-miterlimit:4;stroke-opacity:1;stroke-dasharray:none"
     id="rect8036"
     width="424.81635"
     height="424.81635"
     x="-509.98691"
     y="101.35164"
     ry="42.857143" />
</svg>
