<?xml version="1.0" encoding="UTF-8" standalone="no"?>
<!-- Created with Inkscape (http://www.inkscape.org/) -->

<svg
   xmlns:dc="http://purl.org/dc/elements/1.1/"
   xmlns:cc="http://creativecommons.org/ns#"
   xmlns:rdf="http://www.w3.org/1999/02/22-rdf-syntax-ns#"
   xmlns:svg="http://www.w3.org/2000/svg"
   xmlns="http://www.w3.org/2000/svg"
   xmlns:xlink="http://www.w3.org/1999/xlink"
   xmlns:sodipodi="http://sodipodi.sourceforge.net/DTD/sodipodi-0.dtd"
   xmlns:inkscape="http://www.inkscape.org/namespaces/inkscape"
   width="1488.189"
   height="1052.3622"
   id="svg8200"
   version="1.1"
   inkscape:version="0.48.4 r9939"
   sodipodi:docname="medieval_print.svg">
  <defs
     id="defs8202" />
  <sodipodi:namedview
     id="base"
     pagecolor="#ffffff"
     bordercolor="#666666"
     borderopacity="1.0"
     inkscape:pageopacity="0.0"
     inkscape:pageshadow="2"
     inkscape:zoom="0.49497475"
     inkscape:cx="664.22155"
     inkscape:cy="769.49063"
     inkscape:document-units="px"
     inkscape:current-layer="layer1"
     showgrid="false"
     inkscape:window-width="1883"
     inkscape:window-height="1176"
     inkscape:window-x="1957"
     inkscape:window-y="24"
     inkscape:window-maximized="1" />
  <metadata
     id="metadata8205">
    <rdf:RDF>
      <cc:Work
         rdf:about="">
        <dc:format>image/svg+xml</dc:format>
        <dc:type
           rdf:resource="http://purl.org/dc/dcmitype/StillImage" />
        <dc:title></dc:title>
      </cc:Work>
    </rdf:RDF>
  </metadata>
  <g
     inkscape:label="Layer 1"
     inkscape:groupmode="layer"
     id="layer1"
     transform="translate(0,2.2302535e-5)">
    <path
       id="path8162"
       d="m 1044.3201,672.52197 10.625,0 0,10.625 10.625,0 0,-10.625 10.6562,0 0,10.625 10.625,0 0,-10.625 3.5,0 7.125,0 0,10.625 10.625,0 0,-10.625 10.625,0 0,10.625 10.625,0 0,-10.625 10.625,0 0,-10.625 10.625,0 0,-10.625 -10.625,0 0,-10.625 10.625,0 0,-10.625 -10.625,0 0,-7.0938 0,-3.5625 10.625,0 0,-10.625 -10.625,0 0,-10.625 10.625,0 0,-10.625 -10.625,0 0,-10.625 10.625,0 0,-21.25 -10.625,0 0,-10.6562 10.625,0 0,-10.62499 -10.625,0 0,-10.625 10.625,0 0,-10.625 -10.625,0 0,-3.5313 0,-7.0937 10.625,0 0,-10.625 -10.625,0 0,-10.6563 10.625,0 0,-10.625 -10.625,0 0,-10.625 -10.625,0 0,-10.625 -10.625,0 0,10.625 -10.625,0 0,-10.625 -10.625,0 0,10.625 -7.125,0 -3.5,0 0,-10.625 -10.625,0 0,10.625 -10.6562,0 0,-10.625 -10.625,0 0,10.625 -10.625,0 0,10.75 16.5312,0 c 1.1892,0 2.1563,0.9669 2.1563,2.1563 l 0,6.3437 c 0,1.1892 -0.9671,2.1563 -2.1563,2.1563 l -16.5312,0 0,5.4374 0,6.34381 16.5312,0 c 1.1892,0 2.1563,0.9671 2.1563,2.1563 l 0,6.3437 c 0,1.1892 -0.9671,2.1563 -2.1563,2.1563 l -16.5312,0 0,5.7812 0,6 16.5312,0 c 1.1892,0 2.1563,0.9671 2.1563,2.1563 l 0,6.3437 c 0,1.1892 -0.9671,2.1563 -2.1563,2.1563 l -16.5312,0 0,11.75 16.5312,0 c 1.1892,0 2.1563,0.967 2.1563,2.1562 l 0,6.34379 c 0,1.1892 -0.9671,2.1562 -2.1563,2.1562 l -16.5312,0 0,11.7813 16.5312,0 c 1.1892,0 2.1563,0.967 2.1563,2.1562 l 0,6.3438 c 0,1.1892 -0.9671,2.1562 -2.1563,2.1562 l -16.5312,0 0,11.7813 16.5312,0 c 1.1892,0 2.1563,0.967 2.1563,2.1562 l 0,6.3438 c 0,1.1892 -0.9671,2.1562 -2.1563,2.1562 l -16.5312,0 0,11.7813 16.5312,0 c 1.1892,0 2.1563,0.967 2.1563,2.1562 l 0,6.3438 c 0,1.1892 -0.9671,2.1562 -2.1563,2.1562 l -16.5312,0 0,7 0,4.7813 16.5312,0 c 1.1892,0 2.1563,0.967 2.1563,2.1562 l 0,6.3438 c 0,1.1892 -0.9671,2.1562 -2.1563,2.1562 l -16.5312,0 0,11.7813 16.5312,0 c 1.1892,0 2.1563,0.967 2.1563,2.1562 l 0,6.3438 c 0,1.1892 -0.9671,2.1562 -2.1563,2.1562 l -16.5312,0 0,11.7188 z"
       style="fill:#ffe6d5;stroke:#0000ff;stroke-width:0.35433071;stroke-miterlimit:4;stroke-dasharray:none;display:inline"
       inkscape:connector-curvature="0" />
    <path
       inkscape:connector-curvature="0"
       style="fill:#ffe6d5;stroke:#0000ff;stroke-width:0.35433071;stroke-miterlimit:4;stroke-dasharray:none;display:inline"
       d="m 942.84104,250.32515 0,10.625 -10.625,0 0,10.625 10.625,0 0,10.65625 -10.625,0 0,10.625 10.625,0 0,3.5 0,7.125 -10.625,0 0,10.625 10.625,0 0,10.625 -10.625,0 0,10.625 10.625,0 0,10.625 10.625,0 0,10.625 10.625,0 0,-10.625 10.62497,0 0,10.625 10.625,0 0,-10.625 7.0939,0 3.5625,0 0,10.625 10.62499,0 0,-10.625 10.625,0 0,10.625 3.5936,0 7.0314,0 10.625,0 21.25,0 10.6561,0 10.625,0 0,-10.625 10.625,0 0,10.625 10.625,0 0,-10.625 3.5314,0 7.0936,0 0,10.625 10.625,0 0,-10.625 10.6562,0 0,10.625 10.625,0 0,-10.625 10.625,0 0,-10.625 10.625,0 0,-10.625 -10.625,0 0,-10.625 10.625,0 0,-10.625 -10.625,0 0,-7.125 0,-3.5 10.625,0 0,-10.625 -10.625,0 0,-10.65625 10.625,0 0,-10.625 -10.625,0 0,-10.625 -10.75,0 0,16.53125 c 0,1.1892 -0.9667,2.15625 -2.1562,2.15625 l -6.3438,0 c -1.1892,0 -2.1562,-0.96705 -2.1562,-2.15625 l 0,-16.53125 -5.4375,0 -6.3436,0 0,16.53125 c 0,1.1892 -0.9672,2.15625 -2.1564,2.15625 l -6.3436,0 c -1.1892,0 -2.1564,-0.96705 -2.1564,-2.15625 l 0,-16.53125 -5.7811,0 -6,0 0,16.53125 c 0,1.1892 -0.9672,2.15625 -2.1564,2.15625 l -6.3436,0 c -1.1892,0 -2.1564,-0.96705 -2.1564,-2.15625 l 0,-16.53125 -11.75,0 0,16.53125 c 0,1.1892 -0.967,2.15625 -2.1561,2.15625 l -6.3439,0 c -1.1892,0 -2.1561,-0.96705 -2.1561,-2.15625 l 0,-16.53125 -11.7814,0 0,16.53125 c 0,1.1892 -0.967,2.15625 -2.1561,2.15625 l -6.3439,0 c -1.1892,0 -2.1561,-0.96705 -2.1561,-2.15625 l 0,-16.53125 -11.7814,0 0,16.53125 c 0,1.1892 -0.967,2.15625 -2.1561,2.15625 l -6.3439,0 c -1.1892,0 -2.1561,-0.96705 -2.1561,-2.15625 l 0,-16.53125 -11.7814,0 0,16.53125 c 0,1.1892 -0.967,2.15625 -2.1561,2.15625 l -6.3439,0 c -1.1892,0 -2.15609,-0.96705 -2.15609,-2.15625 l 0,-16.53125 -7,0 -4.7814,0 0,16.53125 c 0,1.1892 -0.967,2.15625 -2.1561,2.15625 l -6.3439,0 c -1.1892,0 -2.1561,-0.96705 -2.1561,-2.15625 l 0,-16.53125 -11.78137,0 0,16.53125 c 0,1.1892 -0.967,2.15625 -2.1561,2.15625 l -6.3439,0 c -1.1892,0 -2.1561,-0.96705 -2.1561,-2.15625 l 0,-16.53125 -11.7189,0 z m 106.28136,53.5 c 7.7345,0 14,6.34952 14,14.1875 l 0,27.96875 -27.9689,0 0,-27.21875 c -0.013,-0.24696 -0.031,-0.49986 -0.031,-0.75 0,-7.83798 6.2654,-14.1875 14,-14.1875 z"
       id="path8109" />
    <path
       style="fill:#ffe6d5;fill-rule:nonzero;stroke:#0000ff;stroke-width:0.35433071;stroke-miterlimit:4;stroke-opacity:1;stroke-dasharray:none;display:inline"
       d="m 59.354405,16.227751 c -19.581,0 -35.344,15.76287 -35.344,35.34375 l 0,354.218749 c 0,19.58088 15.763,35.34375 35.344,35.34375 l 354.187975,0 c 19.581,0 35.343,-15.76287 35.343,-35.34375 l 0,-354.218749 c 0,-19.58088 -15.762,-35.34375 -35.343,-35.34375 l -354.187975,0 z m 21.188,35.28125 28.374995,0 0,10.625 -28.374995,0 0,-10.625 z m 283.436975,0 28.375,0 0,10.625 -28.375,0 0,-10.625 z m -304.686975,21.25 10.625,0 0,28.343749 -10.625,0 0,-28.343749 z m 60.249995,0 10.625,0 0,28.343749 -10.625,0 0,-28.343749 z m 223.18698,0 10.625,0 0,28.343749 -10.625,0 0,-28.343749 z m 60.25,0 10.625,0 0,28.343749 -10.625,0 0,-28.343749 z m -262.18698,8.84375 10.625,0 0,10.65625 -10.625,0 0,-10.65625 z m 21.25,0 10.625,0 0,10.65625 -10.625,0 0,-10.65625 z m 21.281,0 10.625,0 0,10.65625 -10.625,0 0,-10.65625 z m 21.25,0 10.625,0 0,10.65625 -10.625,0 0,-10.65625 z m 21.25,0 21.281,0 0,10.65625 -21.281,0 0,-10.65625 z m 31.906,0 10.625,0 0,10.65625 -10.625,0 0,-10.65625 z m 21.24998,0 10.625,0 0,10.65625 -10.625,0 0,-10.65625 z m 21.25,0 10.656,0 0,10.65625 -10.656,0 0,-10.65625 z m 21.281,0 10.625,0 0,10.65625 -10.625,0 0,-10.65625 z m -240.967975,30.124999 28.374995,0 0,10.65625 -28.374995,0 0,-10.65625 z m 283.436975,0 28.375,0 0,10.65625 -28.375,0 0,-10.65625 z M 89.385405,133.009 l 10.656995,0 0,10.625 -10.656995,0 0,-10.625 z m 283.468975,0 10.656,0 0,10.625 -10.656,0 0,-10.625 z m -283.468975,21.25 10.656995,0 0,10.65625 -10.656995,0 0,-10.65625 z m 283.468975,0 10.656,0 0,10.65625 -10.656,0 0,-10.65625 z m -283.468975,21.28125 10.656995,0 0,10.625 -10.656995,0 0,-10.625 z m 283.468975,0 10.656,0 0,10.625 -10.656,0 0,-10.625 z m -283.468975,21.25 10.656995,0 0,10.625 -10.656995,0 0,-10.625 z m 283.468975,0 10.656,0 0,10.625 -10.656,0 0,-10.625 z m -283.468975,21.25 10.656995,0 0,21.28125 -10.656995,0 0,-21.28125 z m 283.468975,0 10.656,0 0,21.28125 -10.656,0 0,-21.28125 z m -283.468975,31.90625 10.656995,0 0,10.625 -10.656995,0 0,-10.625 z m 283.468975,0 10.656,0 0,10.625 -10.656,0 0,-10.625 z m -283.468975,21.25 10.656995,0 0,10.625 -10.656995,0 0,-10.625 z m 283.468975,0 10.656,0 0,10.625 -10.656,0 0,-10.625 z m -283.468975,21.28125 10.656995,0 0,10.625 -10.656995,0 0,-10.625 z m 283.468975,0 10.656,0 0,10.625 -10.656,0 0,-10.625 z m -283.468975,21.25 10.656995,0 0,10.625 -10.656995,0 0,-10.625 z m 283.468975,0 10.656,0 0,10.625 -10.656,0 0,-10.625 z m -292.311975,21.25 28.374995,0 0,10.625 -28.374995,0 0,-10.625 z m 283.436975,0 28.375,0 0,10.625 -28.375,0 0,-10.625 z m -304.686975,21.25 10.625,0 0,28.34375 -10.625,0 0,-28.34375 z m 60.249995,0 10.625,0 0,28.34375 -10.625,0 0,-28.34375 z m 223.18698,0 10.625,0 0,28.34375 -10.625,0 0,-28.34375 z m 60.25,0 10.625,0 0,28.34375 -10.625,0 0,-28.34375 z m -262.18698,8.84375 10.625,0 0,10.65625 -10.625,0 0,-10.65625 z m 21.25,0 10.625,0 0,10.65625 -10.625,0 0,-10.65625 z m 21.281,0 10.625,0 0,10.65625 -10.625,0 0,-10.65625 z m 21.25,0 10.625,0 10.625,0 21.281,0 10.625,0 10.625,0 0,10.65625 -10.625,0 -10.625,0 -21.281,0 -10.625,0 -10.625,0 0,-10.65625 z m 74.40598,0 10.625,0 0,10.65625 -10.625,0 0,-10.65625 z m 21.25,0 10.656,0 0,10.65625 -10.656,0 0,-10.65625 z m 21.281,0 10.625,0 0,10.65625 -10.625,0 0,-10.65625 z m -240.967975,30.125 28.374995,0 0,10.65625 -28.374995,0 0,-10.65625 z m 283.436975,0 28.375,0 0,10.65625 -28.375,0 0,-10.65625 z"
       id="rect8346"
       inkscape:connector-curvature="0" />
    <path
       inkscape:connector-curvature="0"
       style="fill:#ffe6d5;stroke:#0000ff;stroke-width:0.35433071;stroke-miterlimit:4;stroke-dasharray:none;display:inline"
       d="m 704.83377,249.77066 0,10.625 -10.625,0 0,10.625 10.625,0 0,10.65625 -10.625,0 0,10.625 10.625,0 0,3.5 0,7.125 -10.625,0 0,10.625 10.625,0 0,10.625 -10.625,0 0,10.625 10.625,0 0,10.625 10.625,0 0,10.625 10.625,0 0,-10.625 10.625,0 0,10.625 10.625,0 0,-10.625 7.0938,0 3.5625,0 0,10.625 10.625,0 0,-10.625 10.625,0 0,10.625 10.625,0 0,-10.625 10.625,0 0,10.625 21.25,0 0,-10.625 10.6562,0 0,10.625 10.625,0 0,-10.625 10.625,0 0,10.625 10.625,0 0,-10.625 3.5313,0 7.0937,0 0,10.625 10.625,0 0,-10.625 10.6563,0 0,10.625 10.625,0 0,-10.625 10.625,0 0,-10.625 10.625,0 0,-10.625 -10.625,0 0,-10.625 10.625,0 0,-10.625 -10.625,0 0,-7.125 0,-3.5 10.625,0 0,-10.625 -10.625,0 0,-10.65625 10.625,0 0,-10.625 -10.625,0 0,-10.625 -10.75,0 0,16.53125 c 0,1.1892 -0.9669,2.15625 -2.1563,2.15625 l -6.3437,0 c -1.1892,0 -2.1563,-0.96705 -2.1563,-2.15625 l 0,-16.53125 -5.4374,0 -6.3438,0 0,16.53125 c 0,1.1892 -0.9671,2.15625 -2.1563,2.15625 l -6.3437,0 c -1.1892,0 -2.1563,-0.96705 -2.1563,-2.15625 l 0,-16.53125 -5.7812,0 -6,0 0,16.53125 c 0,1.1892 -0.9671,2.15625 -2.1563,2.15625 l -6.3437,0 c -1.1892,0 -2.1563,-0.96705 -2.1563,-2.15625 l 0,-16.53125 -11.75,0 0,16.53125 c 0,1.1892 -0.967,2.15625 -2.1562,2.15625 l -6.3438,0 c -1.1892,0 -2.1562,-0.96705 -2.1562,-2.15625 l 0,-16.53125 -11.7813,0 0,16.53125 c 0,1.1892 -0.967,2.15625 -2.1562,2.15625 l -6.3438,0 c -1.1892,0 -2.1562,-0.96705 -2.1562,-2.15625 l 0,-16.53125 -11.7813,0 0,16.53125 c 0,1.1892 -0.967,2.15625 -2.1562,2.15625 l -6.3438,0 c -1.1892,0 -2.1562,-0.96705 -2.1562,-2.15625 l 0,-16.53125 -11.7813,0 0,16.53125 c 0,1.1892 -0.967,2.15625 -2.1562,2.15625 l -6.3438,0 c -1.1892,0 -2.1562,-0.96705 -2.1562,-2.15625 l 0,-16.53125 -7,0 -4.7813,0 0,16.53125 c 0,1.1892 -0.967,2.15625 -2.1562,2.15625 l -6.3438,0 c -1.1892,0 -2.1562,-0.96705 -2.1562,-2.15625 l 0,-16.53125 -11.7813,0 0,16.53125 c 0,1.1892 -0.967,2.15625 -2.1562,2.15625 l -6.3438,0 c -1.1892,0 -2.1562,-0.96705 -2.1562,-2.15625 l 0,-16.53125 -11.7188,0 z"
       id="path8382" />
    <path
       id="path8384"
       d="m 464.66257,251.2686 0,10.625 -10.625,0 0,10.625 10.625,0 0,10.65625 -10.625,0 0,10.625 10.625,0 0,3.5 0,7.125 -10.625,0 0,10.625 10.625,0 0,10.625 -10.625,0 0,10.625 10.625,0 0,10.625 10.625,0 0,10.625 10.625,0 0,-10.625 10.625,0 0,10.625 10.625,0 0,-10.625 7.0938,0 3.5625,0 0,10.625 10.625,0 0,-10.625 10.625,0 0,10.625 10.625,0 0,-10.625 10.625,0 0,10.625 21.25,0 0,-10.625 10.6562,0 0,10.625 10.625,0 0,-10.625 10.625,0 0,10.625 10.625,0 0,-10.625 3.5313,0 7.0937,0 0,10.625 10.625,0 0,-10.625 10.6563,0 0,10.625 10.625,0 0,-10.625 10.625,0 0,-10.625 10.625,0 0,-10.625 -10.625,0 0,-10.625 10.625,0 0,-10.625 -10.625,0 0,-7.125 0,-3.5 10.625,0 0,-10.625 -10.625,0 0,-10.65625 10.625,0 0,-10.625 -10.625,0 0,-10.625 -10.75,0 0,16.53125 c 0,1.1892 -0.9669,2.15625 -2.1563,2.15625 l -6.3437,0 c -1.1892,0 -2.1563,-0.96705 -2.1563,-2.15625 l 0,-16.53125 -5.4374,0 -6.3438,0 0,16.53125 c 0,1.1892 -0.9671,2.15625 -2.1563,2.15625 l -6.3437,0 c -1.1892,0 -2.1563,-0.96705 -2.1563,-2.15625 l 0,-16.53125 -5.7812,0 -6,0 0,16.53125 c 0,1.1892 -0.9671,2.15625 -2.1563,2.15625 l -6.3437,0 c -1.1892,0 -2.1563,-0.96705 -2.1563,-2.15625 l 0,-16.53125 -11.75,0 0,16.53125 c 0,1.1892 -0.967,2.15625 -2.1562,2.15625 l -6.3438,0 c -1.1892,0 -2.1562,-0.96705 -2.1562,-2.15625 l 0,-16.53125 -11.7813,0 0,16.53125 c 0,1.1892 -0.967,2.15625 -2.1562,2.15625 l -6.3438,0 c -1.1892,0 -2.1562,-0.96705 -2.1562,-2.15625 l 0,-16.53125 -11.7813,0 0,16.53125 c 0,1.1892 -0.967,2.15625 -2.1562,2.15625 l -6.3438,0 c -1.1892,0 -2.1562,-0.96705 -2.1562,-2.15625 l 0,-16.53125 -11.7813,0 0,16.53125 c 0,1.1892 -0.967,2.15625 -2.1562,2.15625 l -6.3438,0 c -1.1892,0 -2.1562,-0.96705 -2.1562,-2.15625 l 0,-16.53125 -7,0 -4.7813,0 0,16.53125 c 0,1.1892 -0.967,2.15625 -2.1562,2.15625 l -6.3438,0 c -1.1892,0 -2.1562,-0.96705 -2.1562,-2.15625 l 0,-16.53125 -11.7813,0 0,16.53125 c 0,1.1892 -0.967,2.15625 -2.1562,2.15625 l -6.3438,0 c -1.1892,0 -2.1562,-0.96705 -2.1562,-2.15625 l 0,-16.53125 -11.7188,0 z"
       style="fill:#ffe6d5;stroke:#0000ff;stroke-width:0.35433071;stroke-miterlimit:4;stroke-dasharray:none;display:inline"
       inkscape:connector-curvature="0" />
    <g
       id="g8471"
       inkscape:tile-cx="615.32242"
       inkscape:tile-cy="72.936912"
       inkscape:tile-w="303.56183"
       inkscape:tile-h="106.3125"
       inkscape:tile-x0="463.5415"
       inkscape:tile-y0="19.780662"
       style="fill:#ffe6d5;stroke:#0000ff;stroke-width:0.35433071;stroke-miterlimit:4;stroke-dasharray:none">
      <path
         style="fill:#ffe6d5;stroke:#0000ff;stroke-width:0.35433071;stroke-miterlimit:4;stroke-dasharray:none"
         d="m 646.88495,19.78064 0,10.625 -10.625,0 0,10.625 -10.625,0 0,10.625 10.625,0 0,10.65625 -10.625,0 0,21.25 10.625,0 0,10.625 -10.625,0 0,10.625 10.625,0 0,10.625 10.625,0 0,10.65625 10.96875,0 0,-10.65625 10.625,0 0,-4.46875 -16.34375,0 0,-11.21875 16.34375,0 0,-10.03125 -16.34375,0 0,-11.21875 16.34375,0 0,-10.0625 -16.34375,0 0,-11.21875 16.34375,0 0,-10.03125 -16.34375,0 0,-11.21875 16.34375,0 0,-5.5625 -10.625,0 0,-10.625 -10.96875,0 z"
         id="path8444"
         inkscape:connector-curvature="0" />
      <path
         style="fill:#ffe6d5;stroke:#0000ff;stroke-width:0.35433071;stroke-miterlimit:4;stroke-dasharray:none"
         d="m 619.18201,19.78064 -10.625,0 0,10.625 -11,0 0,-10.625 -10.625,0 0,10.625 0,10.65625 -10.625,0 0,10.625 10.625,0 0,10.625 -10.625,0 0,21.25 10.625,0 0,10.62501 -10.625,0 0,10.625 10.625,0 0,10.65625 0,10.62499 10.625,0 0,-10.62499 11,0 0,10.62499 10.625,0 0,-10.62499 0,-5.03125 -16.625,0 0,-11.21875 16.625,0 0,-10.03125 -16.625,0 0,-11.21876 16.625,0 0,-10.0625 -16.625,0 0,-11.21875 16.625,0 0,-10.03125 -16.625,0 0,-11.21875 16.625,0 0,-5.03125 0,-10.625 z"
         id="path8446"
         inkscape:connector-curvature="0" />
      <path
         style="fill:#ffe6d5;stroke:#0000ff;display:inline;stroke-width:0.35433071;stroke-miterlimit:4;stroke-dasharray:none"
         d="m 569.85404,19.78064 -10.625,0 -10.625,0 0,10.625 -10.625,0 0,-10.625 -10.65625,0 0,10.625 -21.25,0 0,-10.625 -10.625,0 0,10.625 -10.625,0 0,-10.625 -10.62499,0 -10.6563,0 0,10.625 0,10.65625 10.6563,0 0,10.625 -10.6563,0 0,10.625 10.6563,0 0,21.25 -10.6563,0 0,10.62501 10.6563,0 0,10.625 -10.6563,0 0,10.65625 0,10.62499 10.6563,0 10.62499,0 0,-10.62499 10.625,0 0,10.62499 10.625,0 0,-10.62499 21.25,0 0,10.62499 10.65625,0 0,-10.62499 10.625,0 0,10.62499 10.625,0 10.625,0 0,-10.62499 0,-10.65625 -10.625,0 0,-10.625 10.625,0 0,-10.62501 -10.625,0 0,-21.25 10.625,0 0,-10.625 -10.625,0 0,-10.625 10.625,0 0,-10.65625 0,-10.625 z m -17.71875,38.96875 0,28.37501 -10.625,0 0,-28.37501 10.625,0 z m -21.25,-21.25 0,10.625 -28.34375,0 0,-10.625 28.34375,0 z m 0,60.25001 0,10.625 -28.34375,0 0,-10.625 28.34375,0 z m -38.96875,-39.00001 0,28.37501 -10.65625,0 0,-28.37501 10.65625,0 z"
         id="path8448"
         inkscape:connector-curvature="0" />
      <path
         inkscape:connector-curvature="0"
         id="path8450"
         d="m 745.50958,19.78064 0,10.625 -10.625,0 0,10.625 -10.625,0 0,10.625 10.625,0 0,10.65625 -10.625,0 0,21.25 10.625,0 0,10.625 -10.625,0 0,10.625 10.625,0 0,10.625 10.625,0 0,10.65625 10.96875,0 0,-10.65625 10.625,0 0,-4.46875 -16.34375,0 0,-11.21875 16.34375,0 0,-10.03125 -16.34375,0 0,-11.21875 16.34375,0 0,-10.0625 -16.34375,0 0,-11.21875 16.34375,0 0,-10.03125 -16.34375,0 0,-11.21875 16.34375,0 0,-5.5625 -10.625,0 0,-10.625 -10.96875,0 z"
         style="fill:#ffe6d5;stroke:#0000ff;stroke-width:0.35433071;stroke-miterlimit:4;stroke-dasharray:none" />
      <path
         inkscape:connector-curvature="0"
         id="path8452"
         d="m 717.80664,19.78064 -10.625,0 0,10.625 -11,0 0,-10.625 -10.625,0 0,10.625 0,10.65625 -10.625,0 0,10.625 10.625,0 0,10.625 -10.625,0 0,21.25 10.625,0 0,10.62501 -10.625,0 0,10.625 10.625,0 0,10.65625 0,10.62499 10.625,0 0,-10.62499 11,0 0,10.62499 10.625,0 0,-10.62499 0,-5.03125 -16.625,0 0,-11.21875 16.625,0 0,-10.03125 -16.625,0 0,-11.21876 16.625,0 0,-10.0625 -16.625,0 0,-11.21875 16.625,0 0,-10.03125 -16.625,0 0,-11.21875 16.625,0 0,-5.03125 0,-10.625 z"
         style="fill:#ffe6d5;stroke:#0000ff;stroke-width:0.35433071;stroke-miterlimit:4;stroke-dasharray:none" />
    </g>
    <path
       style="fill:#ffe6d5;stroke:#0000ff;stroke-width:0.35433071;stroke-miterlimit:4;stroke-dasharray:none;display:inline"
       id="path3313"
       d="m 466.49242,378.32683 0,0 0,0 10.62992,0 0,-10.62992 10.62993,0 0,10.62992 10.62992,0 0,-10.62992 10.62992,0 0,10.62992 10.62992,0 0,-10.62992 10.62992,0 0,10.62992 10.62992,0 0,-10.62992 10.62992,0 0,10.62992 10.62992,0 0,-10.62992 21.25985,0 0,10.62992 10.62992,0 0,-10.62992 10.62992,0 0,10.62992 10.62992,0 0,-10.62992 10.62992,0 0,10.62992 10.62992,0 0,-10.62992 10.62992,0 0,10.62992 10.62993,0 0,-10.62992 10.62992,0 0,10.62992 10.62992,0 0,0 0,0 0,0 0,10.62992 10.62992,0 0,28.34646 -10.62992,0 0,10.62992 0,0 0,0 0,0 -10.62992,0 0,10.62992 -10.62992,0 0,-10.62992 -10.62993,0 0,10.62992 -10.62992,0 0,-10.62992 -10.62992,0 0,10.62992 -10.62992,0 0,-10.62992 -10.62992,0 0,10.62992 -10.62992,0 0,-10.62992 -10.62992,0 0,10.62992 -21.25985,0 0,-10.62992 -10.62992,0 0,10.62992 -10.62992,0 0,-10.62992 -10.62992,0 0,10.62992 -10.62992,0 0,-10.62992 -10.62992,0 0,10.62992 -10.62992,0 0,-10.62992 -10.62992,0 0,10.62992 -10.62993,0 0,-10.62992 -10.62992,0 0,0 0,0 0,-10.62992 -10.62992,0 0,-28.34646 10.62992,0 0,-10.62992 z"
       inkscape:connector-curvature="0" />
    <path
       inkscape:connector-curvature="0"
       d="m 706.07188,379.28622 0,0 0,0 10.62992,0 0,-10.62992 10.62993,0 0,10.62992 10.62992,0 0,-10.62992 10.62992,0 0,10.62992 10.62992,0 0,-10.62992 10.62992,0 0,10.62992 10.62992,0 0,-10.62992 10.62992,0 0,10.62992 10.62992,0 0,-10.62992 21.25985,0 0,10.62992 10.62992,0 0,-10.62992 10.62992,0 0,10.62992 10.62992,0 0,-10.62992 10.62992,0 0,10.62992 10.62992,0 0,-10.62992 10.62992,0 0,10.62992 10.62993,0 0,-10.62992 10.62992,0 0,10.62992 10.62992,0 0,0 0,0 0,0 0,10.62992 10.62992,0 0,28.34646 -10.62992,0 0,10.62992 0,0 0,0 0,0 -10.62992,0 0,10.62992 -10.62992,0 0,-10.62992 -10.62993,0 0,10.62992 -10.62992,0 0,-10.62992 -10.62992,0 0,10.62992 -10.62992,0 0,-10.62992 -10.62992,0 0,10.62992 -10.62992,0 0,-10.62992 -10.62992,0 0,10.62992 -21.25985,0 0,-10.62992 -10.62992,0 0,10.62992 -10.62992,0 0,-10.62992 -10.62992,0 0,10.62992 -10.62992,0 0,-10.62992 -10.62992,0 0,10.62992 -10.62992,0 0,-10.62992 -10.62992,0 0,10.62992 -10.62993,0 0,-10.62992 -10.62992,0 0,0 0,0 0,-10.62992 -10.62992,0 0,-28.34646 10.62992,0 0,-10.62992 z"
       id="path8436"
       style="fill:#ffe6d5;stroke:#0000ff;stroke-width:0.35433071;stroke-miterlimit:4;stroke-dasharray:none;display:inline" />
    <path
       style="fill:#ffe6d5;stroke:#0000ff;stroke-width:0.35433071;stroke-miterlimit:4;stroke-dasharray:none;display:inline"
       id="path8438"
       d="m 945.75288,378.44939 0,0 0,0 10.62992,0 0,-10.62992 10.62993,0 0,10.62992 10.62992,0 0,-10.62992 10.62992,0 0,10.62992 10.6299,0 0,-10.62992 10.62993,0 0,10.62992 10.63,0 0,-10.62992 10.6299,0 0,10.62992 10.6299,0 0,-10.62992 21.2598,0 0,10.62992 10.63,0 0,-10.62992 10.6299,0 0,10.62992 10.6299,0 0,-10.62992 10.6299,0 0,10.62992 10.6299,0 0,-10.62992 10.63,0 0,10.62992 10.6299,0 0,-10.62992 10.6299,0 0,10.62992 10.6299,0 0,0 0,0 0,0 0,10.62992 10.63,0 0,28.34646 -10.63,0 0,10.62992 0,0 0,0 0,0 -10.6299,0 0,10.62992 -10.6299,0 0,-10.62992 -10.6299,0 0,10.62992 -10.63,0 0,-10.62992 -10.6299,0 0,10.62992 -10.6299,0 0,-10.62992 -10.6299,0 0,10.62992 -10.6299,0 0,-10.62992 -10.63,0 0,10.62992 -21.2598,0 0,-10.62992 -10.6299,0 0,10.62992 -10.6299,0 0,-10.62992 -10.63,0 0,10.62992 -10.62993,0 0,-10.62992 -10.6299,0 0,10.62992 -10.62992,0 0,-10.62992 -10.62992,0 0,10.62992 -10.62993,0 0,-10.62992 -10.62992,0 0,0 0,0 0,-10.62992 -10.62992,0 0,-28.34646 10.62992,0 0,-10.62992 z"
       inkscape:connector-curvature="0" />
    <path
       inkscape:connector-curvature="0"
       d="m 1020.101,459.91857 0,0 0,0 0,10.6299 10.6299,0 0,10.63 -10.6299,0 0,10.6299 10.6299,0 0,10.6299 -10.6299,0 0,10.6299 10.6299,0 0,10.6299 -10.6299,0 0,10.63 10.6299,0 0,10.6299 -10.6299,0 0,10.6299 10.6299,0 0,21.2598 -10.6299,0 0,10.63 10.6299,0 0,10.6299 -10.6299,0 0,10.6299 10.6299,0 0,10.6299 -10.6299,0 0,10.6299 10.6299,0 0,10.63 -10.6299,0 0,10.6299 10.6299,0 0,10.6299 -10.6299,0 0,10.6299 0,0 0,0 0,0 -10.6299,0 0,10.63 -28.34646,0 0,-10.63 -10.6299,0 0,0 0,0 0,0 0,-10.6299 -10.6299,0 0,-10.6299 10.6299,0 0,-10.6299 -10.6299,0 0,-10.63 10.6299,0 0,-10.6299 -10.6299,0 0,-10.6299 10.6299,0 0,-10.6299 -10.6299,0 0,-10.6299 10.6299,0 0,-10.63 -10.6299,0 0,-21.2598 10.6299,0 0,-10.6299 -10.6299,0 0,-10.6299 10.6299,0 0,-10.63 -10.6299,0 0,-10.6299 10.6299,0 0,-10.6299 -10.6299,0 0,-10.6299 10.6299,0 0,-10.6299 -10.6299,0 0,-10.63 10.6299,0 0,-10.6299 0,0 0,0 10.6299,0 0,-10.6299 28.34646,0 0,10.6299 10.6299,0 z"
       id="path8440"
       style="fill:#ffe6d5;stroke:#0000ff;stroke-width:0.35433071;stroke-miterlimit:4;stroke-dasharray:none;display:inline" />
    <use
       x="0"
       y="0"
       inkscape:tiled-clone-of="#g8471"
       xlink:href="#g8471"
       transform="translate(0,111.62813)"
       id="use8480"
       style="fill:#ffe6d5;stroke:#0000ff;stroke-width:0.35433071;stroke-miterlimit:4;stroke-dasharray:none" />
    <use
       x="0"
       y="0"
       inkscape:tiled-clone-of="#g8471"
       xlink:href="#g8471"
       transform="translate(318.73992,0)"
       id="use8482"
       style="fill:#ffe6d5;stroke:#0000ff;stroke-width:0.35433071;stroke-miterlimit:4;stroke-dasharray:none" />
    <use
       x="0"
       y="0"
       inkscape:tiled-clone-of="#g8471"
       xlink:href="#g8471"
       transform="translate(318.73992,111.62813)"
       id="use8484"
       style="fill:#ffe6d5;stroke:#0000ff;stroke-width:0.35433071;stroke-miterlimit:4;stroke-dasharray:none" />
    <flowRoot
       xml:space="preserve"
       id="flowRoot9306"
       style="fill:black;stroke:none;stroke-opacity:1;stroke-width:1px;stroke-linejoin:miter;stroke-linecap:butt;fill-opacity:1;font-family:Sans;font-style:normal;font-weight:normal;font-size:40px;line-height:125%;letter-spacing:0px;word-spacing:0px"><flowRegion
         id="flowRegion9308"><rect
           id="rect9310"
           width="1000.051"
           height="370.72598"
           x="-58.588848"
           y="366.4686" /></flowRegion><flowPara
         id="flowPara9312"></flowPara></flowRoot>    <flowRoot
       xml:space="preserve"
       id="flowRoot9314"
       style="fill:black;stroke:none;stroke-opacity:1;stroke-width:1px;stroke-linejoin:miter;stroke-linecap:butt;fill-opacity:1;font-family:Sans;font-style:normal;font-weight:normal;font-size:40px;line-height:125%;letter-spacing:0px;word-spacing:0px"><flowRegion
         id="flowRegion9316"><rect
           id="rect9318"
           width="1114.1982"
           height="280.82242"
           x="-62.629459"
           y="432.12851" /></flowRegion><flowPara
         id="flowPara9320"></flowPara></flowRoot>    <g
       id="g9395"
       inkscape:tile-cx="136.14016"
       inkscape:tile-cy="565.78391"
       inkscape:tile-w="223.61384"
       inkscape:tile-h="233.87501"
       inkscape:tile-x0="24.33324"
       inkscape:tile-y0="448.8464"
       style="fill:#ffe6d5;stroke-width:0.35433071;stroke-miterlimit:4;stroke-dasharray:none;stroke:#0000ff">
      <path
         id="path3313-0"
         d="m 198.35333,448.87764 0,10.625 -10.65625,0 0,10.625 -10.625,0 0,10.625 10.625,0 0,10.625 -10.625,0 0,10.625 10.625,0 0,10.65625 -10.625,0 0,10.625 10.625,0 0,10.625 -10.625,0 0,10.625 10.625,0 0,10.625 -10.625,0 0,21.28125 10.625,0 0,10.625 -10.625,0 0,10.625 10.625,0 0,10.625 -10.625,0 0,10.625 10.625,0 0,10.625 -10.625,0 0,10.625 10.625,0 0,10.65625 -10.625,0 0,10.625 10.625,0 0,10.625 10.65625,0 0,10.625 28.34375,0 0,-10.625 10.625,0 0,-10.625 10.625,0 0,-10.625 -10.625,0 0,-10.65625 10.625,0 0,-10.625 -10.625,0 0,-10.625 10.625,0 0,-10.625 -10.625,0 0,-10.625 10.625,0 0,-10.625 -10.625,0 0,-10.625 10.625,0 0,-21.28125 -10.625,0 0,-10.625 10.625,0 0,-10.625 -10.625,0 0,-10.625 10.625,0 0,-10.625 -10.625,0 0,-10.65625 10.625,0 0,-10.625 -10.625,0 0,-10.625 10.625,0 0,-10.625 -10.625,0 0,-10.625 -10.625,0 0,-10.625 -28.34375,0 z m 8.84375,137.0625 10.625,0 0,10.625 -10.625,0 0,-10.625 z m 0,21.28125 10.625,0 0,10.625 -10.625,0 0,-10.625 z m 0,21.25 10.625,0 0,10.625 -10.625,0 0,-10.625 z m 0,21.25 10.625,0 0,10.625 -10.625,0 0,-10.625 z"
         style="fill:#ffe6d5;stroke:#0000ff;display:inline;stroke-width:0.35433071;stroke-miterlimit:4;stroke-dasharray:none"
         inkscape:connector-curvature="0" />
      <path
         style="fill:#ffe6d5;stroke:#0000ff;display:inline;stroke-width:0.35433071;stroke-miterlimit:4;stroke-dasharray:none"
         id="path9292"
         d="m 111.33701,459.49303 0,0 0,0 10.62992,0 0,-10.62992 28.34646,0 0,10.62992 10.62992,0 0,0 10.62992,0 0,0 0,10.62992 -10.62992,0 0,10.62992 10.62992,0 0,10.62993 -10.62992,0 0,10.62992 10.62992,0 0,10.62992 -10.62992,0 0,10.62992 10.62992,0 0,10.62992 -10.62992,0 0,10.62991 10.62992,0 0,10.62993 -10.62992,0 0,21.25985 10.62992,0 0,10.62992 -10.62992,0 0,10.62992 10.62992,0 0,10.62992 -10.62992,0 0,10.62992 10.62992,0 0,10.62993 -10.62992,0 0,10.62991 10.62992,0 0,10.62993 -10.62992,0 0,10.62993 10.62992,0 0,10.62991 -10.62992,0 0,0 0,0 -10.62992,0 0,10.62993 -28.34646,0 0,-10.62993 -10.62992,0 -10.62992,0 0,0 0,-10.62991 10.62992,0 0,-10.62993 -10.62992,0 0,-10.62993 10.62992,0 0,-10.62991 -10.62992,0 0,-10.62993 10.62992,0 0,-10.62992 -10.62992,0 0,-10.62992 10.62992,0 0,-10.62992 -10.62992,0 0,-10.62992 10.62992,0 0,-21.25985 -10.62992,0 0,-10.62993 10.62992,0 0,-10.62991 -10.62992,0 0,-10.62992 10.62992,0 0,-10.62992 -10.62992,0 0,-10.62992 10.62992,0 0,-10.62992 -10.62992,0 0,-10.62993 10.62992,0 0,-10.62992 -10.62992,0 0,-10.62992 z"
         inkscape:connector-curvature="0" />
      <path
         id="path9366"
         d="m 45.58324,448.84638 0,10.62501 -10.625,0 -10.625,0 0,10.625 10.625,0 0,10.65625 -10.625,0 0,10.625 10.625,0 0,10.625 -10.625,0 0,10.625 10.625,0 0,10.625 -10.625,0 0,10.625 10.625,0 0,10.625 -10.625,0 0,10.65625 10.625,0 0,21.25 -10.625,0 0,10.625 10.625,0 0,10.625 -10.625,0 0,10.625 10.625,0 0,10.65625 -10.625,0 0,10.625 10.625,0 0,10.625 -10.625,0 0,10.625 10.625,0 0,10.625 -10.625,0 0,10.625 10.625,0 10.625,0 0,10.65625 28.343749,0 0,-10.65625 10.625,0 10.656248,0 0,-10.625 -10.656248,0 0,-10.625 10.656248,0 0,-10.625 -10.656248,0 0,-10.625 10.656248,0 0,-10.625 -10.656248,0 0,-10.65625 10.656248,0 0,-10.625 -10.656248,0 0,-10.625 10.656248,0 0,-10.625 -10.656248,0 0,-21.25 10.656248,0 0,-10.65625 -10.656248,0 0,-10.625 10.656248,0 0,-10.625 -10.656248,0 0,-10.625 10.656248,0 0,-10.625 -10.656248,0 0,-10.625 10.656248,0 0,-10.625 -10.656248,0 0,-10.65625 10.656248,0 0,-10.625 -10.656248,0 -10.625,0 0,-10.62501 -28.343749,0 z m 8.875,138.18751 10.624999,0 0,10.625 -10.624999,0 0,-10.625 z m 0,21.25 10.624999,0 0,10.625 -10.624999,0 0,-10.625 z m 0,21.25 10.624999,0 0,10.625 -10.624999,0 0,-10.625 z m 0,21.28125 10.624999,0 0,10.625 -10.624999,0 0,-10.625 z"
         style="fill:#ffe6d5;stroke:#0000ff;display:inline;stroke-width:0.35433071;stroke-miterlimit:4;stroke-dasharray:none"
         inkscape:connector-curvature="0" />
    </g>
    <use
       x="0"
       y="0"
       inkscape:tiled-clone-of="#g9395"
       xlink:href="#g9395"
       transform="translate(234.79453,0)"
       id="use9402"
       style="fill:#ffe6d5;stroke-width:0.35433071;stroke-miterlimit:4;stroke-dasharray:none;stroke:#0000ff" />
    <use
       x="0"
       y="0"
       inkscape:tiled-clone-of="#g9395"
       xlink:href="#g9395"
       transform="translate(469.58906,0)"
       id="use9404"
       style="fill:#ffe6d5;stroke-width:0.35433071;stroke-miterlimit:4;stroke-dasharray:none;stroke:#0000ff" />
    <use
       x="0"
       y="0"
       inkscape:tiled-clone-of="#g9395"
       xlink:href="#g9395"
       transform="translate(704.3836,0)"
       id="use9406"
       style="fill:#ffe6d5;stroke-width:0.35433071;stroke-miterlimit:4;stroke-dasharray:none;stroke:#0000ff" />
  </g>
</svg>
