0
SECTION
2
HEADER
9
$INSUNITS
70
4
9
$ACADVER
1
AC1014
9
$HANDSEED
5
FFFF
0
ENDSEC
0
SECTION
2
TABLES
0
TABLE
2
VPORT
5
8
100
AcDbSymbolTable
0
ENDTAB
0
TABLE
2
LTYPE
5
5
100
AcDbSymbolTable
0
LTYPE
5
14
100
AcDbSymbolTableRecord
100
AcDbLinetypeTableRecord
2
BYBLOCK
70
0
0
LTYPE
5
15
100
AcDbSymbolTableRecord
100
AcDbLinetypeTableRecord
2
BYLAYER
70
0
0
ENDTAB
0
TABLE
2
LAYER
5
2
100
AcDbSymbolTable
70
2
0
LAYER
5
50
100
AcDbSymbolTableRecord
100
AcDbLayerTableRecord
2
0
70
0
6
CONTINUOUS
0
ENDTAB
0
TABLE
2
STYLE
5
3
100
AcDbSymbolTable
70
1
0
STYLE
5
11
100
AcDbSymbolTableRecord
100
AcDbTextStyleTableRecord
2
STANDARD
70
0
0
ENDTAB
0
TABLE
2
VIEW
5
6
100
AcDbSymbolTable
70
0
0
ENDTAB
0
TABLE
2
UCS
5
7
100
AcDbSymbolTable
70
0
0
ENDTAB
0
TABLE
2
APPID
5
9
100
AcDbSymbolTable
70
2
0
APPID
5
12
100
AcDbSymbolTableRecord
100
AcDbRegAppTableRecord
2
ACAD
70
0
0
ENDTAB
0
TABLE
2
DIMSTYLE
5
A
100
AcDbSymbolTable
70
1
0
ENDTAB
0
TABLE
2
BLOCK_RECORD
5
1
100
AcDbSymbolTable
70
1
0
BLOCK_RECORD
5
1F
100
AcDbSymbolTableRecord
100
AcDbBlockTableRecord
2
*MODEL_SPACE
0
BLOCK_RECORD
5
1B
100
AcDbSymbolTableRecord
100
AcDbBlockTableRecord
2
*PAPER_SPACE
0
ENDTAB
0
ENDSEC
0
SECTION
2
BLOCKS
0
BLOCK
5
20
100
AcDbEntity
100
AcDbBlockBegin
2
*MODEL_SPACE
0
ENDBLK
5
21
100
AcDbEntity
100
AcDbBlockEnd
0
BLOCK
5
1C
100
AcDbEntity
100
AcDbBlockBegin
2
*PAPER_SPACE
0
ENDBLK
5
1D
100
AcDbEntity
100
AcDbBlockEnd
0
ENDSEC
0
SECTION
2
ENTITIES
0
CIRCLE
5
100
100
AcDbEntity
8
0
100
AcDbCircle
10
0
20
35
30
0
40
21.5
0
LINE
5
101
100
AcDbEntity
8
0
100
AcDbLine
10
1.4999999999999991
20
0
30
0
11
9.5000000000000018
21
0
31
0
0
LINE
5
102
100
AcDbEntity
8
0
100
AcDbLine
10
9.5000000000000018
20
0
30
0
11
9.5000000000000018
21
-2.9999999999999982
31
0
0
LINE
5
103
100
AcDbEntity
8
0
100
AcDbLine
10
9.5000000000000018
20
-2.9999999999999982
30
0
11
20.935882829778333
21
-2.9999999999999938
31
0
0
LINE
5
104
100
AcDbEntity
8
0
100
AcDbLine
10
20.935882829778333
20
-2.9999999999999938
30
0
11
20.935882829778333
21
8.8817841970012523e-15
31
0
0
LINE
5
105
100
AcDbEntity
8
0
100
AcDbLine
10
20.935882829778333
20
8.8817841970012523e-15
30
0
11
28.935882829778329
21
2.6645352591003757e-14
31
0
0
LINE
5
106
100
AcDbEntity
8
0
100
AcDbLine
10
28.935882829778329
20
2.6645352591003757e-14
30
0
11
28.935882829778329
21
8.0000001192092931
31
0
0
LINE
5
107
100
AcDbEntity
8
0
100
AcDbLine
10
28.935882829778329
20
8.0000001192092931
30
0
11
31.935882829778336
21
8.0000001192092931
31
0
0
LINE
5
108
100
AcDbEntity
8
0
100
AcDbLine
10
31.935882829778336
20
8.0000001192092931
30
0
11
31.935882829778336
21
2.6645352591003757e-14
31
0
0
LINE
5
109
100
AcDbEntity
8
0
100
AcDbLine
10
31.935882829778336
20
2.6645352591003757e-14
30
0
11
46.171282486436112
21
-8.8817841970012523e-15
31
0
0
SPLINE
5
110
100
AcDbEntity
8
0
100
AcDbSpline
70
1064
71
5
72
21
73
15
74
0
42
0.000000001
43
0.0000000001
44
0.0000000001
40
0
40
0
40
0
40
0
40
0
40
0
40
0.10000000000000001
40
0.20000000000000001
40
0.30000000000000004
40
0.40000000000000002
40
0.5
40
0.59999999999999998
40
0.69999999999999996
40
0.79999999999999993
40
0.89999999999999991
40
1
40
1
40
1
40
1
40
1
40
1
10
46.171282486436112
20
-1.0492917870721314e-14
30
0
10
45.537568886000066
20
1.5436767068804127
30
0
10
44.33177061452605
20
4.5374393703604818
30
0
10
42.707950269630246
20
8.7473275080651032
30
0
10
40.907627406516056
20
13.833793575813974
30
0
10
39.245956921214493
20
19.505144228820956
30
0
10
38.157772829588168
20
24.731456706484703
30
0
10
37.634573761761303
20
29.761307331262927
30
0
10
37.672019340568077
20
34.815163353263699
30
0
10
38.256637564793493
20
40.044276467724522
30
0
10
39.375075511879899
20
45.543666641755621
30
0
10
40.692750811607453
20
50.205702696156479
30
0
10
41.920167972884492
20
53.863790767734926
30
0
10
42.845422787000793
20
56.375687277898791
30
0
10
43.334795167922131
20
57.64992857687561
30
0
0
SPLINE
5
111
100
AcDbEntity
8
0
100
AcDbSpline
70
1064
71
5
72
21
73
15
74
0
42
0.000000001
43
0.0000000001
44
0.0000000001
40
0
40
0
40
0
40
0
40
0
40
0
40
0.10000000000000001
40
0.20000000000000001
40
0.30000000000000004
40
0.40000000000000002
40
0.5
40
0.59999999999999998
40
0.69999999999999996
40
0.79999999999999993
40
0.89999999999999991
40
1
40
1
40
1
40
1
40
1
40
1
10
43.334795167922131
20
57.64992857687561
30
0
10
42.173948350159279
20
57.878257092486827
30
0
10
39.927494197474147
20
58.367211738308889
30
0
10
36.783504160298762
20
59.197530397782415
30
0
10
33.009378313902552
20
60.494734608558389
30
0
10
28.806483380565204
20
62.42292077131745
30
0
10
24.898144202459754
20
64.660319246600849
30
0
10
21.071557460639738
20
67.231868018035613
30
0
10
17.17540750869917
20
70.193474587231734
30
0
10
13.137845358704281
20
73.632283577908765
30
0
10
8.9323622499343482
20
77.655242744913295
30
0
10
5.435398058250593
20
81.430703382508284
30
0
10
2.743579766126043
20
84.618465436579896
30
0
10
0.91945684412702511
20
86.908112371009864
30
0
10
-7.5633943552588789e-12
20
88.094056087313263
30
0
0
SPLINE
5
112
100
AcDbEntity
8
0
100
AcDbSpline
70
1064
71
5
72
21
73
15
74
0
42
0.000000001
43
0.0000000001
44
0.0000000001
40
-1
40
-1
40
-1
40
-1
40
-1
40
-1
40
-0.89999999999999991
40
-0.79999999999999993
40
-0.69999999999999996
40
-0.59999999999999998
40
-0.5
40
-0.40000000000000002
40
-0.30000000000000004
40
-0.20000000000000001
40
-0.10000000000000001
40
0
40
0
40
0
40
0
40
0
40
0
10
0
20
88.094056087313263
30
0
10
-0.91945684413445405
20
86.90811237101002
30
0
10
-2.7435797661331565
20
84.618465436580266
30
0
10
-5.4353980582570918
20
81.43070338250871
30
0
10
-8.9323622499397572
20
77.655242744913579
30
0
10
-13.137845358708089
20
73.632283577908638
30
0
10
-17.175407508701415
20
70.193474587231321
30
0
10
-21.071557460640765
20
67.231868018035101
30
0
10
-24.89814420246006
20
64.660319246600224
30
0
10
-28.80648338056529
20
62.422920771316825
30
0
10
-33.009378313902694
20
60.494734608557906
30
0
10
-36.783504160298946
20
59.197530397782188
30
0
10
-39.927494197474267
20
58.367211738308818
30
0
10
-42.173948350159336
20
57.87825709248682
30
0
10
-43.334795167922138
20
57.649928576875624
30
0
0
SPLINE
5
113
100
AcDbEntity
8
0
100
AcDbSpline
70
1064
71
5
72
21
73
15
74
0
42
0.000000001
43
0.0000000001
44
0.0000000001
40
-1
40
-1
40
-1
40
-1
40
-1
40
-1
40
-0.89999999999999991
40
-0.79999999999999993
40
-0.69999999999999996
40
-0.59999999999999998
40
-0.5
40
-0.40000000000000002
40
-0.30000000000000004
40
-0.20000000000000001
40
-0.10000000000000001
40
0
40
0
40
0
40
0
40
0
40
0
10
-43.334795167922138
20
57.649928576875624
30
0
10
-42.845422787000949
20
56.375687277899189
30
0
10
-41.920167972884883
20
53.863790767736084
30
0
10
-40.692750811608065
20
50.205702696158845
30
0
10
-39.375075511880524
20
45.543666641759756
30
0
10
-38.256637564793969
20
40.044276467731095
30
0
10
-37.672019340568426
20
34.815163353272453
30
0
10
-37.634573761761459
20
29.761307331272825
30
0
10
-38.157772829588055
20
24.731456706494207
30
0
10
-39.245956921214102
20
19.505144228828687
30
0
10
-40.907627406515175
20
13.833793575818984
30
0
10
-42.707950269629407
20
8.7473275080678068
30
0
10
-44.331770614525617
20
4.5374393703616933
30
0
10
-45.53756888599991
20
1.54367670688079
30
0
10
-46.171282486436112
20
-1.1102230246251565e-14
30
0
0
LINE
5
114
100
AcDbEntity
8
0
100
AcDbLine
10
-46.171282486436127
20
-1.0518182367925106e-14
30
0
11
-31.935882829778333
21
2.6645352591003757e-14
31
0
0
LINE
5
115
100
AcDbEntity
8
0
100
AcDbLine
10
-31.935882829778333
20
2.6645352591003757e-14
30
0
11
-31.935882829778333
21
8.0000001192092931
31
0
0
LINE
5
116
100
AcDbEntity
8
0
100
AcDbLine
10
-31.935882829778333
20
8.0000001192092931
30
0
11
-28.935882829778336
21
8.0000001192092931
31
0
0
LINE
5
117
100
AcDbEntity
8
0
100
AcDbLine
10
-28.935882829778336
20
8.0000001192092931
30
0
11
-28.935882829778336
21
2.6645352591003757e-14
31
0
0
LINE
5
118
100
AcDbEntity
8
0
100
AcDbLine
10
-28.935882829778336
20
2.6645352591003757e-14
30
0
11
-20.935882829778333
21
8.8817841970012523e-15
31
0
0
LINE
5
119
100
AcDbEntity
8
0
100
AcDbLine
10
-20.935882829778333
20
8.8817841970012523e-15
30
0
11
-20.935882829778333
21
-2.9999999999999938
31
0
0
LINE
5
120
100
AcDbEntity
8
0
100
AcDbLine
10
-20.935882829778333
20
-2.9999999999999938
30
0
11
-9.5000000000000018
21
-2.9999999999999982
31
0
0
LINE
5
121
100
AcDbEntity
8
0
100
AcDbLine
10
-9.5000000000000018
20
-2.9999999999999982
30
0
11
-9.5000000000000018
21
0
31
0
0
LINE
5
122
100
AcDbEntity
8
0
100
AcDbLine
10
-9.5000000000000018
20
0
30
0
11
-1.4999999999999991
21
0
31
0
0
LINE
5
123
100
AcDbEntity
8
0
100
AcDbLine
10
-1.4999999999999991
20
0
30
0
11
-1.4999999999999991
21
8.0000001192092629
31
0
0
LINE
5
124
100
AcDbEntity
8
0
100
AcDbLine
10
-1.4999999999999991
20
8.0000001192092629
30
0
11
1.4999999999999991
21
8.0000001192092629
31
0
0
LINE
5
125
100
AcDbEntity
8
0
100
AcDbLine
10
1.4999999999999991
20
8.0000001192092629
30
0
11
1.4999999999999991
21
0
31
0
0
ENDSEC
0
SECTION
2
OBJECTS
0
DICTIONARY
5
C
100
AcDbDictionary
3
ACAD_GROUP
350
D
3
ACAD_MLINESTYLE
350
17
0
DICTIONARY
5
D
100
AcDbDictionary
0
DICTIONARY
5
1A
330
C
100
AcDbDictionary
0
DICTIONARY
5
17
100
AcDbDictionary
0
ENDSEC
0
EOF
