<?xml version="1.0" encoding="UTF-8" standalone="no"?>
<!-- Created with Inkscape (http://www.inkscape.org/) -->

<svg
   xmlns:dc="http://purl.org/dc/elements/1.1/"
   xmlns:cc="http://creativecommons.org/ns#"
   xmlns:rdf="http://www.w3.org/1999/02/22-rdf-syntax-ns#"
   xmlns:svg="http://www.w3.org/2000/svg"
   xmlns="http://www.w3.org/2000/svg"
   xmlns:sodipodi="http://sodipodi.sourceforge.net/DTD/sodipodi-0.dtd"
   xmlns:inkscape="http://www.inkscape.org/namespaces/inkscape"
   width="210mm"
   height="297mm"
   viewBox="0 0 744.09448819 1052.3622047"
   id="svg2"
   version="1.1"
   inkscape:version="0.91 r13725"
   sodipodi:docname="shield.svg">
  <defs
     id="defs4" />
  <sodipodi:namedview
     id="base"
     pagecolor="#ffffff"
     bordercolor="#666666"
     borderopacity="1.0"
     inkscape:pageopacity="0.0"
     inkscape:pageshadow="2"
     inkscape:zoom="0.98994949"
     inkscape:cx="344.44687"
     inkscape:cy="607.11045"
     inkscape:document-units="cm"
     inkscape:current-layer="layer1"
     showgrid="false"
     inkscape:object-nodes="true"
     showguides="true"
     inkscape:guide-bbox="true"
     inkscape:snap-intersection-paths="true"
     inkscape:window-width="1855"
     inkscape:window-height="1056"
     inkscape:window-x="1265"
     inkscape:window-y="463"
     inkscape:window-maximized="1">
    <sodipodi:guide
       position="72.354309,820.97488"
       orientation="1,0"
       id="guide4140" />
    <sodipodi:guide
       position="694.78854,820.97489"
       orientation="1,0"
       id="guide4142" />
    <sodipodi:guide
       position="388.57143,740.00002"
       orientation="0,1"
       id="guide4150" />
    <sodipodi:guide
       position="94.95434,470.7311"
       orientation="0,1"
       id="guide4152"
       inkscape:label=""
       inkscape:color="rgb(0,0,255)" />
  </sodipodi:namedview>
  <metadata
     id="metadata7">
    <rdf:RDF>
      <cc:Work
         rdf:about="">
        <dc:format>image/svg+xml</dc:format>
        <dc:type
           rdf:resource="http://purl.org/dc/dcmitype/StillImage" />
        <dc:title></dc:title>
      </cc:Work>
    </rdf:RDF>
  </metadata>
  <g
     inkscape:label="Layer 1"
     inkscape:groupmode="layer"
     id="layer1">
    <path
       style="fill:none;stroke:#ff0000;stroke-width:1.5521183;stroke-miterlimit:4;stroke-dasharray:none;stroke-dashoffset:0"
       d="M 383.57242,29.914062 C 321.84295,29.913884 228.45474,150.76119 173.62021,179.13867 L 72.658731,231.38672 c 0,0 46.054019,275.89654 98.943929,404.07031 52.20065,126.50341 211.96976,351.54102 211.96976,351.54102 l 0.15024,-0.36719 0.15219,0.36719 c 0,0 159.7691,-225.03761 211.96975,-351.54102 52.88991,-128.17377 98.94393,-404.07031 98.94393,-404.07031 L 593.82705,179.13867 C 538.99252,150.76119 445.60432,29.913885 383.87485,29.914062 c -0.0512,10e-7 -0.10112,0.0036 -0.15219,0.0039 -0.0504,-2.73e-4 -0.0997,-0.0039 -0.15024,-0.0039 z"
       id="path4145"
       inkscape:connector-curvature="0" />
    <g
       id="g4169"
       style="stroke:#0000ff"
       transform="translate(50.878357,-66.73333)">
      <path
         inkscape:connector-curvature="0"
         id="path4156"
         d="m 232.33509,348.28588 0,61.61931"
         style="fill:none;fill-rule:evenodd;stroke:#0000ff;stroke-width:1px;stroke-linecap:butt;stroke-linejoin:miter;stroke-opacity:1" />
      <path
         style="fill:none;fill-rule:evenodd;stroke:#0000ff;stroke-width:1px;stroke-linecap:butt;stroke-linejoin:miter;stroke-opacity:1"
         d="m 201.52544,379.09553 61.61931,0"
         id="path4158"
         inkscape:connector-curvature="0" />
      <circle
         r="13.131983"
         cy="379.60062"
         cx="233.34525"
         id="path4160"
         style="fill:none;stroke:#0000ff;stroke-width:0.70866144;stroke-miterlimit:4;stroke-dasharray:none;stroke-dashoffset:0" />
    </g>
    <g
       transform="translate(251.89871,-66.73333)"
       style="stroke:#0000ff"
       id="g4174">
      <path
         style="fill:none;fill-rule:evenodd;stroke:#0000ff;stroke-width:1px;stroke-linecap:butt;stroke-linejoin:miter;stroke-opacity:1"
         d="m 232.33509,348.28588 0,61.61931"
         id="path4176"
         inkscape:connector-curvature="0" />
      <path
         inkscape:connector-curvature="0"
         id="path4178"
         d="m 201.52544,379.09553 61.61931,0"
         style="fill:none;fill-rule:evenodd;stroke:#0000ff;stroke-width:1px;stroke-linecap:butt;stroke-linejoin:miter;stroke-opacity:1" />
      <circle
         style="fill:none;stroke:#0000ff;stroke-width:0.70866144;stroke-miterlimit:4;stroke-dasharray:none;stroke-dashoffset:0"
         id="circle4180"
         cx="233.34525"
         cy="379.60062"
         r="13.131983" />
    </g>
    <g
       id="g4232"
       transform="translate(0,56.670485)">
      <g
         id="g4182"
         style="stroke:#0000ff"
         transform="translate(50.878357,145.8651)">
        <path
           inkscape:connector-curvature="0"
           id="path4184"
           d="m 232.33509,348.28588 0,61.61931"
           style="fill:none;fill-rule:evenodd;stroke:#0000ff;stroke-width:1px;stroke-linecap:butt;stroke-linejoin:miter;stroke-opacity:1" />
        <path
           style="fill:none;fill-rule:evenodd;stroke:#0000ff;stroke-width:1px;stroke-linecap:butt;stroke-linejoin:miter;stroke-opacity:1"
           d="m 201.52544,379.09553 61.61931,0"
           id="path4186"
           inkscape:connector-curvature="0" />
        <circle
           r="13.131983"
           cy="379.60062"
           cx="233.34525"
           id="circle4188"
           style="fill:none;stroke:#0000ff;stroke-width:0.70866144;stroke-miterlimit:4;stroke-dasharray:none;stroke-dashoffset:0" />
      </g>
      <g
         transform="translate(251.89871,145.8651)"
         style="stroke:#0000ff"
         id="g4190">
        <path
           style="fill:none;fill-rule:evenodd;stroke:#0000ff;stroke-width:1px;stroke-linecap:butt;stroke-linejoin:miter;stroke-opacity:1"
           d="m 232.33509,348.28588 0,61.61931"
           id="path4192"
           inkscape:connector-curvature="0" />
        <path
           inkscape:connector-curvature="0"
           id="path4194"
           d="m 201.52544,379.09553 61.61931,0"
           style="fill:none;fill-rule:evenodd;stroke:#0000ff;stroke-width:1px;stroke-linecap:butt;stroke-linejoin:miter;stroke-opacity:1" />
        <circle
           style="fill:none;stroke:#0000ff;stroke-width:0.70866144;stroke-miterlimit:4;stroke-dasharray:none;stroke-dashoffset:0"
           id="circle4196"
           cx="233.34525"
           cy="379.60062"
           r="13.131983" />
      </g>
    </g>
  </g>
</svg>
