<?xml version="1.0" encoding="UTF-8" standalone="no"?>
<!-- Created with Inkscape (http://www.inkscape.org/) -->

<svg
   xmlns:dc="http://purl.org/dc/elements/1.1/"
   xmlns:cc="http://creativecommons.org/ns#"
   xmlns:rdf="http://www.w3.org/1999/02/22-rdf-syntax-ns#"
   xmlns:svg="http://www.w3.org/2000/svg"
   xmlns="http://www.w3.org/2000/svg"
   xmlns:xlink="http://www.w3.org/1999/xlink"
   xmlns:sodipodi="http://sodipodi.sourceforge.net/DTD/sodipodi-0.dtd"
   xmlns:inkscape="http://www.inkscape.org/namespaces/inkscape"
   width="420mm"
   height="297mm"
   viewBox="0 0 1488.189 1052.3622"
   id="svg2"
   version="1.1"
   inkscape:version="0.91 r13725"
   sodipodi:docname="sword_print2.svg">
  <defs
     id="defs4" />
  <sodipodi:namedview
     id="base"
     pagecolor="#ffffff"
     bordercolor="#666666"
     borderopacity="1.0"
     inkscape:pageopacity="0.0"
     inkscape:pageshadow="2"
     inkscape:zoom="0.49766672"
     inkscape:cx="693.60729"
     inkscape:cy="535.44223"
     inkscape:document-units="cm"
     inkscape:current-layer="layer1"
     showgrid="false"
     showguides="true"
     inkscape:guide-bbox="true"
     inkscape:object-nodes="true"
     inkscape:snap-smooth-nodes="false"
     inkscape:snap-object-midpoints="false"
     inkscape:window-width="1440"
     inkscape:window-height="851"
     inkscape:window-x="0"
     inkscape:window-y="1"
     inkscape:window-maximized="1"
     inkscape:snap-center="true"
     inkscape:snap-others="false"
     inkscape:snap-to-guides="false"
     inkscape:snap-grids="false"
     inkscape:snap-global="false">
    <sodipodi:guide
       position="425.19686,0"
       orientation="1,0"
       id="guide3336"
       inkscape:label=""
       inkscape:color="rgb(0,0,255)" />
    <sodipodi:guide
       position="382.67717,0"
       orientation="1,0"
       id="guide3338"
       inkscape:label=""
       inkscape:color="rgb(0,0,255)" />
    <sodipodi:guide
       position="95.669289,0"
       orientation="1,0"
       id="guide3340"
       inkscape:label=""
       inkscape:color="rgb(0,0,255)" />
    <sodipodi:guide
       position="0,850.39371"
       orientation="0,1"
       id="guide3342"
       inkscape:label=""
       inkscape:color="rgb(0,0,255)" />
    <sodipodi:guide
       position="0,921.25986"
       orientation="0,1"
       id="guide3344"
       inkscape:label=""
       inkscape:color="rgb(0,0,255)" />
    <sodipodi:guide
       position="0,779.52757"
       orientation="0,1"
       id="guide3346"
       inkscape:label=""
       inkscape:color="rgb(0,0,255)" />
    <sodipodi:guide
       position="-754.28573,871.65355"
       orientation="0,1"
       id="guide3348"
       inkscape:label=""
       inkscape:color="rgb(0,0,255)" />
    <sodipodi:guide
       position="-699.02558,829.13387"
       orientation="0,1"
       id="guide3350"
       inkscape:label=""
       inkscape:color="rgb(0,0,255)" />
    <sodipodi:guide
       position="0,566.92914"
       orientation="0,1"
       id="guide3364"
       inkscape:label=""
       inkscape:color="rgb(0,0,255)" />
    <sodipodi:guide
       position="0,673.22836"
       orientation="0,1"
       id="guide3366"
       inkscape:label=""
       inkscape:color="rgb(0,0,255)" />
    <sodipodi:guide
       position="885.82679,0"
       orientation="1,0"
       id="guide3368"
       inkscape:label=""
       inkscape:color="rgb(0,0,255)" />
    <sodipodi:guide
       position="0,620.07875"
       orientation="0,1"
       id="guide3370"
       inkscape:label=""
       inkscape:color="rgb(0,0,255)" />
    <sodipodi:guide
       position="0,625.39371"
       orientation="0,1"
       id="guide3372"
       inkscape:label=""
       inkscape:color="rgb(0,0,255)" />
    <sodipodi:guide
       position="0,614.76379"
       orientation="0,1"
       id="guide3374"
       inkscape:label=""
       inkscape:color="rgb(0,0,255)" />
    <sodipodi:guide
       position="655.51183,0"
       orientation="1,0"
       id="guide3376"
       inkscape:label=""
       inkscape:color="rgb(0,0,255)" />
    <sodipodi:guide
       position="634.25198,0"
       orientation="1,0"
       id="guide3378"
       inkscape:label=""
       inkscape:color="rgb(0,0,255)" />
    <sodipodi:guide
       position="676.77167,0"
       orientation="1,0"
       id="guide3380"
       inkscape:label=""
       inkscape:color="rgb(0,0,255)" />
    <sodipodi:guide
       position="0,354.33071"
       orientation="0,1"
       id="guide3417"
       inkscape:label=""
       inkscape:color="rgb(0,0,255)" />
    <sodipodi:guide
       position="439.36915,614.76453"
       orientation="1,0"
       id="guide3419" />
    <sodipodi:guide
       position="481.89063,614.76453"
       orientation="1,0"
       id="guide3421" />
    <sodipodi:guide
       position="0,396.8504"
       orientation="0,1"
       id="guide3423"
       inkscape:label=""
       inkscape:color="rgb(0,0,255)" />
    <sodipodi:guide
       position="426.42774,620.07899"
       orientation="1,0"
       id="guide3430" />
    <sodipodi:guide
       position="460.62993,0"
       orientation="1,0"
       id="guide3432"
       inkscape:label=""
       inkscape:color="rgb(0,0,255)" />
    <sodipodi:guide
       position="496.063,0"
       orientation="1,0"
       id="guide3436"
       inkscape:label=""
       inkscape:color="rgb(0,0,255)" />
    <sodipodi:guide
       position="55.131457,829.13387"
       orientation="1,0"
       id="guide3447" />
    <sodipodi:guide
       position="414.56694,1137.9871"
       orientation="1,0"
       id="guide4565"
       inkscape:label=""
       inkscape:color="rgb(0,0,255)" />
    <sodipodi:guide
       position="403.93702,1137.9871"
       orientation="1,0"
       id="guide4567"
       inkscape:label=""
       inkscape:color="rgb(0,0,255)" />
    <sodipodi:guide
       position="403.93751,908.08489"
       orientation="0,1"
       id="guide4581" />
    <sodipodi:guide
       position="403.93702,891.57722"
       orientation="0,1"
       id="guide4583" />
    <sodipodi:guide
       position="403.93702,809.20972"
       orientation="0,1"
       id="guide4585" />
    <sodipodi:guide
       position="403.93751,792.70205"
       orientation="0,1"
       id="guide4587" />
    <sodipodi:guide
       position="-79.41232,921.25986"
       orientation="1,0"
       id="guide4597" />
    <sodipodi:guide
       position="-90.041225,921.25986"
       orientation="1,0"
       id="guide4602" />
  </sodipodi:namedview>
  <metadata
     id="metadata7">
    <rdf:RDF>
      <cc:Work
         rdf:about="">
        <dc:format>image/svg+xml</dc:format>
        <dc:type
           rdf:resource="http://purl.org/dc/dcmitype/StillImage" />
        <dc:title></dc:title>
      </cc:Work>
    </rdf:RDF>
  </metadata>
  <g
     inkscape:label="Layer 1"
     inkscape:groupmode="layer"
     id="layer1"
     transform="translate(0,-1.6535434e-6)">
    <path
       style="fill:none;fill-rule:evenodd;stroke:#ff0000;stroke-width:1px;stroke-linecap:butt;stroke-linejoin:miter;stroke-opacity:1"
       d="m 382.67716,38.975402 0,49.60742 -348.80664,0 0,42.519538 348.80664,0 0,49.60546 21.25977,0 c 363.78261,0 896.55937,9.2e-4 1061.74807,-70.86523 C 1300.4963,38.976442 767.71954,38.975402 403.93693,38.975402 l -21.25977,0 z m -335.099608,62.007818 16.789062,0 a 8.8582678,8.8582678 0 0 1 8.857422,8.85937 8.8582678,8.8582678 0 0 1 -8.857422,8.85742 l -16.789062,0 a 8.8582678,8.8582678 0 0 1 -8.857422,-8.85742 8.8582678,8.8582678 0 0 1 8.857422,-8.85937 z"
       id="path3356"
       inkscape:connector-curvature="0" />
    <path
       style="fill:none;stroke:#ff0000"
       d="m 587.19291,186.7717 c -7.10212,0.34491 -14.1968,0.85146 -21.25977,1.49609 -54.77188,4.99897 -107.45507,18.31335 -143.85547,29.30469 a 35.714287,35.714287 0 0 0 -28.2539,-13.9043 35.714287,35.714287 0 0 0 -35.71485,35.71484 35.714287,35.714287 0 0 0 35.71485,35.71485 35.714287,35.714287 0 0 0 28.23242,-13.91211 c 36.40108,10.99313 89.09408,24.31382 143.87695,29.31445 7.06086,0.64451 14.15392,1.15115 21.25391,1.49609 7.10393,-0.34495 14.20086,-0.85317 21.26562,-1.49804 l 0,0.002 c 54.78315,-5.00057 107.4757,-18.32127 143.87696,-29.31445 a 35.714287,35.714287 0 0 0 28.23242,13.91211 35.714287,35.714287 0 0 0 35.71484,-35.71485 35.714287,35.714287 0 0 0 -35.71484,-35.71484 35.714287,35.714287 0 0 0 -28.25391,13.9043 c -36.40039,-10.99134 -89.08358,-24.30571 -143.85547,-29.30469 -7.063,-0.64464 -14.15761,-1.15118 -21.25976,-1.49609 z m -216.14258,47.29687 42.52148,0 0,10.62891 -42.52148,0 0,-10.62891 z m 194.88281,0 42.51953,0 0,10.62891 -42.51953,0 0,-10.62891 z m 194.88282,0 42.51953,0 0,10.62891 -42.51953,0 0,-10.62891 z"
       id="path3384"
       inkscape:connector-curvature="0" />
    <path
       style="fill:none;fill-rule:evenodd;stroke:#ff0000;stroke-width:1px;stroke-linecap:butt;stroke-linejoin:miter;stroke-opacity:1"
       d="m 841.37547,533.55978 -42.51969,0 0,-12.94141 c -7.43443,14.84355 -16.1859,28.91236 -39.86165,34.20219 14.6368,6.68261 29.89824,10.99157 39.86165,35.43307 l 0,-14.17237 42.51969,0 c 70.38041,-12.22568 114.82231,-26.40898 133.70225,-42.52148 -46.78562,8.47655 -94.48684,16.05601 -133.70225,0 z"
       id="path3438"
       inkscape:connector-curvature="0"
       sodipodi:nodetypes="ccccccccc" />
    <path
       style="fill:none;stroke:#ff0000"
       d="m 591.21166,296.03144 a 41.324085,38.761093 0 0 0 -41.32422,38.76171 41.324085,38.761093 0 0 0 41.32422,38.76172 41.324085,38.761093 0 0 0 41.32422,-38.76172 41.324085,38.761093 0 0 0 -41.32422,-38.76171 z m -21.25977,33.44726 42.51953,0 0,10.62891 -42.51953,0 0,-10.62891 z"
       id="path3440"
       inkscape:connector-curvature="0"
       inkscape:tile-cx="591.21166"
       inkscape:tile-cy="340.82128"
       inkscape:tile-w="82.64844"
       inkscape:tile-h="77.52343"
       inkscape:tile-x0="549.88744"
       inkscape:tile-y0="302.05957" />
    <path
       style="fill:none;fill-rule:evenodd;stroke:#ff0000;stroke-width:1px;stroke-linecap:butt;stroke-linejoin:miter;stroke-opacity:1"
       d="m 126.33442,145.28504 c -34.131456,0 -24.13086,70.86719 -55.130859,70.86719 30.999999,0 20.999403,70.86523 55.130859,70.86523 34.13145,0 40.53906,-28.25976 40.53906,-28.25976 l 0,-21.34766 -40.53906,0 0,-42.51953 40.53906,0 0,-21.3457 c 0,0 -6.40761,-28.25977 -40.53906,-28.25977 z"
       id="path3486"
       inkscape:connector-curvature="0" />
    <path
       style="fill:none;fill-rule:evenodd;stroke:#ff0000;stroke-width:1px;stroke-linecap:butt;stroke-linejoin:miter;stroke-opacity:1"
       d="m 501.73636,383.90423 c -34.13145,0 -24.13085,70.86718 -55.13085,70.86718 31,0 20.9994,70.86524 55.13085,70.86524 34.13146,0 40.53907,-28.25977 40.53907,-28.25977 l 0,-42.60547 0,-42.60742 c 0,0 -6.40761,-28.25976 -40.53907,-28.25976 z m 17.56055,62.00781 a 8.8582678,8.8582678 0 0 1 8.85938,8.85937 8.8582678,8.8582678 0 0 1 -8.85938,8.85743 8.8582678,8.8582678 0 0 1 -8.85742,-8.85743 8.8582678,8.8582678 0 0 1 8.85742,-8.85937 z"
       id="path3492"
       inkscape:connector-curvature="0" />
    <path
       style="fill:none;stroke:#ff0000"
       d="m 319.15819,139.66305 c -19.72489,-3.1e-4 -35.71516,15.98995 -35.71485,35.71484 0.017,11.05699 5.15444,21.48257 13.91211,28.23242 -10.99313,36.40108 -24.31382,89.09408 -29.31445,143.87695 -0.64451,7.06086 -1.15115,14.15393 -1.49609,21.25391 0.34495,7.10393 0.85317,14.20087 1.49804,21.26563 l -0.002,0 c 5.00057,54.78315 18.32127,107.47569 29.31445,143.87695 -8.75767,6.74985 -13.89509,17.17543 -13.91211,28.23242 -3.1e-4,19.72489 15.98996,35.71515 35.71485,35.71484 19.72489,3.1e-4 35.71515,-15.98995 35.71484,-35.71484 -0.009,-11.06319 -5.14359,-21.49785 -13.90429,-28.25391 10.99134,-36.40039 24.3057,-89.08357 29.30468,-143.85546 0.64464,-7.063 1.15119,-14.15762 1.4961,-21.25977 -0.34491,-7.10211 -0.85147,-14.1968 -1.4961,-21.25977 -4.99897,-54.77188 -18.31334,-107.45506 -29.30468,-143.85546 8.76069,-6.75606 13.89579,-17.19072 13.90429,-28.25391 3.1e-4,-19.72489 -15.98995,-35.71515 -35.71484,-35.71484 z m -5.31445,12.9414 10.6289,0 0,42.52149 -10.6289,0 0,-42.52149 z m 0,145.27539 10.6289,0 0,13.17578 10.62891,0 0,16.50782 10.63086,0 0,82.36718 -10.63086,0 0,16.50782 -10.62891,0 0,13.17382 -10.6289,0 0,-13.17382 -10.62891,0 0,-16.50782 -10.63086,0 0,-82.36718 10.63086,0 0,-16.50782 10.62891,0 0,-13.17578 z m 0,244.49024 10.6289,0 0,42.51953 -10.6289,0 0,-42.51953 z"
       id="path4572"
       inkscape:connector-curvature="0" />
    <path
       style="fill:none;fill-rule:evenodd;stroke:#ff0000;stroke-width:1.11264181px;stroke-linecap:butt;stroke-linejoin:miter;stroke-opacity:1"
       d="m 382.89481,286.94285 0,115.38284 22.49023,0 c 41.38099,-1.68189 82.19802,-11.0486 120.27735,-57.69142 -38.07933,-46.64282 -78.89636,-56.00952 -120.27735,-57.69142 l -22.49023,0 z"
       id="path4574"
       inkscape:connector-curvature="0" />
    <path
       inkscape:connector-curvature="0"
       id="path4579"
       d="m 1290.4123,229.44376 0,82.3675 22.4907,0 c 33.9136,-1.20064 63.3062,-7.88718 94.514,-41.18375 -31.2078,-33.29657 -60.6004,-39.9831 -94.514,-41.18375 z"
       style="fill:none;fill-rule:evenodd;stroke:#ff0000;stroke-width:0.85103917px;stroke-linecap:butt;stroke-linejoin:miter;stroke-opacity:1"
       sodipodi:nodetypes="cccccc" />
    <path
       inkscape:connector-curvature="0"
       id="path4645"
       d="m 213.93363,139.65719 c -19.72489,-3.1e-4 -35.71516,15.98995 -35.71485,35.71484 0.017,11.05699 5.15444,21.48257 13.91211,28.23242 -10.99313,36.40108 -24.31382,89.09408 -29.31445,143.87695 -0.64451,7.06086 -1.15115,14.15393 -1.49609,21.25391 0.34495,7.10393 0.85317,14.20087 1.49804,21.26563 l -0.002,0 c 5.00057,54.78315 18.32127,107.47569 29.31445,143.87695 -8.75767,6.74985 -13.89509,17.17543 -13.91211,28.23242 -3.1e-4,19.72489 15.98996,35.71515 35.71485,35.71484 19.72489,3.1e-4 35.71515,-15.98995 35.71484,-35.71484 -0.009,-11.06319 -5.14359,-21.49785 -13.90429,-28.25391 10.99134,-36.40039 24.3057,-89.08357 29.30468,-143.85546 0.64464,-7.063 1.15119,-14.15762 1.4961,-21.25977 -0.34491,-7.10211 -0.85147,-14.1968 -1.4961,-21.25977 -4.99897,-54.77188 -18.31334,-107.45506 -29.30468,-143.85546 8.76069,-6.75606 13.89579,-17.19072 13.90429,-28.25391 3.1e-4,-19.72489 -15.98995,-35.71515 -35.71484,-35.71484 z m -5.31445,12.9414 10.6289,0 0,42.52149 -10.6289,0 0,-42.52149 z m 0,145.27539 10.6289,0 0,13.17578 10.62891,0 0,16.50782 10.63086,0 0,82.36718 -10.63086,0 0,16.50782 -10.62891,0 0,13.17382 -10.6289,0 0,-13.17382 -10.62891,0 0,-16.50782 -10.63086,0 0,-82.36718 10.63086,0 0,-16.50782 10.62891,0 0,-13.17578 z m 0,244.49024 10.6289,0 0,42.51953 -10.6289,0 0,-42.51953 z"
       style="fill:none;stroke:#ff0000" />
    <path
       inkscape:connector-curvature="0"
       id="path4647"
       d="m 1053.3683,176.72482 c -7.1021,0.34491 -14.1968,0.85146 -21.2597,1.49609 -54.7719,4.99897 -107.45509,18.31335 -143.85549,29.30469 a 35.714287,35.714287 0 0 0 -28.2539,-13.9043 35.714287,35.714287 0 0 0 -35.71485,35.71484 35.714287,35.714287 0 0 0 35.71485,35.71485 35.714287,35.714287 0 0 0 28.23242,-13.91211 c 36.40108,10.99313 89.09408,24.31382 143.87697,29.31445 7.0608,0.64451 14.1539,1.15115 21.2539,1.49609 7.1039,-0.34495 14.2008,-0.85317 21.2656,-1.49804 l 0,0.002 c 54.7831,-5.00057 107.4757,-18.32127 143.8769,-29.31445 a 35.714287,35.714287 0 0 0 28.2325,13.91211 35.714287,35.714287 0 0 0 35.7148,-35.71485 35.714287,35.714287 0 0 0 -35.7148,-35.71484 35.714287,35.714287 0 0 0 -28.2539,13.9043 c -36.4004,-10.99134 -89.0836,-24.30571 -143.8555,-29.30469 -7.063,-0.64464 -14.1576,-1.15118 -21.2598,-1.49609 z m -216.14253,47.29687 42.52148,0 0,10.62891 -42.52148,0 0,-10.62891 z m 194.88283,0 42.5195,0 0,10.62891 -42.5195,0 0,-10.62891 z m 194.8828,0 42.5195,0 0,10.62891 -42.5195,0 0,-10.62891 z"
       style="fill:none;stroke:#ff0000" />
    <path
       inkscape:connector-curvature="0"
       id="path4649"
       d="m 1462.1939,247.60367 0,-115.38284 -22.4902,0 c -41.381,1.68189 -82.1981,11.0486 -120.2774,57.69142 38.0793,46.64282 78.8964,56.00952 120.2774,57.69142 l 22.4902,0 z"
       style="fill:none;fill-rule:evenodd;stroke:#ff0000;stroke-width:1.11264181px;stroke-linecap:butt;stroke-linejoin:miter;stroke-opacity:1" />
    <path
       sodipodi:nodetypes="ccccccccc"
       inkscape:connector-curvature="0"
       id="path4651"
       d="m 1170.1624,577.27705 42.5196,0 0,12.94141 c 7.4345,-14.84355 16.1859,-28.91236 39.8617,-34.20219 -14.6368,-6.68261 -29.8982,-10.99157 -39.8617,-35.43307 l 0,14.17237 -42.5196,0 c -70.3805,12.22568 -114.8224,26.40898 -133.7023,42.52148 46.7856,-8.47655 94.4868,-16.05601 133.7023,0 z"
       style="fill:none;fill-rule:evenodd;stroke:#ff0000;stroke-width:1px;stroke-linecap:butt;stroke-linejoin:miter;stroke-opacity:1" />
    <use
       x="0"
       y="0"
       inkscape:tiled-clone-of="#path3440"
       xlink:href="#path3440"
       transform="translate(0,77.52343)"
       id="use4655"
       width="100%"
       height="100%"
       style="stroke:#ff0000;fill:none" />
    <use
       x="0"
       y="0"
       inkscape:tiled-clone-of="#path3440"
       xlink:href="#path3440"
       transform="translate(0,155.04686)"
       id="use4657"
       width="100%"
       height="100%"
       style="stroke:#ff0000;fill:none" />
    <use
       x="0"
       y="0"
       inkscape:tiled-clone-of="#path3440"
       xlink:href="#path3440"
       transform="translate(82.64844,1.2990935e-8)"
       id="use4659"
       width="100%"
       height="100%"
       style="stroke:#ff0000;fill:none" />
    <use
       x="0"
       y="0"
       inkscape:tiled-clone-of="#path3440"
       xlink:href="#path3440"
       transform="translate(82.64844,77.52343)"
       id="use4661"
       width="100%"
       height="100%"
       style="stroke:#ff0000;fill:none" />
    <use
       x="0"
       y="0"
       inkscape:tiled-clone-of="#path3440"
       xlink:href="#path3440"
       transform="translate(82.64844,155.04686)"
       id="use4663"
       width="100%"
       height="100%"
       style="stroke:#ff0000;fill:none" />
    <use
       x="0"
       y="0"
       inkscape:tiled-clone-of="#path3440"
       xlink:href="#path3440"
       transform="translate(165.29688,1.2990935e-8)"
       id="use4665"
       width="100%"
       height="100%"
       style="stroke:#ff0000;fill:none" />
    <use
       x="0"
       y="0"
       inkscape:tiled-clone-of="#path3440"
       xlink:href="#path3440"
       transform="translate(165.29688,77.52343)"
       id="use4667"
       width="100%"
       height="100%"
       style="stroke:#ff0000;fill:none" />
    <use
       x="0"
       y="0"
       inkscape:tiled-clone-of="#path3440"
       xlink:href="#path3440"
       transform="translate(165.29688,155.04686)"
       id="use4669"
       width="100%"
       height="100%"
       style="stroke:#ff0000;fill:none" />
    <use
       x="0"
       y="0"
       inkscape:tiled-clone-of="#path3440"
       xlink:href="#path3440"
       transform="translate(247.94532,1.2990935e-8)"
       id="use4671"
       width="100%"
       height="100%"
       style="stroke:#ff0000;fill:none" />
    <use
       x="0"
       y="0"
       inkscape:tiled-clone-of="#path3440"
       xlink:href="#path3440"
       transform="translate(247.94532,77.52343)"
       id="use4673"
       width="100%"
       height="100%"
       style="stroke:#ff0000;fill:none" />
    <use
       x="0"
       y="0"
       inkscape:tiled-clone-of="#path3440"
       xlink:href="#path3440"
       transform="translate(247.94532,155.04686)"
       id="use4675"
       width="100%"
       height="100%"
       style="stroke:#ff0000;fill:none" />
    <use
       x="0"
       y="0"
       inkscape:tiled-clone-of="#path3440"
       xlink:href="#path3440"
       transform="translate(330.59376,1.2990935e-8)"
       id="use4677"
       width="100%"
       height="100%"
       style="stroke:#ff0000;fill:none" />
    <use
       x="0"
       y="0"
       inkscape:tiled-clone-of="#path3440"
       xlink:href="#path3440"
       transform="translate(330.59376,77.52343)"
       id="use4679"
       width="100%"
       height="100%"
       style="stroke:#ff0000;fill:none" />
    <use
       x="0"
       y="0"
       inkscape:tiled-clone-of="#path3440"
       xlink:href="#path3440"
       transform="translate(330.59376,155.04686)"
       id="use4681"
       width="100%"
       height="100%"
       style="stroke:#ff0000;fill:none" />
    <use
       x="0"
       y="0"
       inkscape:tiled-clone-of="#path3440"
       xlink:href="#path3440"
       transform="translate(413.2422,1.2990935e-8)"
       id="use4683"
       width="100%"
       height="100%"
       style="stroke:#ff0000;fill:none" />
    <use
       x="0"
       y="0"
       inkscape:tiled-clone-of="#path3440"
       xlink:href="#path3440"
       transform="translate(413.2422,77.52343)"
       id="use4685"
       width="100%"
       height="100%"
       style="stroke:#ff0000;fill:none" />
    <use
       x="0"
       y="0"
       inkscape:tiled-clone-of="#path3440"
       xlink:href="#path3440"
       transform="translate(413.2422,155.04686)"
       id="use4687"
       width="100%"
       height="100%"
       style="stroke:#ff0000;fill:none" />
    <use
       x="0"
       y="0"
       inkscape:tiled-clone-of="#path3440"
       xlink:href="#path3440"
       transform="translate(495.89064,1.2990935e-8)"
       id="use4689"
       width="100%"
       height="100%"
       style="stroke:#ff0000;fill:none" />
    <use
       x="0"
       y="0"
       inkscape:tiled-clone-of="#path3440"
       xlink:href="#path3440"
       transform="translate(495.89064,77.52343)"
       id="use4691"
       width="100%"
       height="100%"
       style="stroke:#ff0000;fill:none" />
    <use
       x="0"
       y="0"
       inkscape:tiled-clone-of="#path3440"
       xlink:href="#path3440"
       transform="translate(495.89064,155.04686)"
       id="use4693"
       width="100%"
       height="100%"
       style="stroke:#ff0000;fill:none" />
    <use
       x="0"
       y="0"
       inkscape:tiled-clone-of="#path3440"
       xlink:href="#path3440"
       transform="translate(578.53908,1.2990935e-8)"
       id="use4695"
       width="100%"
       height="100%"
       style="stroke:#ff0000;fill:none" />
    <use
       x="0"
       y="0"
       inkscape:tiled-clone-of="#path3440"
       xlink:href="#path3440"
       transform="translate(578.53908,77.52343)"
       id="use4697"
       width="100%"
       height="100%"
       style="stroke:#ff0000;fill:none" />
    <use
       x="0"
       y="0"
       inkscape:tiled-clone-of="#path3440"
       xlink:href="#path3440"
       transform="translate(578.53908,155.04686)"
       id="use4699"
       width="100%"
       height="100%"
       style="stroke:#ff0000;fill:none" />
    <use
       x="0"
       y="0"
       inkscape:tiled-clone-of="#path3440"
       xlink:href="#path3440"
       transform="translate(661.18752,1.2990935e-8)"
       id="use4701"
       width="100%"
       height="100%"
       style="stroke:#ff0000;fill:none" />
    <use
       x="0"
       y="0"
       inkscape:tiled-clone-of="#path3440"
       xlink:href="#path3440"
       transform="translate(661.18752,77.52343)"
       id="use4703"
       width="100%"
       height="100%"
       style="stroke:#ff0000;fill:none" />
    <use
       x="0"
       y="0"
       inkscape:tiled-clone-of="#path3440"
       xlink:href="#path3440"
       transform="translate(661.18752,155.04686)"
       id="use4705"
       width="100%"
       height="100%"
       style="stroke:#ff0000;fill:none" />
    <path
       sodipodi:nodetypes="cccccc"
       style="fill:none;fill-rule:evenodd;stroke:#ff0000;stroke-width:0.85103917px;stroke-linecap:butt;stroke-linejoin:miter;stroke-opacity:1"
       d="m 1455.7997,374.10194 0,-82.3675 -22.4907,0 c -33.9136,1.20064 -63.3062,7.88718 -94.514,41.18375 31.2078,33.29657 60.6004,39.9831 94.514,41.18375 z"
       id="path4707"
       inkscape:connector-curvature="0" />
    <path
       inkscape:connector-curvature="0"
       id="path4709"
       d="m 411.28826,557.78668 c 34.13145,0 24.13085,-70.86718 55.13085,-70.86718 -31,0 -20.9994,-70.86524 -55.13085,-70.86524 -34.13146,0 -40.53907,28.25977 -40.53907,28.25977 l 0,42.60547 0,42.60742 c 0,0 6.40761,28.25976 40.53907,28.25976 z m -17.56055,-62.00781 a 8.8582678,8.8582678 0 0 1 -8.85938,-8.85937 8.8582678,8.8582678 0 0 1 8.85938,-8.85743 8.8582678,8.8582678 0 0 1 8.85742,8.85743 8.8582678,8.8582678 0 0 1 -8.85742,8.85937 z"
       style="fill:none;fill-rule:evenodd;stroke:#ff0000;stroke-width:1px;stroke-linecap:butt;stroke-linejoin:miter;stroke-opacity:1" />
    <path
       inkscape:connector-curvature="0"
       id="path4711"
       d="m 1420.0216,420.07301 c -34.1315,0 -24.1309,70.86718 -55.1309,70.86718 31,0 20.9994,70.86524 55.1309,70.86524 34.1314,0 40.539,-28.25977 40.539,-28.25977 l 0,-42.60547 0,-42.60742 c 0,0 -6.4076,-28.25976 -40.539,-28.25976 z m 17.5605,62.00781 a 8.8582678,8.8582678 0 0 1 8.8594,8.85937 8.8582678,8.8582678 0 0 1 -8.8594,8.85743 8.8582678,8.8582678 0 0 1 -8.8574,-8.85743 8.8582678,8.8582678 0 0 1 8.8574,-8.85937 z"
       style="fill:none;fill-rule:evenodd;stroke:#ff0000;stroke-width:1px;stroke-linecap:butt;stroke-linejoin:miter;stroke-opacity:1" />
    <path
       style="fill:none;fill-rule:evenodd;stroke:#ff0000;stroke-width:1px;stroke-linecap:butt;stroke-linejoin:miter;stroke-opacity:1"
       d="m 1339.6204,493.48662 c 34.1314,0 24.1308,-70.86718 55.1308,-70.86718 -31,0 -20.9994,-70.86524 -55.1308,-70.86524 -34.1315,0 -40.5391,28.25977 -40.5391,28.25977 l 0,42.60547 0,42.60742 c 0,0 6.4076,28.25976 40.5391,28.25976 z m -17.5606,-62.00781 a 8.8582678,8.8582678 0 0 1 -8.8594,-8.85937 8.8582678,8.8582678 0 0 1 8.8594,-8.85743 8.8582678,8.8582678 0 0 1 8.8574,8.85743 8.8582678,8.8582678 0 0 1 -8.8574,8.85937 z"
       id="path4717"
       inkscape:connector-curvature="0" />
    <path
       style="fill:none;fill-rule:evenodd;stroke:#ff0000;stroke-width:1px;stroke-linecap:butt;stroke-linejoin:miter;stroke-opacity:1"
       d="m 73.712946,391.0084 c 34.131454,0 24.13085,-70.86718 55.130854,-70.86718 -31.000004,0 -20.9994,-70.86524 -55.130854,-70.86524 -34.13146,0 -40.53907,28.25977 -40.53907,28.25977 l 0,42.60547 0,42.60742 c 0,0 6.40761,28.25976 40.53907,28.25976 z m -17.56055,-62.00781 a 8.8582678,8.8582678 0 0 1 -8.85938,-8.85937 8.8582678,8.8582678 0 0 1 8.85938,-8.85743 8.8582678,8.8582678 0 0 1 8.85742,8.85743 8.8582678,8.8582678 0 0 1 -8.85742,8.85937 z"
       id="path4719"
       inkscape:connector-curvature="0" />
    <path
       inkscape:connector-curvature="0"
       id="path4721"
       d="m 113.92662,373.85735 c -34.131446,0 -24.130846,70.86718 -55.130846,70.86718 31,0 20.9994,70.86524 55.130846,70.86524 34.13146,0 40.53907,-28.25977 40.53907,-28.25977 l 0,-42.60547 0,-42.60742 c 0,0 -6.40761,-28.25976 -40.53907,-28.25976 z m 17.56055,62.00781 a 8.8582678,8.8582678 0 0 1 8.85938,8.85937 8.8582678,8.8582678 0 0 1 -8.85938,8.85743 8.8582678,8.8582678 0 0 1 -8.85742,-8.85743 8.8582678,8.8582678 0 0 1 8.85742,-8.85937 z"
       style="fill:none;fill-rule:evenodd;stroke:#ff0000;stroke-width:1px;stroke-linecap:butt;stroke-linejoin:miter;stroke-opacity:1" />
  </g>
</svg>
