0
SECTION
2
HEADER
9
$INSUNITS
70
4
9
$ACADVER
1
AC1014
9
$HANDSEED
5
FFFF
0
ENDSEC
0
SECTION
2
TABLES
0
TABLE
2
VPORT
5
8
100
AcDbSymbolTable
0
ENDTAB
0
TABLE
2
LTYPE
5
5
100
AcDbSymbolTable
0
LTYPE
5
14
100
AcDbSymbolTableRecord
100
AcDbLinetypeTableRecord
2
BYBLOCK
70
0
0
LTYPE
5
15
100
AcDbSymbolTableRecord
100
AcDbLinetypeTableRecord
2
BYLAYER
70
0
0
ENDTAB
0
TABLE
2
LAYER
5
2
100
AcDbSymbolTable
70
2
0
LAYER
5
50
100
AcDbSymbolTableRecord
100
AcDbLayerTableRecord
2
0
70
0
6
CONTINUOUS
0
ENDTAB
0
TABLE
2
STYLE
5
3
100
AcDbSymbolTable
70
1
0
STYLE
5
11
100
AcDbSymbolTableRecord
100
AcDbTextStyleTableRecord
2
STANDARD
70
0
0
ENDTAB
0
TABLE
2
VIEW
5
6
100
AcDbSymbolTable
70
0
0
ENDTAB
0
TABLE
2
UCS
5
7
100
AcDbSymbolTable
70
0
0
ENDTAB
0
TABLE
2
APPID
5
9
100
AcDbSymbolTable
70
2
0
APPID
5
12
100
AcDbSymbolTableRecord
100
AcDbRegAppTableRecord
2
ACAD
70
0
0
ENDTAB
0
TABLE
2
DIMSTYLE
5
A
100
AcDbSymbolTable
70
1
0
ENDTAB
0
TABLE
2
BLOCK_RECORD
5
1
100
AcDbSymbolTable
70
1
0
BLOCK_RECORD
5
1F
100
AcDbSymbolTableRecord
100
AcDbBlockTableRecord
2
*MODEL_SPACE
0
BLOCK_RECORD
5
1B
100
AcDbSymbolTableRecord
100
AcDbBlockTableRecord
2
*PAPER_SPACE
0
ENDTAB
0
ENDSEC
0
SECTION
2
BLOCKS
0
BLOCK
5
20
100
AcDbEntity
100
AcDbBlockBegin
2
*MODEL_SPACE
0
ENDBLK
5
21
100
AcDbEntity
100
AcDbBlockEnd
0
BLOCK
5
1C
100
AcDbEntity
100
AcDbBlockBegin
2
*PAPER_SPACE
0
ENDBLK
5
1D
100
AcDbEntity
100
AcDbBlockEnd
0
ENDSEC
0
SECTION
2
ENTITIES
0
LWPOLYLINE
5
100
100
AcDbEntity
8
0
100
AcDbPolyline
90
6
70
1
43
0.0
10
11.500000000000002
20
-37.020725942163686
10
11.500000000000002
20
-32.979274057836307
10
8
20
-30.958548115672613
10
4.5
20
-32.979274057836207
10
4.5000000000000009
20
-37.020725942163686
10
8.0000000000000036
20
-39.041451884327373
0
LWPOLYLINE
5
101
100
AcDbEntity
8
0
100
AcDbPolyline
90
4
70
1
43
0.0
10
2
20
-24.999999999999996
10
2
20
-15
10
-2
20
-15
10
-2
20
-24.999999999999996
0
LWPOLYLINE
5
102
100
AcDbEntity
8
0
100
AcDbPolyline
90
4
70
1
43
0.0
10
18
20
-15
10
14.000000000000002
20
-15
10
14.000000000000002
20
-24.999999999999996
10
18
20
-24.999999999999996
0
LWPOLYLINE
5
103
100
AcDbEntity
8
0
100
AcDbPolyline
90
24
70
1
43
0.0
10
18
20
-60
10
18
20
-50
10
14.000000000000002
20
-50
10
14.000000000000002
20
-60
10
1.9999999999999996
20
-60
10
1.9999999999999996
20
-50
10
-1.9999999999999996
20
-50
10
-1.9999999999999996
20
-60
10
-6.1110810826740352
20
-60
42
-0.41421356237309709
10
-9.1110810826740369
20
-57
10
-9.1110810826740334
20
9.0000000000000195
42
-0.41421356237309565
10
-6.1110810826740298
20
12.00000000000002
10
-1.9999999999999996
20
12.00000000000002
10
-1.9999999999999996
20
0
10
1.9999999999999996
20
2.2204460492503131e-15
10
1.9999999999999996
20
12.00000000000002
10
14.000000000000002
20
12.00000000000002
10
14.000000000000002
20
0
10
18
20
2.2204460492503131e-15
10
18
20
12.00000000000002
10
22.111081082674033
20
12.000000000000025
42
-0.41421356237309515
10
25.111081082674037
20
9.0000000000000213
10
25.111081082674037
20
-56.999999999999972
42
-0.41421356237309637
10
22.111081082674033
20
-59.999999999999993
0
ENDSEC
0
SECTION
2
OBJECTS
0
DICTIONARY
5
C
100
AcDbDictionary
3
ACAD_GROUP
350
D
3
ACAD_MLINESTYLE
350
17
0
DICTIONARY
5
D
100
AcDbDictionary
0
DICTIONARY
5
1A
330
C
100
AcDbDictionary
0
DICTIONARY
5
17
100
AcDbDictionary
0
ENDSEC
0
EOF
