0
SECTION
2
HEADER
9
$INSUNITS
70
4
9
$ACADVER
1
AC1014
9
$HANDSEED
5
FFFF
0
ENDSEC
0
SECTION
2
TABLES
0
TABLE
2
VPORT
5
8
100
AcDbSymbolTable
0
ENDTAB
0
TABLE
2
LTYPE
5
5
100
AcDbSymbolTable
0
LTYPE
5
14
100
AcDbSymbolTableRecord
100
AcDbLinetypeTableRecord
2
BYBLOCK
70
0
0
LTYPE
5
15
100
AcDbSymbolTableRecord
100
AcDbLinetypeTableRecord
2
BYLAYER
70
0
0
ENDTAB
0
TABLE
2
LAYER
5
2
100
AcDbSymbolTable
70
2
0
LAYER
5
50
100
AcDbSymbolTableRecord
100
AcDbLayerTableRecord
2
0
70
0
6
CONTINUOUS
0
ENDTAB
0
TABLE
2
STYLE
5
3
100
AcDbSymbolTable
70
1
0
STYLE
5
11
100
AcDbSymbolTableRecord
100
AcDbTextStyleTableRecord
2
STANDARD
70
0
0
ENDTAB
0
TABLE
2
VIEW
5
6
100
AcDbSymbolTable
70
0
0
ENDTAB
0
TABLE
2
UCS
5
7
100
AcDbSymbolTable
70
0
0
ENDTAB
0
TABLE
2
APPID
5
9
100
AcDbSymbolTable
70
2
0
APPID
5
12
100
AcDbSymbolTableRecord
100
AcDbRegAppTableRecord
2
ACAD
70
0
0
ENDTAB
0
TABLE
2
DIMSTYLE
5
A
100
AcDbSymbolTable
70
1
0
ENDTAB
0
TABLE
2
BLOCK_RECORD
5
1
100
AcDbSymbolTable
70
1
0
BLOCK_RECORD
5
1F
100
AcDbSymbolTableRecord
100
AcDbBlockTableRecord
2
*MODEL_SPACE
0
BLOCK_RECORD
5
1B
100
AcDbSymbolTableRecord
100
AcDbBlockTableRecord
2
*PAPER_SPACE
0
ENDTAB
0
ENDSEC
0
SECTION
2
BLOCKS
0
BLOCK
5
20
100
AcDbEntity
100
AcDbBlockBegin
2
*MODEL_SPACE
0
ENDBLK
5
21
100
AcDbEntity
100
AcDbBlockEnd
0
BLOCK
5
1C
100
AcDbEntity
100
AcDbBlockBegin
2
*PAPER_SPACE
0
ENDBLK
5
1D
100
AcDbEntity
100
AcDbBlockEnd
0
ENDSEC
0
SECTION
2
ENTITIES
0
LWPOLYLINE
5
100
100
AcDbEntity
8
0
100
AcDbPolyline
90
4
70
1
43
0.0
10
-11.500000000000005
20
11.999999999999991
10
-14.500000000000007
20
11.999999999999991
10
-14.500000000000007
20
6.0000000000000036
10
-11.500000000000005
20
6.0000000000000036
0
LWPOLYLINE
5
101
100
AcDbEntity
8
0
100
AcDbPolyline
90
4
70
1
43
0.0
10
-11.500000000000005
20
24
10
-14.500000000000007
20
24
10
-14.500000000000007
20
17.999999999999993
10
-11.500000000000005
20
17.999999999999993
0
LWPOLYLINE
5
102
100
AcDbEntity
8
0
100
AcDbPolyline
90
4
70
1
43
0.0
10
-26.000000000000011
20
11.999999999999991
10
-29.000000000000007
20
11.999999999999991
10
-29.000000000000007
20
6.0000000000000036
10
-26.000000000000011
20
6.0000000000000036
0
LWPOLYLINE
5
103
100
AcDbEntity
8
0
100
AcDbPolyline
90
4
70
1
43
0.0
10
-26.000000000000011
20
24
10
-29.000000000000007
20
24
10
-29.000000000000007
20
17.999999999999993
10
-26.000000000000011
20
17.999999999999993
0
LWPOLYLINE
5
104
100
AcDbEntity
8
0
100
AcDbPolyline
90
4
70
1
43
0.0
10
-40.500000000000014
20
11.999999999999991
10
-43.500000000000014
20
11.999999999999991
10
-43.500000000000007
20
6.0000000000000036
10
-40.500000000000007
20
6.0000000000000036
0
LWPOLYLINE
5
105
100
AcDbEntity
8
0
100
AcDbPolyline
90
4
70
1
43
0.0
10
-40.500000000000014
20
24
10
-43.500000000000014
20
24
10
-43.500000000000007
20
17.999999999999993
10
-40.500000000000007
20
17.999999999999993
0
LWPOLYLINE
5
106
100
AcDbEntity
8
0
100
AcDbPolyline
90
24
70
1
43
0.0
10
-58.000000000000007
20
30
10
2.9999999999999938
20
30
10
2.9999999999999938
20
17.999999999999993
10
4.4408920985006262e-15
20
17.999999999999993
10
4.4408920985006262e-15
20
11.999999999999991
10
2.9999999999999938
20
11.999999999999991
10
2.9999999999999938
20
6.0000000000000036
10
4.4408920985006254e-15
20
6.0000000000000036
10
4.4408920985006262e-15
20
0
10
-16.5
20
0
10
-16.5
20
-3.0000000000000004
10
-22.000000327825543
20
-3.0000000000000004
10
-22.000000327825543
20
0
10
-33.000000000000007
20
0
10
-33.000000000000007
20
-3.0000000000000004
10
-38.500000000000007
20
-3.0000000000000004
10
-38.500000000000014
20
0
10
-55.000000000000014
20
0
10
-55.000000000000014
20
6.0000000000000036
10
-58.000000000000007
20
6.0000000000000036
10
-58.000000000000007
20
11.999999999999991
10
-55.000000000000014
20
11.999999999999991
10
-55.000000000000014
20
17.999999999999993
10
-58.000000000000007
20
17.999999999999993
0
ENDSEC
0
SECTION
2
OBJECTS
0
DICTIONARY
5
C
100
AcDbDictionary
3
ACAD_GROUP
350
D
3
ACAD_MLINESTYLE
350
17
0
DICTIONARY
5
D
100
AcDbDictionary
0
DICTIONARY
5
1A
330
C
100
AcDbDictionary
0
DICTIONARY
5
17
100
AcDbDictionary
0
ENDSEC
0
EOF
